archive/rtl/chip/core/exu_swc/exu_upper_swc/exu_upper_tb.vcd
$version Generated by VerilatedVcd $end
$timescale 1ps $end
 $scope module TOP $end
  $scope module exu_upper_tb $end
   $var wire 1 1 hclk $end
   $var wire 1 # hrstn $end
   $var wire 4 $ cycle_cnt [3:0] $end
   $var wire 1 % dec_upper_en $end
   $var wire 1 & dec_lui $end
   $var wire 1 ' dec_auipc $end
   $var wire 20 ( dec_imm_type_u [19:0] $end
   $var wire 5 ) dec_rd [4:0] $end
   $var wire 32 * pc [31:0] $end
   $var wire 5 , reg_waddr [4:0] $end
   $var wire 1 - reg_wen $end
   $var wire 32 . reg_wdata [31:0] $end
   $var wire 1 + exu_stall $end
   $scope module uut $end
    $var wire 1 1 hclk $end
    $var wire 1 # hrstn $end
    $var wire 4 $ cycle_cnt [3:0] $end
    $var wire 1 % dec_upper_en $end
    $var wire 1 & dec_lui $end
    $var wire 1 ' dec_auipc $end
    $var wire 20 ( dec_imm_type_u [19:0] $end
    $var wire 5 ) dec_rd [4:0] $end
    $var wire 32 * pc [31:0] $end
    $var wire 5 , reg_waddr [4:0] $end
    $var wire 1 - reg_wen $end
    $var wire 32 . reg_wdata [31:0] $end
    $var wire 1 + exu_stall $end
    $var wire 5 / mid_reg_waddr [4:0] $end
    $var wire 1 - mid_reg_wen $end
    $var wire 32 0 mid_reg_wdata [31:0] $end
   $upscope $end
  $upscope $end
 $upscope $end
$enddefinitions $end


#0
0#
b0000 $
0%
0&
0'
b00000000000000000000 (
b00000 )
b00000000000000000000000000000000 *
0+
b00000 ,
0-
b00000000000000000000000000000000 .
b00000 /
b00000000000000000000000000000000 0
01
#5
11
#10
1#
01
#15
11
#20
b0001 $
1%
1&
b10101011110011011110 (
b01010 )
01
#25
b01010 ,
1-
b10101011110011011110000000000000 .
b01010 /
b10101011110011011110000000000000 0
11
#30
b0010 $
01
#35
b00000 ,
0-
b00000000000000000000000000000000 .
b00000 /
b00000000000000000000000000000000 0
11
#40
0%
0&
01
#45
11
#50
b0001 $
1%
1'
b00010010001101000101 (
b01111 )
b00000000000000000001000000000000 *
01
#55
b01111 ,
1-
b00010010001101000101111111111000 .
b01111 /
b00010010001101000101111111111000 0
11
#60
b0010 $
01
#65
b00000 ,
0-
b00000000000000000000000000000000 .
b00000 /
b00000000000000000000000000000000 0
11
#70
0%
0'
01
#75
11
#80
b0001 $
01
#85
11
#90
1+
01
#95
11
#100
0+
01
