rtl/component/asyncfifo_swc/asyncfifo_swc_tb.vcd
$version Generated by VerilatedVcd $end
$timescale 1ps $end

 $scope module TOP $end
  $scope module asyncfifo_swc_tb $end
   $var wire  1 7 empty $end
   $var wire  1 4 full $end
   $var wire  1 5 rclk $end
   $var wire 16 # rdata [15:0] $end
   $var wire  1 6 ren $end
   $var wire  1 0 rstn $end
   $var wire  1 1 wclk $end
   $var wire 16 3 wdata [15:0] $end
   $var wire  1 2 wen $end
   $scope module asyncfifo_swc_inst $end
    $var wire 32 : addr_width [31:0] $end
    $var wire 32 8 data_width [31:0] $end
    $var wire  1 7 empty $end
    $var wire  1 4 full $end
    $var wire  8 $ raddr [7:0] $end
    $var wire  9 % raddr_ptr [8:0] $end
    $var wire  9 & raddr_ptr_gray [8:0] $end
    $var wire  9 ' raddr_ptr_gray_r [8:0] $end
    $var wire  9 ( raddr_ptr_gray_rr [8:0] $end
    $var wire  9 ) raddr_ptr_restore [8:0] $end
    $var wire 32 9 ram_size [31:0] $end
    $var wire  1 5 rclk $end
    $var wire 16 # rdata [15:0] $end
    $var wire  1 6 ren $end
    $var wire  1 0 rstn $end
    $var wire  8 * waddr [7:0] $end
    $var wire  9 + waddr_ptr [8:0] $end
    $var wire  9 , waddr_ptr_gray [8:0] $end
    $var wire  9 - waddr_ptr_gray_r [8:0] $end
    $var wire  9 . waddr_ptr_gray_rr [8:0] $end
    $var wire  9 / waddr_ptr_restore [8:0] $end
    $var wire  1 1 wclk $end
    $var wire 16 3 wdata [15:0] $end
    $var wire  1 2 wen $end
    $scope module unnamedblk1 $end
     $var wire 32 ; i [31:0] $end
    $upscope $end
    $scope module unnamedblk2 $end
     $var wire 32 ; i [31:0] $end
    $upscope $end
   $upscope $end
  $upscope $end
 $upscope $end
$enddefinitions $end


#0
b0000000000000000 #
b00000000 $
b000000000 %
b000000000 &
b000000000 '
b000000000 (
b000000000 )
b00000000 *
b000000000 +
b000000000 ,
b000000000 -
b000000000 .
b000000000 /
00
01
02
b0000000000000000 3
04
05
06
17
b00000000000000000000000000010000 8
b00000000000000000000000100000000 9
b00000000000000000000000000001000 :
b11111111111111111111111111111111 ;
#10
11
#20
01
#30
11
15
#40
01
#50
11
#60
01
05
#70
11
#80
01
#90
11
15
#100
01
#110
11
#120
01
05
#130
11
#140
01
#150
11
15
#160
01
#170
11
#180
01
05
#190
11
#200
10
01
12
#210
b00000001 *
b000000001 +
b000000001 ,
11
b0000000000000001 3
15
#220
01
#230
b00000010 *
b000000010 +
b000000011 ,
b000000001 -
11
b0000000000000010 3
#240
01
05
#250
b00000011 *
b000000011 +
b000000010 ,
b000000011 -
b000000001 .
b000000001 /
11
b0000000000000011 3
07
#260
01
#270
b00000100 *
b000000100 +
b000000110 ,
b000000010 -
b000000011 .
b000000010 /
11
b0000000000000100 3
15
#280
01
#290
b00000101 *
b000000101 +
b000000111 ,
b000000110 -
b000000010 .
b000000011 /
11
b0000000000000101 3
#300
01
05
#310
b00000110 *
b000000110 +
b000000101 ,
b000000111 -
b000000110 .
b000000100 /
11
b0000000000000110 3
#320
01
#330
b00000111 *
b000000111 +
b000000100 ,
b000000101 -
b000000111 .
b000000101 /
11
b0000000000000111 3
15
#340
01
#350
b00001000 *
b000001000 +
b000001100 ,
b000000100 -
b000000101 .
b000000110 /
11
b0000000000001000 3
#360
01
05
#370
b00001001 *
b000001001 +
b000001101 ,
b000001100 -
b000000100 .
b000000111 /
11
b0000000000001001 3
#380
01
#390
b00001010 *
b000001010 +
b000001111 ,
b000001101 -
b000001100 .
b000001000 /
11
b0000000000001010 3
15
#400
01
#410
b00001011 *
b000001011 +
b000001110 ,
b000001111 -
b000001101 .
b000001001 /
11
b0000000000001011 3
#420
01
05
#430
b00001100 *
b000001100 +
b000001010 ,
b000001110 -
b000001111 .
b000001010 /
11
b0000000000001100 3
#440
01
#450
b00001101 *
b000001101 +
b000001011 ,
b000001010 -
b000001110 .
b000001011 /
11
b0000000000001101 3
15
#460
01
#470
b00001110 *
b000001110 +
b000001001 ,
b000001011 -
b000001010 .
b000001100 /
11
b0000000000001110 3
#480
01
05
#490
b00001111 *
b000001111 +
b000001000 ,
b000001001 -
b000001011 .
b000001101 /
11
b0000000000001111 3
#500
01
#510
b00010000 *
b000010000 +
b000011000 ,
b000001000 -
b000001001 .
b000001110 /
11
b0000000000010000 3
15
#520
01
#530
b00010001 *
b000010001 +
b000011001 ,
b000011000 -
b000001000 .
b000001111 /
11
b0000000000010001 3
#540
01
05
#550
b00010010 *
b000010010 +
b000011011 ,
b000011001 -
b000011000 .
b000010000 /
11
b0000000000010010 3
#560
01
#570
b00010011 *
b000010011 +
b000011010 ,
b000011011 -
b000011001 .
b000010001 /
11
b0000000000010011 3
15
#580
01
#590
b00010100 *
b000010100 +
b000011110 ,
b000011010 -
b000011011 .
b000010010 /
11
b0000000000010100 3
#600
01
05
#610
b00010101 *
b000010101 +
b000011111 ,
b000011110 -
b000011010 .
b000010011 /
11
b0000000000010101 3
#620
01
#630
b00010110 *
b000010110 +
b000011101 ,
b000011111 -
b000011110 .
b000010100 /
11
b0000000000010110 3
15
#640
01
#650
b00010111 *
b000010111 +
b000011100 ,
b000011101 -
b000011111 .
b000010101 /
11
b0000000000010111 3
#660
01
05
#670
b00011000 *
b000011000 +
b000010100 ,
b000011100 -
b000011101 .
b000010110 /
11
b0000000000011000 3
#680
01
#690
b00011001 *
b000011001 +
b000010101 ,
b000010100 -
b000011100 .
b000010111 /
11
b0000000000011001 3
15
#700
01
#710
b00011010 *
b000011010 +
b000010111 ,
b000010101 -
b000010100 .
b000011000 /
11
b0000000000011010 3
#720
01
05
#730
b00011011 *
b000011011 +
b000010110 ,
b000010111 -
b000010101 .
b000011001 /
11
b0000000000011011 3
#740
01
#750
b00011100 *
b000011100 +
b000010010 ,
b000010110 -
b000010111 .
b000011010 /
11
b0000000000011100 3
15
#760
01
#770
b00011101 *
b000011101 +
b000010011 ,
b000010010 -
b000010110 .
b000011011 /
11
b0000000000011101 3
#780
01
05
#790
b00011110 *
b000011110 +
b000010001 ,
b000010011 -
b000010010 .
b000011100 /
11
b0000000000011110 3
#800
01
#810
b00011111 *
b000011111 +
b000010000 ,
b000010001 -
b000010011 .
b000011101 /
11
b0000000000011111 3
15
#820
01
#830
b00100000 *
b000100000 +
b000110000 ,
b000010000 -
b000010001 .
b000011110 /
11
b0000000000100000 3
#840
01
05
#850
b00100001 *
b000100001 +
b000110001 ,
b000110000 -
b000010000 .
b000011111 /
11
b0000000000100001 3
#860
01
#870
b00100010 *
b000100010 +
b000110011 ,
b000110001 -
b000110000 .
b000100000 /
11
b0000000000100010 3
15
#880
01
#890
b00100011 *
b000100011 +
b000110010 ,
b000110011 -
b000110001 .
b000100001 /
11
b0000000000100011 3
#900
01
05
#910
b00100100 *
b000100100 +
b000110110 ,
b000110010 -
b000110011 .
b000100010 /
11
b0000000000100100 3
#920
01
#930
b00100101 *
b000100101 +
b000110111 ,
b000110110 -
b000110010 .
b000100011 /
11
b0000000000100101 3
15
#940
01
#950
b00100110 *
b000100110 +
b000110101 ,
b000110111 -
b000110110 .
b000100100 /
11
b0000000000100110 3
#960
01
05
#970
b00100111 *
b000100111 +
b000110100 ,
b000110101 -
b000110111 .
b000100101 /
11
b0000000000100111 3
#980
01
#990
b00101000 *
b000101000 +
b000111100 ,
b000110100 -
b000110101 .
b000100110 /
11
b0000000000101000 3
15
#1000
01
#1010
b00101001 *
b000101001 +
b000111101 ,
b000111100 -
b000110100 .
b000100111 /
11
b0000000000101001 3
#1020
01
05
#1030
b00101010 *
b000101010 +
b000111111 ,
b000111101 -
b000111100 .
b000101000 /
11
b0000000000101010 3
#1040
01
#1050
b00101011 *
b000101011 +
b000111110 ,
b000111111 -
b000111101 .
b000101001 /
11
b0000000000101011 3
15
#1060
01
#1070
b00101100 *
b000101100 +
b000111010 ,
b000111110 -
b000111111 .
b000101010 /
11
b0000000000101100 3
#1080
01
05
#1090
b00101101 *
b000101101 +
b000111011 ,
b000111010 -
b000111110 .
b000101011 /
11
b0000000000101101 3
#1100
01
#1110
b00101110 *
b000101110 +
b000111001 ,
b000111011 -
b000111010 .
b000101100 /
11
b0000000000101110 3
15
#1120
01
#1130
b00101111 *
b000101111 +
b000111000 ,
b000111001 -
b000111011 .
b000101101 /
11
b0000000000101111 3
#1140
01
05
#1150
b00110000 *
b000110000 +
b000101000 ,
b000111000 -
b000111001 .
b000101110 /
11
b0000000000110000 3
#1160
01
#1170
b00110001 *
b000110001 +
b000101001 ,
b000101000 -
b000111000 .
b000101111 /
11
b0000000000110001 3
15
#1180
01
#1190
b00110010 *
b000110010 +
b000101011 ,
b000101001 -
b000101000 .
b000110000 /
11
b0000000000110010 3
#1200
01
05
#1210
b00110011 *
b000110011 +
b000101010 ,
b000101011 -
b000101001 .
b000110001 /
11
b0000000000110011 3
#1220
01
#1230
b00110100 *
b000110100 +
b000101110 ,
b000101010 -
b000101011 .
b000110010 /
11
b0000000000110100 3
15
#1240
01
#1250
b00110101 *
b000110101 +
b000101111 ,
b000101110 -
b000101010 .
b000110011 /
11
b0000000000110101 3
#1260
01
05
#1270
b00110110 *
b000110110 +
b000101101 ,
b000101111 -
b000101110 .
b000110100 /
11
b0000000000110110 3
#1280
01
#1290
b00110111 *
b000110111 +
b000101100 ,
b000101101 -
b000101111 .
b000110101 /
11
b0000000000110111 3
15
#1300
01
#1310
b00111000 *
b000111000 +
b000100100 ,
b000101100 -
b000101101 .
b000110110 /
11
b0000000000111000 3
#1320
01
05
#1330
b00111001 *
b000111001 +
b000100101 ,
b000100100 -
b000101100 .
b000110111 /
11
b0000000000111001 3
#1340
01
#1350
b00111010 *
b000111010 +
b000100111 ,
b000100101 -
b000100100 .
b000111000 /
11
b0000000000111010 3
15
#1360
01
#1370
b00111011 *
b000111011 +
b000100110 ,
b000100111 -
b000100101 .
b000111001 /
11
b0000000000111011 3
#1380
01
05
#1390
b00111100 *
b000111100 +
b000100010 ,
b000100110 -
b000100111 .
b000111010 /
11
b0000000000111100 3
#1400
01
#1410
b00111101 *
b000111101 +
b000100011 ,
b000100010 -
b000100110 .
b000111011 /
11
b0000000000111101 3
15
#1420
01
#1430
b00111110 *
b000111110 +
b000100001 ,
b000100011 -
b000100010 .
b000111100 /
11
b0000000000111110 3
#1440
01
05
#1450
b00111111 *
b000111111 +
b000100000 ,
b000100001 -
b000100011 .
b000111101 /
11
b0000000000111111 3
#1460
01
#1470
b01000000 *
b001000000 +
b001100000 ,
b000100000 -
b000100001 .
b000111110 /
11
b0000000001000000 3
15
#1480
01
#1490
b01000001 *
b001000001 +
b001100001 ,
b001100000 -
b000100000 .
b000111111 /
11
b0000000001000001 3
#1500
01
05
#1510
b01000010 *
b001000010 +
b001100011 ,
b001100001 -
b001100000 .
b001000000 /
11
b0000000001000010 3
#1520
01
#1530
b01000011 *
b001000011 +
b001100010 ,
b001100011 -
b001100001 .
b001000001 /
11
b0000000001000011 3
15
#1540
01
#1550
b01000100 *
b001000100 +
b001100110 ,
b001100010 -
b001100011 .
b001000010 /
11
b0000000001000100 3
#1560
01
05
#1570
b01000101 *
b001000101 +
b001100111 ,
b001100110 -
b001100010 .
b001000011 /
11
b0000000001000101 3
#1580
01
#1590
b01000110 *
b001000110 +
b001100101 ,
b001100111 -
b001100110 .
b001000100 /
11
b0000000001000110 3
15
#1600
01
#1610
b01000111 *
b001000111 +
b001100100 ,
b001100101 -
b001100111 .
b001000101 /
11
b0000000001000111 3
#1620
01
05
#1630
b01001000 *
b001001000 +
b001101100 ,
b001100100 -
b001100101 .
b001000110 /
11
b0000000001001000 3
#1640
01
#1650
b01001001 *
b001001001 +
b001101101 ,
b001101100 -
b001100100 .
b001000111 /
11
b0000000001001001 3
15
#1660
01
#1670
b01001010 *
b001001010 +
b001101111 ,
b001101101 -
b001101100 .
b001001000 /
11
b0000000001001010 3
#1680
01
05
#1690
b01001011 *
b001001011 +
b001101110 ,
b001101111 -
b001101101 .
b001001001 /
11
b0000000001001011 3
#1700
01
#1710
b01001100 *
b001001100 +
b001101010 ,
b001101110 -
b001101111 .
b001001010 /
11
b0000000001001100 3
15
#1720
01
#1730
b01001101 *
b001001101 +
b001101011 ,
b001101010 -
b001101110 .
b001001011 /
11
b0000000001001101 3
#1740
01
05
#1750
b01001110 *
b001001110 +
b001101001 ,
b001101011 -
b001101010 .
b001001100 /
11
b0000000001001110 3
#1760
01
#1770
b01001111 *
b001001111 +
b001101000 ,
b001101001 -
b001101011 .
b001001101 /
11
b0000000001001111 3
15
#1780
01
#1790
b01010000 *
b001010000 +
b001111000 ,
b001101000 -
b001101001 .
b001001110 /
11
b0000000001010000 3
#1800
01
05
#1810
b01010001 *
b001010001 +
b001111001 ,
b001111000 -
b001101000 .
b001001111 /
11
b0000000001010001 3
#1820
01
#1830
b01010010 *
b001010010 +
b001111011 ,
b001111001 -
b001111000 .
b001010000 /
11
b0000000001010010 3
15
#1840
01
#1850
b01010011 *
b001010011 +
b001111010 ,
b001111011 -
b001111001 .
b001010001 /
11
b0000000001010011 3
#1860
01
05
#1870
b01010100 *
b001010100 +
b001111110 ,
b001111010 -
b001111011 .
b001010010 /
11
b0000000001010100 3
#1880
01
#1890
b01010101 *
b001010101 +
b001111111 ,
b001111110 -
b001111010 .
b001010011 /
11
b0000000001010101 3
15
#1900
01
#1910
b01010110 *
b001010110 +
b001111101 ,
b001111111 -
b001111110 .
b001010100 /
11
b0000000001010110 3
#1920
01
05
#1930
b01010111 *
b001010111 +
b001111100 ,
b001111101 -
b001111111 .
b001010101 /
11
b0000000001010111 3
#1940
01
#1950
b01011000 *
b001011000 +
b001110100 ,
b001111100 -
b001111101 .
b001010110 /
11
b0000000001011000 3
15
#1960
01
#1970
b01011001 *
b001011001 +
b001110101 ,
b001110100 -
b001111100 .
b001010111 /
11
b0000000001011001 3
#1980
01
05
#1990
b01011010 *
b001011010 +
b001110111 ,
b001110101 -
b001110100 .
b001011000 /
11
b0000000001011010 3
#2000
01
#2010
b01011011 *
b001011011 +
b001110110 ,
b001110111 -
b001110101 .
b001011001 /
11
b0000000001011011 3
15
#2020
01
#2030
b01011100 *
b001011100 +
b001110010 ,
b001110110 -
b001110111 .
b001011010 /
11
b0000000001011100 3
#2040
01
05
#2050
b01011101 *
b001011101 +
b001110011 ,
b001110010 -
b001110110 .
b001011011 /
11
b0000000001011101 3
#2060
01
#2070
b01011110 *
b001011110 +
b001110001 ,
b001110011 -
b001110010 .
b001011100 /
11
b0000000001011110 3
15
#2080
01
#2090
b01011111 *
b001011111 +
b001110000 ,
b001110001 -
b001110011 .
b001011101 /
11
b0000000001011111 3
#2100
01
05
#2110
b01100000 *
b001100000 +
b001010000 ,
b001110000 -
b001110001 .
b001011110 /
11
b0000000001100000 3
#2120
01
#2130
b01100001 *
b001100001 +
b001010001 ,
b001010000 -
b001110000 .
b001011111 /
11
b0000000001100001 3
15
#2140
01
#2150
b01100010 *
b001100010 +
b001010011 ,
b001010001 -
b001010000 .
b001100000 /
11
b0000000001100010 3
#2160
01
05
#2170
b01100011 *
b001100011 +
b001010010 ,
b001010011 -
b001010001 .
b001100001 /
11
b0000000001100011 3
#2180
01
#2190
b01100100 *
b001100100 +
b001010110 ,
b001010010 -
b001010011 .
b001100010 /
11
b0000000001100100 3
15
#2200
01
#2210
b01100101 *
b001100101 +
b001010111 ,
b001010110 -
b001010010 .
b001100011 /
11
b0000000001100101 3
#2220
01
05
#2230
b01100110 *
b001100110 +
b001010101 ,
b001010111 -
b001010110 .
b001100100 /
11
b0000000001100110 3
#2240
01
#2250
b01100111 *
b001100111 +
b001010100 ,
b001010101 -
b001010111 .
b001100101 /
11
b0000000001100111 3
15
#2260
01
#2270
b01101000 *
b001101000 +
b001011100 ,
b001010100 -
b001010101 .
b001100110 /
11
b0000000001101000 3
#2280
01
05
#2290
b01101001 *
b001101001 +
b001011101 ,
b001011100 -
b001010100 .
b001100111 /
11
b0000000001101001 3
#2300
01
#2310
b01101010 *
b001101010 +
b001011111 ,
b001011101 -
b001011100 .
b001101000 /
11
b0000000001101010 3
15
#2320
01
#2330
b01101011 *
b001101011 +
b001011110 ,
b001011111 -
b001011101 .
b001101001 /
11
b0000000001101011 3
#2340
01
05
#2350
b01101100 *
b001101100 +
b001011010 ,
b001011110 -
b001011111 .
b001101010 /
11
b0000000001101100 3
#2360
01
#2370
b01101101 *
b001101101 +
b001011011 ,
b001011010 -
b001011110 .
b001101011 /
11
b0000000001101101 3
15
#2380
01
#2390
b01101110 *
b001101110 +
b001011001 ,
b001011011 -
b001011010 .
b001101100 /
11
b0000000001101110 3
#2400
01
05
#2410
b01101111 *
b001101111 +
b001011000 ,
b001011001 -
b001011011 .
b001101101 /
11
b0000000001101111 3
#2420
01
#2430
b01110000 *
b001110000 +
b001001000 ,
b001011000 -
b001011001 .
b001101110 /
11
b0000000001110000 3
15
#2440
01
#2450
b01110001 *
b001110001 +
b001001001 ,
b001001000 -
b001011000 .
b001101111 /
11
b0000000001110001 3
#2460
01
05
#2470
b01110010 *
b001110010 +
b001001011 ,
b001001001 -
b001001000 .
b001110000 /
11
b0000000001110010 3
#2480
01
#2490
b01110011 *
b001110011 +
b001001010 ,
b001001011 -
b001001001 .
b001110001 /
11
b0000000001110011 3
15
#2500
01
#2510
b01110100 *
b001110100 +
b001001110 ,
b001001010 -
b001001011 .
b001110010 /
11
b0000000001110100 3
#2520
01
05
#2530
b01110101 *
b001110101 +
b001001111 ,
b001001110 -
b001001010 .
b001110011 /
11
b0000000001110101 3
#2540
01
#2550
b01110110 *
b001110110 +
b001001101 ,
b001001111 -
b001001110 .
b001110100 /
11
b0000000001110110 3
15
#2560
01
#2570
b01110111 *
b001110111 +
b001001100 ,
b001001101 -
b001001111 .
b001110101 /
11
b0000000001110111 3
#2580
01
05
#2590
b01111000 *
b001111000 +
b001000100 ,
b001001100 -
b001001101 .
b001110110 /
11
b0000000001111000 3
#2600
01
#2610
b01111001 *
b001111001 +
b001000101 ,
b001000100 -
b001001100 .
b001110111 /
11
b0000000001111001 3
15
#2620
01
#2630
b01111010 *
b001111010 +
b001000111 ,
b001000101 -
b001000100 .
b001111000 /
11
b0000000001111010 3
#2640
01
05
#2650
b01111011 *
b001111011 +
b001000110 ,
b001000111 -
b001000101 .
b001111001 /
11
b0000000001111011 3
#2660
01
#2670
b01111100 *
b001111100 +
b001000010 ,
b001000110 -
b001000111 .
b001111010 /
11
b0000000001111100 3
15
#2680
01
#2690
b01111101 *
b001111101 +
b001000011 ,
b001000010 -
b001000110 .
b001111011 /
11
b0000000001111101 3
#2700
01
05
#2710
b01111110 *
b001111110 +
b001000001 ,
b001000011 -
b001000010 .
b001111100 /
11
b0000000001111110 3
#2720
01
#2730
b01111111 *
b001111111 +
b001000000 ,
b001000001 -
b001000011 .
b001111101 /
11
b0000000001111111 3
15
#2740
01
#2750
b10000000 *
b010000000 +
b011000000 ,
b001000000 -
b001000001 .
b001111110 /
11
b0000000010000000 3
#2760
01
05
#2770
b10000001 *
b010000001 +
b011000001 ,
b011000000 -
b001000000 .
b001111111 /
11
b0000000010000001 3
#2780
01
#2790
b10000010 *
b010000010 +
b011000011 ,
b011000001 -
b011000000 .
b010000000 /
11
b0000000010000010 3
15
#2800
01
#2810
b10000011 *
b010000011 +
b011000010 ,
b011000011 -
b011000001 .
b010000001 /
11
b0000000010000011 3
#2820
01
05
#2830
b10000100 *
b010000100 +
b011000110 ,
b011000010 -
b011000011 .
b010000010 /
11
b0000000010000100 3
#2840
01
#2850
b10000101 *
b010000101 +
b011000111 ,
b011000110 -
b011000010 .
b010000011 /
11
b0000000010000101 3
15
#2860
01
#2870
b10000110 *
b010000110 +
b011000101 ,
b011000111 -
b011000110 .
b010000100 /
11
b0000000010000110 3
#2880
01
05
#2890
b10000111 *
b010000111 +
b011000100 ,
b011000101 -
b011000111 .
b010000101 /
11
b0000000010000111 3
#2900
01
#2910
b10001000 *
b010001000 +
b011001100 ,
b011000100 -
b011000101 .
b010000110 /
11
b0000000010001000 3
15
#2920
01
#2930
b10001001 *
b010001001 +
b011001101 ,
b011001100 -
b011000100 .
b010000111 /
11
b0000000010001001 3
#2940
01
05
#2950
b10001010 *
b010001010 +
b011001111 ,
b011001101 -
b011001100 .
b010001000 /
11
b0000000010001010 3
#2960
01
#2970
b10001011 *
b010001011 +
b011001110 ,
b011001111 -
b011001101 .
b010001001 /
11
b0000000010001011 3
15
#2980
01
#2990
b10001100 *
b010001100 +
b011001010 ,
b011001110 -
b011001111 .
b010001010 /
11
b0000000010001100 3
#3000
01
05
#3010
b10001101 *
b010001101 +
b011001011 ,
b011001010 -
b011001110 .
b010001011 /
11
b0000000010001101 3
#3020
01
#3030
b10001110 *
b010001110 +
b011001001 ,
b011001011 -
b011001010 .
b010001100 /
11
b0000000010001110 3
15
#3040
01
#3050
b10001111 *
b010001111 +
b011001000 ,
b011001001 -
b011001011 .
b010001101 /
11
b0000000010001111 3
#3060
01
05
#3070
b10010000 *
b010010000 +
b011011000 ,
b011001000 -
b011001001 .
b010001110 /
11
b0000000010010000 3
#3080
01
#3090
b10010001 *
b010010001 +
b011011001 ,
b011011000 -
b011001000 .
b010001111 /
11
b0000000010010001 3
15
#3100
01
#3110
b10010010 *
b010010010 +
b011011011 ,
b011011001 -
b011011000 .
b010010000 /
11
b0000000010010010 3
#3120
01
05
#3130
b10010011 *
b010010011 +
b011011010 ,
b011011011 -
b011011001 .
b010010001 /
11
b0000000010010011 3
#3140
01
#3150
b10010100 *
b010010100 +
b011011110 ,
b011011010 -
b011011011 .
b010010010 /
11
b0000000010010100 3
15
#3160
01
#3170
b10010101 *
b010010101 +
b011011111 ,
b011011110 -
b011011010 .
b010010011 /
11
b0000000010010101 3
#3180
01
05
#3190
b10010110 *
b010010110 +
b011011101 ,
b011011111 -
b011011110 .
b010010100 /
11
b0000000010010110 3
#3200
01
#3210
b10010111 *
b010010111 +
b011011100 ,
b011011101 -
b011011111 .
b010010101 /
11
b0000000010010111 3
15
#3220
01
#3230
b10011000 *
b010011000 +
b011010100 ,
b011011100 -
b011011101 .
b010010110 /
11
b0000000010011000 3
#3240
01
05
#3250
b10011001 *
b010011001 +
b011010101 ,
b011010100 -
b011011100 .
b010010111 /
11
b0000000010011001 3
#3260
01
#3270
b10011010 *
b010011010 +
b011010111 ,
b011010101 -
b011010100 .
b010011000 /
11
b0000000010011010 3
15
#3280
01
#3290
b10011011 *
b010011011 +
b011010110 ,
b011010111 -
b011010101 .
b010011001 /
11
b0000000010011011 3
#3300
01
05
#3310
b10011100 *
b010011100 +
b011010010 ,
b011010110 -
b011010111 .
b010011010 /
11
b0000000010011100 3
#3320
01
#3330
b10011101 *
b010011101 +
b011010011 ,
b011010010 -
b011010110 .
b010011011 /
11
b0000000010011101 3
15
#3340
01
#3350
b10011110 *
b010011110 +
b011010001 ,
b011010011 -
b011010010 .
b010011100 /
11
b0000000010011110 3
#3360
01
05
#3370
b10011111 *
b010011111 +
b011010000 ,
b011010001 -
b011010011 .
b010011101 /
11
b0000000010011111 3
#3380
01
#3390
b10100000 *
b010100000 +
b011110000 ,
b011010000 -
b011010001 .
b010011110 /
11
b0000000010100000 3
15
#3400
01
#3410
b10100001 *
b010100001 +
b011110001 ,
b011110000 -
b011010000 .
b010011111 /
11
b0000000010100001 3
#3420
01
05
#3430
b10100010 *
b010100010 +
b011110011 ,
b011110001 -
b011110000 .
b010100000 /
11
b0000000010100010 3
#3440
01
#3450
b10100011 *
b010100011 +
b011110010 ,
b011110011 -
b011110001 .
b010100001 /
11
b0000000010100011 3
15
#3460
01
#3470
b10100100 *
b010100100 +
b011110110 ,
b011110010 -
b011110011 .
b010100010 /
11
b0000000010100100 3
#3480
01
05
#3490
b10100101 *
b010100101 +
b011110111 ,
b011110110 -
b011110010 .
b010100011 /
11
b0000000010100101 3
#3500
01
#3510
b10100110 *
b010100110 +
b011110101 ,
b011110111 -
b011110110 .
b010100100 /
11
b0000000010100110 3
15
#3520
01
#3530
b10100111 *
b010100111 +
b011110100 ,
b011110101 -
b011110111 .
b010100101 /
11
b0000000010100111 3
#3540
01
05
#3550
b10101000 *
b010101000 +
b011111100 ,
b011110100 -
b011110101 .
b010100110 /
11
b0000000010101000 3
#3560
01
#3570
b10101001 *
b010101001 +
b011111101 ,
b011111100 -
b011110100 .
b010100111 /
11
b0000000010101001 3
15
#3580
01
#3590
b10101010 *
b010101010 +
b011111111 ,
b011111101 -
b011111100 .
b010101000 /
11
b0000000010101010 3
#3600
01
05
#3610
b10101011 *
b010101011 +
b011111110 ,
b011111111 -
b011111101 .
b010101001 /
11
b0000000010101011 3
#3620
01
#3630
b10101100 *
b010101100 +
b011111010 ,
b011111110 -
b011111111 .
b010101010 /
11
b0000000010101100 3
15
#3640
01
#3650
b10101101 *
b010101101 +
b011111011 ,
b011111010 -
b011111110 .
b010101011 /
11
b0000000010101101 3
#3660
01
05
#3670
b10101110 *
b010101110 +
b011111001 ,
b011111011 -
b011111010 .
b010101100 /
11
b0000000010101110 3
#3680
01
#3690
b10101111 *
b010101111 +
b011111000 ,
b011111001 -
b011111011 .
b010101101 /
11
b0000000010101111 3
15
#3700
01
#3710
b10110000 *
b010110000 +
b011101000 ,
b011111000 -
b011111001 .
b010101110 /
11
b0000000010110000 3
#3720
01
05
#3730
b10110001 *
b010110001 +
b011101001 ,
b011101000 -
b011111000 .
b010101111 /
11
b0000000010110001 3
#3740
01
#3750
b10110010 *
b010110010 +
b011101011 ,
b011101001 -
b011101000 .
b010110000 /
11
b0000000010110010 3
15
#3760
01
#3770
b10110011 *
b010110011 +
b011101010 ,
b011101011 -
b011101001 .
b010110001 /
11
b0000000010110011 3
#3780
01
05
#3790
b10110100 *
b010110100 +
b011101110 ,
b011101010 -
b011101011 .
b010110010 /
11
b0000000010110100 3
#3800
01
#3810
b10110101 *
b010110101 +
b011101111 ,
b011101110 -
b011101010 .
b010110011 /
11
b0000000010110101 3
15
#3820
01
#3830
b10110110 *
b010110110 +
b011101101 ,
b011101111 -
b011101110 .
b010110100 /
11
b0000000010110110 3
#3840
01
05
#3850
b10110111 *
b010110111 +
b011101100 ,
b011101101 -
b011101111 .
b010110101 /
11
b0000000010110111 3
#3860
01
#3870
b10111000 *
b010111000 +
b011100100 ,
b011101100 -
b011101101 .
b010110110 /
11
b0000000010111000 3
15
#3880
01
#3890
b10111001 *
b010111001 +
b011100101 ,
b011100100 -
b011101100 .
b010110111 /
11
b0000000010111001 3
#3900
01
05
#3910
b10111010 *
b010111010 +
b011100111 ,
b011100101 -
b011100100 .
b010111000 /
11
b0000000010111010 3
#3920
01
#3930
b10111011 *
b010111011 +
b011100110 ,
b011100111 -
b011100101 .
b010111001 /
11
b0000000010111011 3
15
#3940
01
#3950
b10111100 *
b010111100 +
b011100010 ,
b011100110 -
b011100111 .
b010111010 /
11
b0000000010111100 3
#3960
01
05
#3970
b10111101 *
b010111101 +
b011100011 ,
b011100010 -
b011100110 .
b010111011 /
11
b0000000010111101 3
#3980
01
#3990
b10111110 *
b010111110 +
b011100001 ,
b011100011 -
b011100010 .
b010111100 /
11
b0000000010111110 3
15
#4000
01
#4010
b10111111 *
b010111111 +
b011100000 ,
b011100001 -
b011100011 .
b010111101 /
11
b0000000010111111 3
#4020
01
05
#4030
b11000000 *
b011000000 +
b010100000 ,
b011100000 -
b011100001 .
b010111110 /
11
b0000000011000000 3
#4040
01
#4050
b11000001 *
b011000001 +
b010100001 ,
b010100000 -
b011100000 .
b010111111 /
11
b0000000011000001 3
15
#4060
01
#4070
b11000010 *
b011000010 +
b010100011 ,
b010100001 -
b010100000 .
b011000000 /
11
b0000000011000010 3
#4080
01
05
#4090
b11000011 *
b011000011 +
b010100010 ,
b010100011 -
b010100001 .
b011000001 /
11
b0000000011000011 3
#4100
01
#4110
b11000100 *
b011000100 +
b010100110 ,
b010100010 -
b010100011 .
b011000010 /
11
b0000000011000100 3
15
#4120
01
#4130
b11000101 *
b011000101 +
b010100111 ,
b010100110 -
b010100010 .
b011000011 /
11
b0000000011000101 3
#4140
01
05
#4150
b11000110 *
b011000110 +
b010100101 ,
b010100111 -
b010100110 .
b011000100 /
11
b0000000011000110 3
#4160
01
#4170
b11000111 *
b011000111 +
b010100100 ,
b010100101 -
b010100111 .
b011000101 /
11
b0000000011000111 3
15
#4180
01
#4190
b11001000 *
b011001000 +
b010101100 ,
b010100100 -
b010100101 .
b011000110 /
11
b0000000011001000 3
#4200
01
05
#4210
b11001001 *
b011001001 +
b010101101 ,
b010101100 -
b010100100 .
b011000111 /
11
b0000000011001001 3
#4220
01
#4230
b11001010 *
b011001010 +
b010101111 ,
b010101101 -
b010101100 .
b011001000 /
11
b0000000011001010 3
15
#4240
01
#4250
b11001011 *
b011001011 +
b010101110 ,
b010101111 -
b010101101 .
b011001001 /
11
b0000000011001011 3
#4260
01
05
#4270
b11001100 *
b011001100 +
b010101010 ,
b010101110 -
b010101111 .
b011001010 /
11
b0000000011001100 3
#4280
01
#4290
b11001101 *
b011001101 +
b010101011 ,
b010101010 -
b010101110 .
b011001011 /
11
b0000000011001101 3
15
#4300
01
#4310
b11001110 *
b011001110 +
b010101001 ,
b010101011 -
b010101010 .
b011001100 /
11
b0000000011001110 3
#4320
01
05
#4330
b11001111 *
b011001111 +
b010101000 ,
b010101001 -
b010101011 .
b011001101 /
11
b0000000011001111 3
#4340
01
#4350
b11010000 *
b011010000 +
b010111000 ,
b010101000 -
b010101001 .
b011001110 /
11
b0000000011010000 3
15
#4360
01
#4370
b11010001 *
b011010001 +
b010111001 ,
b010111000 -
b010101000 .
b011001111 /
11
b0000000011010001 3
#4380
01
05
