archive/rtl/component/ahb_swc/ahbs_swc/ahbs_swc_tb.vcd
$version Generated by VerilatedVcd $end
$timescale 1ps $end
 $scope module TOP $end
  $scope module ahbs_swc_tb $end
   $var wire 1 2 hclk $end
   $var wire 1 # hrstn $end
   $var wire 32 $ haddr [31:0] $end
   $var wire 1 % hmastlock $end
   $var wire 7 & hprot [6:0] $end
   $var wire 3 ' hsize [2:0] $end
   $var wire 2 ( htrans [1:0] $end
   $var wire 32 ) hwdata [31:0] $end
   $var wire 32 , hrdata [31:0] $end
   $var wire 1 * hwrite $end
   $var wire 1 5 hready $end
   $var wire 1 6 hresp $end
   $var wire 1 - wreq $end
   $var wire 32 . wbuffdata [31:0] $end
   $var wire 32 / wbuffaddr [31:0] $end
   $var wire 1 0 rreq $end
   $var wire 32 + rbuffdata [31:0] $end
   $var wire 32 1 rbuffaddr [31:0] $end
   $var wire 1 7 done $end
   $var wire 1 8 resp $end
   $scope module ahbs_swc_inst $end
    $var wire 1 2 hclk $end
    $var wire 1 # hrstn $end
    $var wire 32 $ haddr [31:0] $end
    $var wire 1 % hmastlock $end
    $var wire 7 & hprot [6:0] $end
    $var wire 3 ' hsize [2:0] $end
    $var wire 2 ( htrans [1:0] $end
    $var wire 32 ) hwdata [31:0] $end
    $var wire 32 , hrdata [31:0] $end
    $var wire 1 * hwrite $end
    $var wire 1 5 hready $end
    $var wire 1 6 hresp $end
    $var wire 1 - wreq $end
    $var wire 32 . wbuffdata [31:0] $end
    $var wire 32 / wbuffaddr [31:0] $end
    $var wire 1 0 rreq $end
    $var wire 32 + rbuffdata [31:0] $end
    $var wire 32 1 rbuffaddr [31:0] $end
    $var wire 1 7 done $end
    $var wire 1 8 resp $end
    $var wire 4 9 IDLE [3:0] $end
    $var wire 4 : READ [3:0] $end
    $var wire 4 ; WRITE [3:0] $end
    $var wire 2 < HTRANS_IDLE [1:0] $end
    $var wire 2 = HTRANS_BUSY [1:0] $end
    $var wire 2 > HTRANS_NONSEQ [1:0] $end
    $var wire 2 ? HTRANS_SEQ [1:0] $end
    $var wire 4 3 state [3:0] $end
    $var wire 4 4 next_state [3:0] $end
   $upscope $end
  $upscope $end
 $upscope $end
$enddefinitions $end


#0
0#
b00000000000000000000000000000000 $
0%
b0000000 &
b000 '
b00 (
b00000000000000000000000000000000 )
0*
b00000000000000000000000000000000 +
b00000000000000000000000000000000 ,
0-
b00000000000000000000000000000000 .
b00000000000000000000000000000000 /
00
b00000000000000000000000000000000 1
12
b0000 3
b0000 4
05
06
07
08
b0000 9
b0001 :
b0010 ;
b00 <
b01 =
b10 >
b11 ?
#1
#5
02
#10
12
#11
1#
#15
02
#20
12
#21
b010 '
#25
02
#30
12
#31
b11011110101011011011111000010001 $
b10 (
b11001010111111101011101000010001 )
1*
b0010 4
#35
02
#40
1-
b11001010111111101011101000010001 .
b11011110101011011011111000010001 /
12
b0010 3
#41
b10111010101011011111000000010001 $
b11001010111111101011101010111110 )
0*
b10101011101110101011101000010001 +
b0001 4
#45
02
#50
b10101011101110101011101000010001 ,
0-
b00000000000000000000000000000000 .
b00000000000000000000000000000000 /
10
b10111010101011011111000000010001 1
12
b0001 3
#51
b11011110101011011011111000010010 $
b11001010111111101011101000010010 )
1*
b0010 4
#55
02
#60
1-
b11001010111111101011101000010010 .
b11011110101011011011111000010010 /
00
b00000000000000000000000000000000 1
12
b0010 3
#61
b10111010101011011111000000010010 $
b11001010111111101011101010111110 )
0*
b10101011101110101011101000010010 +
b0001 4
#65
02
#70
b10101011101110101011101000010010 ,
0-
b00000000000000000000000000000000 .
b00000000000000000000000000000000 /
10
b10111010101011011111000000010010 1
12
b0001 3
#71
b11011110101011011011111000010011 $
b11001010111111101011101000010011 )
1*
b0010 4
#75
02
#80
1-
b11001010111111101011101000010011 .
b11011110101011011011111000010011 /
00
b00000000000000000000000000000000 1
12
b0010 3
#81
b10111010101011011111000000010011 $
b11001010111111101011101010111110 )
0*
b10101011101110101011101000010011 +
b0001 4
#85
02
#90
b10101011101110101011101000010011 ,
0-
b00000000000000000000000000000000 .
b00000000000000000000000000000000 /
10
b10111010101011011111000000010011 1
12
b0001 3
#91
b11011110101011011011111000100001 $
b11001010111111101011101000100001 )
1*
b0010 4
#95
02
#100
1-
b11001010111111101011101000100001 .
b11011110101011011011111000100001 /
00
b00000000000000000000000000000000 1
12
b0010 3
#101
b11011110101011011011111000100010 $
b11001010111111101011101000100010 )
#105
02
#110
b11001010111111101011101000100010 .
b11011110101011011011111000100010 /
12
#111
b11011110101011011011111000100011 $
b11001010111111101011101000100011 )
#115
02
#120
b11001010111111101011101000100011 .
b11011110101011011011111000100011 /
12
#121
b11011110101011011011111000100100 $
b11001010111111101011101000100100 )
#125
02
#130
b11001010111111101011101000100100 .
b11011110101011011011111000100100 /
12
#131
b11011110101011011011111000100101 $
b11001010111111101011101000100101 )
#135
02
#140
b11001010111111101011101000100101 .
b11011110101011011011111000100101 /
12
#141
b11011110101011011011111000100110 $
b11001010111111101011101000100110 )
#145
02
#150
b11001010111111101011101000100110 .
b11011110101011011011111000100110 /
12
#151
b10111010101011011111000000110001 $
b11001010111111101011101010111110 )
0*
b10101011101110101011101000110001 +
b0001 4
#155
02
#160
b10101011101110101011101000110001 ,
0-
b00000000000000000000000000000000 .
b00000000000000000000000000000000 /
10
b10111010101011011111000000110001 1
12
b0001 3
#161
b10111010101011011111000000110010 $
b10101011101110101011101000110010 +
#165
02
#170
b10101011101110101011101000110010 ,
b10111010101011011111000000110010 1
12
#171
b10111010101011011111000000110011 $
b10101011101110101011101000110011 +
#175
02
#180
b10101011101110101011101000110011 ,
b10111010101011011111000000110011 1
12
#181
b10111010101011011111000000110100 $
b10101011101110101011101000110100 +
#185
02
#190
b10101011101110101011101000110100 ,
b10111010101011011111000000110100 1
12
#191
b10111010101011011111000000110101 $
b10101011101110101011101000110101 +
#195
02
#200
b10101011101110101011101000110101 ,
b10111010101011011111000000110101 1
12
#201
b10111010101011011111000000110110 $
b10101011101110101011101000110110 +
#205
02
#210
b10101011101110101011101000110110 ,
b10111010101011011111000000110110 1
12
#211
b11011110101011011011111000110001 $
b11001010111111101011101000110001 )
1*
b0010 4
#215
02
#220
1-
b11001010111111101011101000110001 .
b11011110101011011011111000110001 /
00
b00000000000000000000000000000000 1
12
b0010 3
#221
0#
b11011110101011011011111011101111 $
b11001010111111101011101010111110 )
b0000 3
b0000 4
#225
02
#230
0-
b00000000000000000000000000000000 .
b00000000000000000000000000000000 /
12
#231
1#
b11011110101011011011111000110010 $
b11001010111111101011101000110010 )
b0010 4
#235
02
#240
1-
b11001010111111101011101000110010 .
b11011110101011011011111000110010 /
12
b0010 3
#241
b11011110101011011011111001000001 $
b11001010111111101011101001000001 )
#245
02
#250
b11001010111111101011101001000001 .
b11011110101011011011111001000001 /
12
#251
0#
b11011110101011011011111011101111 $
b11001010111111101011101010111110 )
b0000 3
b0000 4
#255
02
#260
0-
b00000000000000000000000000000000 .
b00000000000000000000000000000000 /
12
#261
1#
b10111010101011011111000001000001 $
0*
b10101011101110101011101001000001 +
b0001 4
#265
02
#270
b10101011101110101011101001000001 ,
10
b10111010101011011111000001000001 1
12
b0001 3
#271
b10111010101011011111000001010001 $
b10101011101110101011101001010001 +
#275
02
#280
b10101011101110101011101001010001 ,
b10111010101011011111000001010001 1
12
#281
0#
b11011110101011011011111011101111 $
b0000 3
b0000 4
#285
02
#290
00
b00000000000000000000000000000000 1
12
#291
1#
b11011110101011011011111001010001 $
b11001010111111101011101001010001 )
1*
b0010 4
#295
02
#300
1-
b11001010111111101011101001010001 .
b11011110101011011011111001010001 /
12
b0010 3
#301
b10111010101011011111000001100001 $
b11001010111111101011101010111110 )
0*
b10101011101110101011101001100001 +
b0001 4
#305
02
#310
b10101011101110101011101001100001 ,
0-
b00000000000000000000000000000000 .
b00000000000000000000000000000000 /
10
b10111010101011011111000001100001 1
12
b0001 3
#311
0#
b11011110101011011011111011101111 $
b0000 3
b0000 4
#315
02
#320
00
b00000000000000000000000000000000 1
12
#321
1#
b10111010101011011111000001100010 $
b10101011101110101011101001100010 +
b0001 4
#325
02
#330
b10101011101110101011101001100010 ,
10
b10111010101011011111000001100010 1
12
b0001 3
