rtl/chip/lib/peripherals_swc/syncfifo_swc/syncfifo_swc_tb.vcd
$version Generated by VerilatedVcd $end
$timescale 1ps $end

 $scope module TOP $end
  $scope module syncfifo_swc_tb $end
   $var wire  1 * clk $end
   $var wire  1 $ empty $end
   $var wire  1 - full $end
   $var wire 16 # rdata [15:0] $end
   $var wire  1 . ren $end
   $var wire  1 ) rstn $end
   $var wire 16 , reg_wdata [15:0] $end
   $var wire  1 + reg_wen $end
   $scope module syncfifo_swc_inst $end
    $var wire 32 1 addr_width [31:0] $end
    $var wire  1 * clk $end
    $var wire 32 / data_width [31:0] $end
    $var wire  1 $ empty $end
    $var wire  1 - full $end
    $var wire  8 & raddr [7:0] $end
    $var wire  9 ( raddr_ptr [8:0] $end
    $var wire 32 0 ram_size [31:0] $end
    $var wire 16 # rdata [15:0] $end
    $var wire  1 . ren $end
    $var wire  1 ) rstn $end
    $var wire  8 % reg_waddr [7:0] $end
    $var wire  9 ' reg_waddr_ptr [8:0] $end
    $var wire 16 , reg_wdata [15:0] $end
    $var wire  1 + reg_wen $end
   $upscope $end
  $upscope $end
 $upscope $end
$enddefinitions $end


#0
b0000000000000000 #
1$
b00000000 %
b00000000 &
b000000000 '
b000000000 (
0)
0*
0+
b0000000000000000 ,
0-
0.
b00000000000000000000000000010000 /
b00000000000000000000000100000000 0
b00000000000000000000000000001000 1
#10
1*
#20
0*
#30
1*
#40
0*
#50
1*
#60
0*
#70
1*
#80
0*
#90
1*
#100
0*
#110
1*
#120
0*
#130
1*
#140
0*
#150
1*
#160
0*
#170
1*
#180
0*
#190
1*
#200
1)
0*
1+
#210
0$
b00000001 %
b000000001 '
1*
b0000000000000001 ,
#220
0*
#230
b00000010 %
b000000010 '
1*
b0000000000000010 ,
#240
0*
#250
b00000011 %
b000000011 '
1*
b0000000000000011 ,
#260
0*
#270
b00000100 %
b000000100 '
1*
b0000000000000100 ,
#280
0*
#290
b00000101 %
b000000101 '
1*
b0000000000000101 ,
#300
0*
#310
b00000110 %
b000000110 '
1*
b0000000000000110 ,
#320
0*
#330
b00000111 %
b000000111 '
1*
b0000000000000111 ,
#340
0*
#350
b00001000 %
b000001000 '
1*
b0000000000001000 ,
#360
0*
#370
b00001001 %
b000001001 '
1*
b0000000000001001 ,
#380
0*
#390
b00001010 %
b000001010 '
1*
b0000000000001010 ,
#400
0*
#410
b00001011 %
b000001011 '
1*
b0000000000001011 ,
#420
0*
#430
b00001100 %
b000001100 '
1*
b0000000000001100 ,
#440
0*
#450
b00001101 %
b000001101 '
1*
b0000000000001101 ,
#460
0*
#470
b00001110 %
b000001110 '
1*
b0000000000001110 ,
#480
0*
#490
b00001111 %
b000001111 '
1*
b0000000000001111 ,
#500
0*
#510
b00010000 %
b000010000 '
1*
b0000000000010000 ,
#520
0*
#530
b00010001 %
b000010001 '
1*
b0000000000010001 ,
#540
0*
#550
b00010010 %
b000010010 '
1*
b0000000000010010 ,
#560
0*
#570
b00010011 %
b000010011 '
1*
b0000000000010011 ,
#580
0*
#590
b00010100 %
b000010100 '
1*
b0000000000010100 ,
#600
0*
#610
b00010101 %
b000010101 '
1*
b0000000000010101 ,
#620
0*
#630
b00010110 %
b000010110 '
1*
b0000000000010110 ,
#640
0*
#650
b00010111 %
b000010111 '
1*
b0000000000010111 ,
#660
0*
#670
b00011000 %
b000011000 '
1*
b0000000000011000 ,
#680
0*
#690
b00011001 %
b000011001 '
1*
b0000000000011001 ,
#700
0*
#710
b00011010 %
b000011010 '
1*
b0000000000011010 ,
#720
0*
#730
b00011011 %
b000011011 '
1*
b0000000000011011 ,
#740
0*
#750
b00011100 %
b000011100 '
1*
b0000000000011100 ,
#760
0*
#770
b00011101 %
b000011101 '
1*
b0000000000011101 ,
#780
0*
#790
b00011110 %
b000011110 '
1*
b0000000000011110 ,
#800
0*
#810
b00011111 %
b000011111 '
1*
b0000000000011111 ,
#820
0*
#830
b00100000 %
b000100000 '
1*
b0000000000100000 ,
#840
0*
#850
b00100001 %
b000100001 '
1*
b0000000000100001 ,
#860
0*
#870
b00100010 %
b000100010 '
1*
b0000000000100010 ,
#880
0*
#890
b00100011 %
b000100011 '
1*
b0000000000100011 ,
#900
0*
#910
b00100100 %
b000100100 '
1*
b0000000000100100 ,
#920
0*
#930
b00100101 %
b000100101 '
1*
b0000000000100101 ,
#940
0*
#950
b00100110 %
b000100110 '
1*
b0000000000100110 ,
#960
0*
#970
b00100111 %
b000100111 '
1*
b0000000000100111 ,
#980
0*
#990
b00101000 %
b000101000 '
1*
b0000000000101000 ,
#1000
0*
#1010
b00101001 %
b000101001 '
1*
b0000000000101001 ,
#1020
0*
#1030
b00101010 %
b000101010 '
1*
b0000000000101010 ,
#1040
0*
#1050
b00101011 %
b000101011 '
1*
b0000000000101011 ,
#1060
0*
#1070
b00101100 %
b000101100 '
1*
b0000000000101100 ,
#1080
0*
#1090
b00101101 %
b000101101 '
1*
b0000000000101101 ,
#1100
0*
#1110
b00101110 %
b000101110 '
1*
b0000000000101110 ,
#1120
0*
#1130
b00101111 %
b000101111 '
1*
b0000000000101111 ,
#1140
0*
#1150
b00110000 %
b000110000 '
1*
b0000000000110000 ,
#1160
0*
#1170
b00110001 %
b000110001 '
1*
b0000000000110001 ,
#1180
0*
#1190
b00110010 %
b000110010 '
1*
b0000000000110010 ,
#1200
0*
#1210
b00110011 %
b000110011 '
1*
b0000000000110011 ,
#1220
0*
#1230
b00110100 %
b000110100 '
1*
b0000000000110100 ,
#1240
0*
#1250
b00110101 %
b000110101 '
1*
b0000000000110101 ,
#1260
0*
#1270
b00110110 %
b000110110 '
1*
b0000000000110110 ,
#1280
0*
#1290
b00110111 %
b000110111 '
1*
b0000000000110111 ,
#1300
0*
#1310
b00111000 %
b000111000 '
1*
b0000000000111000 ,
#1320
0*
#1330
b00111001 %
b000111001 '
1*
b0000000000111001 ,
#1340
0*
#1350
b00111010 %
b000111010 '
1*
b0000000000111010 ,
#1360
0*
#1370
b00111011 %
b000111011 '
1*
b0000000000111011 ,
#1380
0*
#1390
b00111100 %
b000111100 '
1*
b0000000000111100 ,
#1400
0*
#1410
b00111101 %
b000111101 '
1*
b0000000000111101 ,
#1420
0*
#1430
b00111110 %
b000111110 '
1*
b0000000000111110 ,
#1440
0*
#1450
b00111111 %
b000111111 '
1*
b0000000000111111 ,
#1460
0*
#1470
b01000000 %
b001000000 '
1*
b0000000001000000 ,
#1480
0*
#1490
b01000001 %
b001000001 '
1*
b0000000001000001 ,
#1500
0*
#1510
b01000010 %
b001000010 '
1*
b0000000001000010 ,
#1520
0*
#1530
b01000011 %
b001000011 '
1*
b0000000001000011 ,
#1540
0*
#1550
b01000100 %
b001000100 '
1*
b0000000001000100 ,
#1560
0*
#1570
b01000101 %
b001000101 '
1*
b0000000001000101 ,
#1580
0*
#1590
b01000110 %
b001000110 '
1*
b0000000001000110 ,
#1600
0*
#1610
b01000111 %
b001000111 '
1*
b0000000001000111 ,
#1620
0*
#1630
b01001000 %
b001001000 '
1*
b0000000001001000 ,
#1640
0*
#1650
b01001001 %
b001001001 '
1*
b0000000001001001 ,
#1660
0*
#1670
b01001010 %
b001001010 '
1*
b0000000001001010 ,
#1680
0*
#1690
b01001011 %
b001001011 '
1*
b0000000001001011 ,
#1700
0*
#1710
b01001100 %
b001001100 '
1*
b0000000001001100 ,
#1720
0*
#1730
b01001101 %
b001001101 '
1*
b0000000001001101 ,
#1740
0*
#1750
b01001110 %
b001001110 '
1*
b0000000001001110 ,
#1760
0*
#1770
b01001111 %
b001001111 '
1*
b0000000001001111 ,
#1780
0*
#1790
b01010000 %
b001010000 '
1*
b0000000001010000 ,
#1800
0*
#1810
b01010001 %
b001010001 '
1*
b0000000001010001 ,
#1820
0*
#1830
b01010010 %
b001010010 '
1*
b0000000001010010 ,
#1840
0*
#1850
b01010011 %
b001010011 '
1*
b0000000001010011 ,
#1860
0*
#1870
b01010100 %
b001010100 '
1*
b0000000001010100 ,
#1880
0*
#1890
b01010101 %
b001010101 '
1*
b0000000001010101 ,
#1900
0*
#1910
b01010110 %
b001010110 '
1*
b0000000001010110 ,
#1920
0*
#1930
b01010111 %
b001010111 '
1*
b0000000001010111 ,
#1940
0*
#1950
b01011000 %
b001011000 '
1*
b0000000001011000 ,
#1960
0*
#1970
b01011001 %
b001011001 '
1*
b0000000001011001 ,
#1980
0*
#1990
b01011010 %
b001011010 '
1*
b0000000001011010 ,
#2000
0*
#2010
b01011011 %
b001011011 '
1*
b0000000001011011 ,
#2020
0*
#2030
b01011100 %
b001011100 '
1*
b0000000001011100 ,
#2040
0*
#2050
b01011101 %
b001011101 '
1*
b0000000001011101 ,
#2060
0*
#2070
b01011110 %
b001011110 '
1*
b0000000001011110 ,
#2080
0*
#2090
b01011111 %
b001011111 '
1*
b0000000001011111 ,
#2100
0*
#2110
b01100000 %
b001100000 '
1*
b0000000001100000 ,
#2120
0*
#2130
b01100001 %
b001100001 '
1*
b0000000001100001 ,
#2140
0*
#2150
b01100010 %
b001100010 '
1*
b0000000001100010 ,
#2160
0*
#2170
b01100011 %
b001100011 '
1*
b0000000001100011 ,
#2180
0*
#2190
b01100100 %
b001100100 '
1*
b0000000001100100 ,
#2200
0*
#2210
b01100101 %
b001100101 '
1*
b0000000001100101 ,
#2220
0*
#2230
b01100110 %
b001100110 '
1*
b0000000001100110 ,
#2240
0*
#2250
b01100111 %
b001100111 '
1*
b0000000001100111 ,
#2260
0*
#2270
b01101000 %
b001101000 '
1*
b0000000001101000 ,
#2280
0*
#2290
b01101001 %
b001101001 '
1*
b0000000001101001 ,
#2300
0*
#2310
b01101010 %
b001101010 '
1*
b0000000001101010 ,
#2320
0*
#2330
b01101011 %
b001101011 '
1*
b0000000001101011 ,
#2340
0*
#2350
b01101100 %
b001101100 '
1*
b0000000001101100 ,
#2360
0*
#2370
b01101101 %
b001101101 '
1*
b0000000001101101 ,
#2380
0*
#2390
b01101110 %
b001101110 '
1*
b0000000001101110 ,
#2400
0*
#2410
b01101111 %
b001101111 '
1*
b0000000001101111 ,
#2420
0*
#2430
b01110000 %
b001110000 '
1*
b0000000001110000 ,
#2440
0*
#2450
b01110001 %
b001110001 '
1*
b0000000001110001 ,
#2460
0*
#2470
b01110010 %
b001110010 '
1*
b0000000001110010 ,
#2480
0*
#2490
b01110011 %
b001110011 '
1*
b0000000001110011 ,
#2500
0*
#2510
b01110100 %
b001110100 '
1*
b0000000001110100 ,
#2520
0*
#2530
b01110101 %
b001110101 '
1*
b0000000001110101 ,
#2540
0*
#2550
b01110110 %
b001110110 '
1*
b0000000001110110 ,
#2560
0*
#2570
b01110111 %
b001110111 '
1*
b0000000001110111 ,
#2580
0*
#2590
b01111000 %
b001111000 '
1*
b0000000001111000 ,
#2600
0*
#2610
b01111001 %
b001111001 '
1*
b0000000001111001 ,
#2620
0*
#2630
b01111010 %
b001111010 '
1*
b0000000001111010 ,
#2640
0*
#2650
b01111011 %
b001111011 '
1*
b0000000001111011 ,
#2660
0*
#2670
b01111100 %
b001111100 '
1*
b0000000001111100 ,
#2680
0*
#2690
b01111101 %
b001111101 '
1*
b0000000001111101 ,
#2700
0*
#2710
b01111110 %
b001111110 '
1*
b0000000001111110 ,
#2720
0*
#2730
b01111111 %
b001111111 '
1*
b0000000001111111 ,
#2740
0*
#2750
b10000000 %
b010000000 '
1*
b0000000010000000 ,
#2760
0*
#2770
b10000001 %
b010000001 '
1*
b0000000010000001 ,
#2780
0*
#2790
b10000010 %
b010000010 '
1*
b0000000010000010 ,
#2800
0*
#2810
b10000011 %
b010000011 '
1*
b0000000010000011 ,
#2820
0*
#2830
b10000100 %
b010000100 '
1*
b0000000010000100 ,
#2840
0*
#2850
b10000101 %
b010000101 '
1*
b0000000010000101 ,
#2860
0*
#2870
b10000110 %
b010000110 '
1*
b0000000010000110 ,
#2880
0*
#2890
b10000111 %
b010000111 '
1*
b0000000010000111 ,
#2900
0*
#2910
b10001000 %
b010001000 '
1*
b0000000010001000 ,
#2920
0*
#2930
b10001001 %
b010001001 '
1*
b0000000010001001 ,
#2940
0*
#2950
b10001010 %
b010001010 '
1*
b0000000010001010 ,
#2960
0*
#2970
b10001011 %
b010001011 '
1*
b0000000010001011 ,
#2980
0*
#2990
b10001100 %
b010001100 '
1*
b0000000010001100 ,
#3000
0*
#3010
b10001101 %
b010001101 '
1*
b0000000010001101 ,
#3020
0*
#3030
b10001110 %
b010001110 '
1*
b0000000010001110 ,
#3040
0*
#3050
b10001111 %
b010001111 '
1*
b0000000010001111 ,
#3060
0*
#3070
b10010000 %
b010010000 '
1*
b0000000010010000 ,
#3080
0*
#3090
b10010001 %
b010010001 '
1*
b0000000010010001 ,
#3100
0*
#3110
b10010010 %
b010010010 '
1*
b0000000010010010 ,
#3120
0*
#3130
b10010011 %
b010010011 '
1*
b0000000010010011 ,
#3140
0*
#3150
b10010100 %
b010010100 '
1*
b0000000010010100 ,
#3160
0*
#3170
b10010101 %
b010010101 '
1*
b0000000010010101 ,
#3180
0*
#3190
b10010110 %
b010010110 '
1*
b0000000010010110 ,
#3200
0*
#3210
b10010111 %
b010010111 '
1*
b0000000010010111 ,
#3220
0*
#3230
b10011000 %
b010011000 '
1*
b0000000010011000 ,
#3240
0*
#3250
b10011001 %
b010011001 '
1*
b0000000010011001 ,
#3260
0*
#3270
b10011010 %
b010011010 '
1*
b0000000010011010 ,
#3280
0*
#3290
b10011011 %
b010011011 '
1*
b0000000010011011 ,
#3300
0*
#3310
b10011100 %
b010011100 '
1*
b0000000010011100 ,
#3320
0*
#3330
b10011101 %
b010011101 '
1*
b0000000010011101 ,
#3340
0*
#3350
b10011110 %
b010011110 '
1*
b0000000010011110 ,
#3360
0*
#3370
b10011111 %
b010011111 '
1*
b0000000010011111 ,
#3380
0*
#3390
b10100000 %
b010100000 '
1*
b0000000010100000 ,
#3400
0*
#3410
b10100001 %
b010100001 '
1*
b0000000010100001 ,
#3420
0*
#3430
b10100010 %
b010100010 '
1*
b0000000010100010 ,
#3440
0*
#3450
b10100011 %
b010100011 '
1*
b0000000010100011 ,
#3460
0*
#3470
b10100100 %
b010100100 '
1*
b0000000010100100 ,
#3480
0*
#3490
b10100101 %
b010100101 '
1*
b0000000010100101 ,
#3500
0*
#3510
b10100110 %
b010100110 '
1*
b0000000010100110 ,
#3520
0*
#3530
b10100111 %
b010100111 '
1*
b0000000010100111 ,
#3540
0*
#3550
b10101000 %
b010101000 '
1*
b0000000010101000 ,
#3560
0*
#3570
b10101001 %
b010101001 '
1*
b0000000010101001 ,
#3580
0*
#3590
b10101010 %
b010101010 '
1*
b0000000010101010 ,
#3600
0*
#3610
b10101011 %
b010101011 '
1*
b0000000010101011 ,
#3620
0*
#3630
b10101100 %
b010101100 '
1*
b0000000010101100 ,
#3640
0*
#3650
b10101101 %
b010101101 '
1*
b0000000010101101 ,
#3660
0*
#3670
b10101110 %
b010101110 '
1*
b0000000010101110 ,
#3680
0*
#3690
b10101111 %
b010101111 '
1*
b0000000010101111 ,
#3700
0*
#3710
b10110000 %
b010110000 '
1*
b0000000010110000 ,
#3720
0*
#3730
b10110001 %
b010110001 '
1*
b0000000010110001 ,
#3740
0*
#3750
b10110010 %
b010110010 '
1*
b0000000010110010 ,
#3760
0*
#3770
b10110011 %
b010110011 '
1*
b0000000010110011 ,
#3780
0*
#3790
b10110100 %
b010110100 '
1*
b0000000010110100 ,
#3800
0*
#3810
b10110101 %
b010110101 '
1*
b0000000010110101 ,
#3820
0*
#3830
b10110110 %
b010110110 '
1*
b0000000010110110 ,
#3840
0*
#3850
b10110111 %
b010110111 '
1*
b0000000010110111 ,
#3860
0*
#3870
b10111000 %
b010111000 '
1*
b0000000010111000 ,
#3880
0*
#3890
b10111001 %
b010111001 '
1*
b0000000010111001 ,
#3900
0*
#3910
b10111010 %
b010111010 '
1*
b0000000010111010 ,
#3920
0*
#3930
b10111011 %
b010111011 '
1*
b0000000010111011 ,
#3940
0*
#3950
b10111100 %
b010111100 '
1*
b0000000010111100 ,
#3960
0*
#3970
b10111101 %
b010111101 '
1*
b0000000010111101 ,
#3980
0*
#3990
b10111110 %
b010111110 '
1*
b0000000010111110 ,
#4000
0*
#4010
b10111111 %
b010111111 '
1*
b0000000010111111 ,
#4020
0*
#4030
b11000000 %
b011000000 '
1*
b0000000011000000 ,
#4040
0*
#4050
b11000001 %
b011000001 '
1*
b0000000011000001 ,
#4060
0*
#4070
b11000010 %
b011000010 '
1*
b0000000011000010 ,
#4080
0*
#4090
b11000011 %
b011000011 '
1*
b0000000011000011 ,
#4100
0*
#4110
b11000100 %
b011000100 '
1*
b0000000011000100 ,
#4120
0*
#4130
b11000101 %
b011000101 '
1*
b0000000011000101 ,
#4140
0*
#4150
b11000110 %
b011000110 '
1*
b0000000011000110 ,
#4160
0*
#4170
b11000111 %
b011000111 '
1*
b0000000011000111 ,
#4180
0*
#4190
b11001000 %
b011001000 '
1*
b0000000011001000 ,
#4200
0*
#4210
b11001001 %
b011001001 '
1*
b0000000011001001 ,
#4220
0*
#4230
b11001010 %
b011001010 '
1*
b0000000011001010 ,
#4240
0*
#4250
b11001011 %
b011001011 '
1*
b0000000011001011 ,
#4260
0*
#4270
b11001100 %
b011001100 '
1*
b0000000011001100 ,
#4280
0*
#4290
b11001101 %
b011001101 '
1*
b0000000011001101 ,
#4300
0*
#4310
b11001110 %
b011001110 '
1*
b0000000011001110 ,
#4320
0*
#4330
b11001111 %
b011001111 '
1*
b0000000011001111 ,
#4340
0*
#4350
b11010000 %
b011010000 '
1*
b0000000011010000 ,
#4360
0*
#4370
b11010001 %
b011010001 '
1*
b0000000011010001 ,
#4380
0*
#4390
b11010010 %
b011010010 '
1*
b0000000011010010 ,
#4400
0*
#4410
b11010011 %
b011010011 '
1*
b0000000011010011 ,
#4420
0*
#4430
b11010100 %
b011010100 '
1*
b0000000011010100 ,
#4440
0*
#4450
b11010101 %
b011010101 '
1*
b0000000011010101 ,
#4460
0*
#4470
b11010110 %
b011010110 '
1*
b0000000011010110 ,
#4480
0*
#4490
b11010111 %
b011010111 '
1*
b0000000011010111 ,
#4500
0*
#4510
b11011000 %
b011011000 '
1*
b0000000011011000 ,
#4520
0*
#4530
b11011001 %
b011011001 '
1*
b0000000011011001 ,
#4540
0*
#4550
b11011010 %
b011011010 '
1*
b0000000011011010 ,
#4560
0*
#4570
b11011011 %
b011011011 '
1*
b0000000011011011 ,
#4580
0*
#4590
b11011100 %
b011011100 '
1*
b0000000011011100 ,
#4600
0*
#4610
b11011101 %
b011011101 '
1*
b0000000011011101 ,
#4620
0*
#4630
b11011110 %
b011011110 '
1*
b0000000011011110 ,
#4640
0*
#4650
b11011111 %
b011011111 '
1*
b0000000011011111 ,
#4660
0*
#4670
b11100000 %
b011100000 '
1*
b0000000011100000 ,
#4680
0*
#4690
b11100001 %
b011100001 '
1*
b0000000011100001 ,
#4700
0*
#4710
b11100010 %
b011100010 '
1*
b0000000011100010 ,
#4720
0*
#4730
b11100011 %
b011100011 '
1*
b0000000011100011 ,
#4740
0*
#4750
b11100100 %
b011100100 '
1*
b0000000011100100 ,
#4760
0*
#4770
b11100101 %
b011100101 '
1*
b0000000011100101 ,
#4780
0*
#4790
b11100110 %
b011100110 '
1*
b0000000011100110 ,
#4800
0*
#4810
b11100111 %
b011100111 '
1*
b0000000011100111 ,
#4820
0*
#4830
b11101000 %
b011101000 '
1*
b0000000011101000 ,
#4840
0*
#4850
b11101001 %
b011101001 '
1*
b0000000011101001 ,
#4860
0*
#4870
b11101010 %
b011101010 '
1*
b0000000011101010 ,
#4880
0*
#4890
b11101011 %
b011101011 '
1*
b0000000011101011 ,
#4900
0*
#4910
b11101100 %
b011101100 '
1*
b0000000011101100 ,
#4920
0*
#4930
b11101101 %
b011101101 '
1*
b0000000011101101 ,
#4940
0*
#4950
b11101110 %
b011101110 '
1*
b0000000011101110 ,
#4960
0*
#4970
b11101111 %
b011101111 '
1*
b0000000011101111 ,
#4980
0*
#4990
b11110000 %
b011110000 '
1*
b0000000011110000 ,
#5000
0*
#5010
b11110001 %
b011110001 '
1*
b0000000011110001 ,
#5020
0*
#5030
b11110010 %
b011110010 '
1*
b0000000011110010 ,
#5040
0*
#5050
b11110011 %
b011110011 '
1*
b0000000011110011 ,
#5060
0*
#5070
b11110100 %
b011110100 '
1*
b0000000011110100 ,
#5080
0*
#5090
b11110101 %
b011110101 '
1*
b0000000011110101 ,
#5100
0*
#5110
b11110110 %
b011110110 '
1*
b0000000011110110 ,
#5120
0*
#5130
b11110111 %
b011110111 '
1*
b0000000011110111 ,
#5140
0*
#5150
b11111000 %
b011111000 '
1*
b0000000011111000 ,
#5160
0*
#5170
b11111001 %
b011111001 '
1*
b0000000011111001 ,
#5180
0*
#5190
b11111010 %
b011111010 '
1*
b0000000011111010 ,
#5200
0*
#5210
b11111011 %
b011111011 '
1*
b0000000011111011 ,
#5220
0*
#5230
b11111100 %
b011111100 '
1*
b0000000011111100 ,
#5240
0*
#5250
b11111101 %
b011111101 '
1*
b0000000011111101 ,
#5260
0*
#5270
b11111110 %
b011111110 '
1*
b0000000011111110 ,
#5280
0*
#5290
b11111111 %
b011111111 '
1*
b0000000011111111 ,
#5300
0*
#5310
b00000000 %
b100000000 '
1*
b0000000100000000 ,
1-
