archive/rtl/chip/core/exu_swc/exu_imm_swc/exu_imm_tb.vcd
$version Generated by VerilatedVcd $end
$timescale 1ps $end
 $scope module TOP $end
  $scope module exu_imm_tb $end
   $var wire 1 0 hclk $end
   $var wire 1 # hrstn $end
   $var wire 4 1 cycle_cnt [3:0] $end
   $var wire 1 $ dec_branch_en $end
   $var wire 1 % dec_addi $end
   $var wire 1 2 dec_slti $end
   $var wire 1 3 dec_sltiu $end
   $var wire 1 4 dec_xori $end
   $var wire 1 5 dec_ori $end
   $var wire 1 6 dec_andi $end
   $var wire 1 7 dec_slli $end
   $var wire 1 8 dec_srli $end
   $var wire 1 9 dec_srai $end
   $var wire 12 & dec_imm_type_i [11:0] $end
   $var wire 5 : dec_rd [4:0] $end
   $var wire 5 ; dec_rs1 [4:0] $end
   $var wire 32 < pc [31:0] $end
   $var wire 5 ( reg_waddr [4:0] $end
   $var wire 1 ) reg_wen $end
   $var wire 32 * reg_wdata [31:0] $end
   $var wire 5 + reg_raddr_1 [4:0] $end
   $var wire 1 , reg_ren_1 $end
   $var wire 32 ' reg_rdata_1 [31:0] $end
   $scope module exu_imm_inst $end
    $var wire 1 0 hclk $end
    $var wire 1 # hrstn $end
    $var wire 4 1 cycle_cnt [3:0] $end
    $var wire 1 $ dec_branch_en $end
    $var wire 1 % dec_addi $end
    $var wire 1 2 dec_slti $end
    $var wire 1 3 dec_sltiu $end
    $var wire 1 4 dec_xori $end
    $var wire 1 5 dec_ori $end
    $var wire 1 6 dec_andi $end
    $var wire 1 7 dec_slli $end
    $var wire 1 8 dec_srli $end
    $var wire 1 9 dec_srai $end
    $var wire 12 & dec_imm_type_i [11:0] $end
    $var wire 5 : dec_rd [4:0] $end
    $var wire 5 ; dec_rs1 [4:0] $end
    $var wire 32 < pc [31:0] $end
    $var wire 5 ( reg_waddr [4:0] $end
    $var wire 1 ) reg_wen $end
    $var wire 32 * reg_wdata [31:0] $end
    $var wire 5 + reg_raddr_1 [4:0] $end
    $var wire 1 , reg_ren_1 $end
    $var wire 32 ' reg_rdata_1 [31:0] $end
    $var wire 5 - mid_reg_waddr [4:0] $end
    $var wire 1 ) mid_reg_wen $end
    $var wire 32 . mid_reg_wdata [31:0] $end
    $var wire 5 / mid_reg_raddr_1 [4:0] $end
    $var wire 1 , mid_reg_ren_1 $end
   $upscope $end
  $upscope $end
 $upscope $end
$enddefinitions $end


#0
0#
1$
1%
b000000001010 &
b00000000000000000000000000011001 '
b00000 (
0)
b00000000000000000000000000000000 *
b00000 +
0,
b00000 -
b00000000000000000000000000000000 .
b00000 /
00
b0000 1
02
03
04
05
06
07
08
09
b00000 :
b00000 ;
b00000000000000000000000000000000 <
#5
10
#10
00
#15
10
#20
1#
00
#25
10
b0001 1
#30
00
#35
1,
10
b0010 1
#40
00
#45
0,
10
b0011 1
#50
00
#55
1)
b00000000000000000000000000100011 *
b00000000000000000000000000100011 .
10
b0100 1
#60
00
#65
0)
b00000000000000000000000000000000 *
b00000000000000000000000000000000 .
10
b0001 1
#70
00
#75
1,
10
b0010 1
#80
00
#85
0,
10
b0011 1
#90
00
#95
1)
b00000000000000000000000000100011 *
b00000000000000000000000000100011 .
10
b0100 1
#100
00
#105
0)
b00000000000000000000000000000000 *
b00000000000000000000000000000000 .
10
b0001 1
#110
00
#115
1,
10
b0010 1
#120
00
#125
0,
10
b0011 1
#130
00
#135
1)
b00000000000000000000000000100011 *
b00000000000000000000000000100011 .
10
b0100 1
#140
00
#145
0)
b00000000000000000000000000000000 *
b00000000000000000000000000000000 .
10
b0001 1
#150
00
#155
1,
10
b0010 1
#160
00
#165
0,
10
b0011 1
#170
00
#175
1)
b00000000000000000000000000100011 *
b00000000000000000000000000100011 .
10
b0100 1
#180
00
#185
0)
b00000000000000000000000000000000 *
b00000000000000000000000000000000 .
10
b0001 1
#190
00
#195
1,
10
b0010 1
#200
00
#205
0,
10
b0011 1
#210
00
#215
1)
b00000000000000000000000000100011 *
b00000000000000000000000000100011 .
10
b0100 1
#220
00
#225
0)
b00000000000000000000000000000000 *
b00000000000000000000000000000000 .
10
b0001 1
#230
00
#235
1,
10
b0010 1
#240
00
#245
0,
10
b0011 1
#250
00
#255
1)
b00000000000000000000000000100011 *
b00000000000000000000000000100011 .
10
b0100 1
#260
00
#265
0)
b00000000000000000000000000000000 *
b00000000000000000000000000000000 .
10
b0001 1
#270
00
#275
1,
10
b0010 1
#280
00
#285
0,
10
b0011 1
#290
00
#295
1)
b00000000000000000000000000100011 *
b00000000000000000000000000100011 .
10
b0100 1
#300
00
#305
0)
b00000000000000000000000000000000 *
b00000000000000000000000000000000 .
10
b0001 1
#310
00
#315
1,
10
b0010 1
#320
00
#325
0,
10
b0011 1
#330
00
#335
1)
b00000000000000000000000000100011 *
b00000000000000000000000000100011 .
10
b0100 1
#340
00
#345
0)
b00000000000000000000000000000000 *
b00000000000000000000000000000000 .
10
b0001 1
#350
00
#355
1,
10
b0010 1
#360
00
#365
0,
10
b0011 1
#370
00
#375
1)
b00000000000000000000000000100011 *
b00000000000000000000000000100011 .
10
b0100 1
#380
00
#385
0)
b00000000000000000000000000000000 *
b00000000000000000000000000000000 .
10
b0001 1
#390
00
#395
1,
10
b0010 1
#400
00
#405
0,
10
b0011 1
#410
00
#415
1)
b00000000000000000000000000100011 *
b00000000000000000000000000100011 .
10
b0100 1
#420
00
#425
0)
b00000000000000000000000000000000 *
b00000000000000000000000000000000 .
10
b0001 1
#430
00
#435
1,
10
b0010 1
#440
00
#445
0,
10
b0011 1
#450
00
#455
1)
b00000000000000000000000000100011 *
b00000000000000000000000000100011 .
10
b0100 1
#460
00
#465
0)
b00000000000000000000000000000000 *
b00000000000000000000000000000000 .
10
b0001 1
#470
00
#475
1,
10
b0010 1
#480
00
#485
0,
10
b0011 1
#490
00
#495
1)
b00000000000000000000000000100011 *
b00000000000000000000000000100011 .
10
b0100 1
#500
00
#505
0)
b00000000000000000000000000000000 *
b00000000000000000000000000000000 .
10
b0001 1
#510
00
#515
1,
10
b0010 1
#520
00
#525
0,
10
b0011 1
#530
00
#535
1)
b00000000000000000000000000100011 *
b00000000000000000000000000100011 .
10
b0100 1
#540
00
#545
0)
b00000000000000000000000000000000 *
b00000000000000000000000000000000 .
10
b0001 1
#550
00
#555
1,
10
b0010 1
#560
00
#565
0,
10
b0011 1
#570
00
#575
1)
b00000000000000000000000000100011 *
b00000000000000000000000000100011 .
10
b0100 1
#580
00
#585
0)
b00000000000000000000000000000000 *
b00000000000000000000000000000000 .
10
b0001 1
#590
00
#595
1,
10
b0010 1
#600
00
#605
0,
10
b0011 1
#610
00
#615
1)
b00000000000000000000000000100011 *
b00000000000000000000000000100011 .
10
b0100 1
#620
00
#625
0)
b00000000000000000000000000000000 *
b00000000000000000000000000000000 .
10
b0001 1
#630
00
#635
1,
10
b0010 1
#640
00
#645
0,
10
b0011 1
#650
00
#655
1)
b00000000000000000000000000100011 *
b00000000000000000000000000100011 .
10
b0100 1
#660
00
#665
0)
b00000000000000000000000000000000 *
b00000000000000000000000000000000 .
10
b0001 1
#670
00
#675
1,
10
b0010 1
#680
00
#685
0,
10
b0011 1
#690
00
#695
1)
b00000000000000000000000000100011 *
b00000000000000000000000000100011 .
10
b0100 1
#700
00
#705
0)
b00000000000000000000000000000000 *
b00000000000000000000000000000000 .
10
b0001 1
#710
00
#715
1,
10
b0010 1
#720
00
#725
0,
10
b0011 1
#730
00
#735
1)
b00000000000000000000000000100011 *
b00000000000000000000000000100011 .
10
b0100 1
#740
00
#745
0)
b00000000000000000000000000000000 *
b00000000000000000000000000000000 .
10
b0001 1
#750
00
#755
1,
10
b0010 1
#760
00
#765
0,
10
b0011 1
#770
00
#775
1)
b00000000000000000000000000100011 *
b00000000000000000000000000100011 .
10
b0100 1
#780
00
#785
0)
b00000000000000000000000000000000 *
b00000000000000000000000000000000 .
10
b0001 1
#790
00
#795
1,
10
b0010 1
#800
00
#805
0,
10
b0011 1
#810
00
#815
1)
b00000000000000000000000000100011 *
b00000000000000000000000000100011 .
10
b0100 1
#820
00
#825
0)
b00000000000000000000000000000000 *
b00000000000000000000000000000000 .
10
b0001 1
#830
00
#835
1,
10
b0010 1
#840
00
#845
0,
10
b0011 1
#850
00
#855
1)
b00000000000000000000000000100011 *
b00000000000000000000000000100011 .
10
b0100 1
#860
00
#865
0)
b00000000000000000000000000000000 *
b00000000000000000000000000000000 .
10
b0001 1
#870
00
#875
1,
10
b0010 1
#880
00
#885
0,
10
b0011 1
#890
00
#895
1)
b00000000000000000000000000100011 *
b00000000000000000000000000100011 .
10
b0100 1
#900
00
#905
0)
b00000000000000000000000000000000 *
b00000000000000000000000000000000 .
10
b0001 1
#910
00
#915
1,
10
b0010 1
#920
00
#925
0,
10
b0011 1
#930
00
#935
1)
b00000000000000000000000000100011 *
b00000000000000000000000000100011 .
10
b0100 1
#940
00
#945
0)
b00000000000000000000000000000000 *
b00000000000000000000000000000000 .
10
b0001 1
#950
00
#955
1,
10
b0010 1
#960
00
#965
0,
10
b0011 1
#970
00
#975
1)
b00000000000000000000000000100011 *
b00000000000000000000000000100011 .
10
b0100 1
#980
00
#985
0)
b00000000000000000000000000000000 *
b00000000000000000000000000000000 .
10
b0001 1
#990
00
#995
1,
10
b0010 1
#1000
00
#1005
0,
10
b0011 1
#1010
00
#1015
1)
b00000000000000000000000000100011 *
b00000000000000000000000000100011 .
10
b0100 1
#1020
00
#1025
0)
b00000000000000000000000000000000 *
b00000000000000000000000000000000 .
10
b0001 1
#1030
00
#1035
1,
10
b0010 1
#1040
00
#1045
0,
10
b0011 1
#1050
00
#1055
1)
b00000000000000000000000000100011 *
b00000000000000000000000000100011 .
10
b0100 1
#1060
00
#1065
0)
b00000000000000000000000000000000 *
b00000000000000000000000000000000 .
10
b0001 1
#1070
00
#1075
1,
10
b0010 1
#1080
00
#1085
0,
10
b0011 1
#1090
00
#1095
1)
b00000000000000000000000000100011 *
b00000000000000000000000000100011 .
10
b0100 1
#1100
00
#1105
0)
b00000000000000000000000000000000 *
b00000000000000000000000000000000 .
10
b0001 1
#1110
00
#1115
1,
10
b0010 1
#1120
00
#1125
0,
10
b0011 1
#1130
00
#1135
1)
b00000000000000000000000000100011 *
b00000000000000000000000000100011 .
10
b0100 1
#1140
00
#1145
0)
b00000000000000000000000000000000 *
b00000000000000000000000000000000 .
10
b0001 1
#1150
00
#1155
1,
10
b0010 1
#1160
00
#1165
0,
10
b0011 1
#1170
00
#1175
1)
b00000000000000000000000000100011 *
b00000000000000000000000000100011 .
10
b0100 1
#1180
00
#1185
0)
b00000000000000000000000000000000 *
b00000000000000000000000000000000 .
10
b0001 1
#1190
00
#1195
1,
10
b0010 1
#1200
00
#1205
0,
10
b0011 1
#1210
00
#1215
1)
b00000000000000000000000000100011 *
b00000000000000000000000000100011 .
10
b0100 1
#1220
00
#1225
0)
b00000000000000000000000000000000 *
b00000000000000000000000000000000 .
10
b0001 1
#1230
00
#1235
1,
10
b0010 1
#1240
00
#1245
0,
10
b0011 1
#1250
00
#1255
1)
b00000000000000000000000000100011 *
b00000000000000000000000000100011 .
10
b0100 1
#1260
00
#1265
0)
b00000000000000000000000000000000 *
b00000000000000000000000000000000 .
10
b0001 1
#1270
00
#1275
1,
10
b0010 1
#1280
00
#1285
0,
10
b0011 1
#1290
00
#1295
1)
b00000000000000000000000000100011 *
b00000000000000000000000000100011 .
10
b0100 1
#1300
00
#1305
0)
b00000000000000000000000000000000 *
b00000000000000000000000000000000 .
10
b0001 1
#1310
00
#1315
1,
10
b0010 1
#1320
00
#1325
0,
10
b0011 1
#1330
00
#1335
1)
b00000000000000000000000000100011 *
b00000000000000000000000000100011 .
10
b0100 1
#1340
00
#1345
0)
b00000000000000000000000000000000 *
b00000000000000000000000000000000 .
10
b0001 1
#1350
00
#1355
1,
10
b0010 1
#1360
00
#1365
0,
10
b0011 1
#1370
00
#1375
1)
b00000000000000000000000000100011 *
b00000000000000000000000000100011 .
10
b0100 1
#1380
00
#1385
0)
b00000000000000000000000000000000 *
b00000000000000000000000000000000 .
10
b0001 1
#1390
00
#1395
1,
10
b0010 1
#1400
00
#1405
0,
10
b0011 1
#1410
00
#1415
1)
b00000000000000000000000000100011 *
b00000000000000000000000000100011 .
10
b0100 1
#1420
00
#1425
0)
b00000000000000000000000000000000 *
b00000000000000000000000000000000 .
10
b0001 1
#1430
00
#1435
1,
10
b0010 1
#1440
00
#1445
0,
10
b0011 1
#1450
00
#1455
1)
b00000000000000000000000000100011 *
b00000000000000000000000000100011 .
10
b0100 1
#1460
00
#1465
0)
b00000000000000000000000000000000 *
b00000000000000000000000000000000 .
10
b0001 1
#1470
00
#1475
1,
10
b0010 1
#1480
00
#1485
0,
10
b0011 1
#1490
00
#1495
1)
b00000000000000000000000000100011 *
b00000000000000000000000000100011 .
10
b0100 1
#1500
00
#1505
0)
b00000000000000000000000000000000 *
b00000000000000000000000000000000 .
10
b0001 1
#1510
00
#1515
1,
10
b0010 1
#1520
00
#1525
0,
10
b0011 1
#1530
00
#1535
1)
b00000000000000000000000000100011 *
b00000000000000000000000000100011 .
10
b0100 1
#1540
00
#1545
0)
b00000000000000000000000000000000 *
b00000000000000000000000000000000 .
10
b0001 1
#1550
00
#1555
1,
10
b0010 1
#1560
00
#1565
0,
10
b0011 1
#1570
00
#1575
1)
b00000000000000000000000000100011 *
b00000000000000000000000000100011 .
10
b0100 1
#1580
00
#1585
0)
b00000000000000000000000000000000 *
b00000000000000000000000000000000 .
10
b0001 1
#1590
00
#1595
1,
10
b0010 1
#1600
00
#1605
0,
10
b0011 1
#1610
00
#1615
1)
b00000000000000000000000000100011 *
b00000000000000000000000000100011 .
10
b0100 1
#1620
00
#1625
0)
b00000000000000000000000000000000 *
b00000000000000000000000000000000 .
10
b0001 1
#1630
00
#1635
1,
10
b0010 1
#1640
00
#1645
0,
10
b0011 1
#1650
00
#1655
1)
b00000000000000000000000000100011 *
b00000000000000000000000000100011 .
10
b0100 1
#1660
00
#1665
0)
b00000000000000000000000000000000 *
b00000000000000000000000000000000 .
10
b0001 1
#1670
00
#1675
1,
10
b0010 1
#1680
00
#1685
0,
10
b0011 1
#1690
00
#1695
1)
b00000000000000000000000000100011 *
b00000000000000000000000000100011 .
10
b0100 1
#1700
00
#1705
0)
b00000000000000000000000000000000 *
b00000000000000000000000000000000 .
10
b0001 1
#1710
00
#1715
1,
10
b0010 1
#1720
00
#1725
0,
10
b0011 1
#1730
00
#1735
1)
b00000000000000000000000000100011 *
b00000000000000000000000000100011 .
10
b0100 1
#1740
00
#1745
0)
b00000000000000000000000000000000 *
b00000000000000000000000000000000 .
10
b0001 1
#1750
00
#1755
1,
10
b0010 1
#1760
00
#1765
0,
10
b0011 1
#1770
00
#1775
1)
b00000000000000000000000000100011 *
b00000000000000000000000000100011 .
10
b0100 1
#1780
00
#1785
0)
b00000000000000000000000000000000 *
b00000000000000000000000000000000 .
10
b0001 1
#1790
00
#1795
1,
10
b0010 1
#1800
00
#1805
0,
10
b0011 1
#1810
00
#1815
1)
b00000000000000000000000000100011 *
b00000000000000000000000000100011 .
10
b0100 1
#1820
00
#1825
0)
b00000000000000000000000000000000 *
b00000000000000000000000000000000 .
10
b0001 1
#1830
00
#1835
1,
10
b0010 1
#1840
00
#1845
0,
10
b0011 1
#1850
00
#1855
1)
b00000000000000000000000000100011 *
b00000000000000000000000000100011 .
10
b0100 1
#1860
00
#1865
0)
b00000000000000000000000000000000 *
b00000000000000000000000000000000 .
10
b0001 1
#1870
00
#1875
1,
10
b0010 1
#1880
00
#1885
0,
10
b0011 1
#1890
00
#1895
1)
b00000000000000000000000000100011 *
b00000000000000000000000000100011 .
10
b0100 1
#1900
00
#1905
0)
b00000000000000000000000000000000 *
b00000000000000000000000000000000 .
10
b0001 1
#1910
00
#1915
1,
10
b0010 1
#1920
00
#1925
0,
10
b0011 1
#1930
00
#1935
1)
b00000000000000000000000000100011 *
b00000000000000000000000000100011 .
10
b0100 1
#1940
00
#1945
0)
b00000000000000000000000000000000 *
b00000000000000000000000000000000 .
10
b0001 1
#1950
00
#1955
1,
10
b0010 1
#1960
00
#1965
0,
10
b0011 1
#1970
00
#1975
1)
b00000000000000000000000000100011 *
b00000000000000000000000000100011 .
10
b0100 1
#1980
00
#1985
0)
b00000000000000000000000000000000 *
b00000000000000000000000000000000 .
10
b0001 1
#1990
00
#1995
1,
10
b0010 1
#2000
00
#2005
0,
10
b0011 1
#2010
00
#2015
1)
b00000000000000000000000000100011 *
b00000000000000000000000000100011 .
10
b0100 1
#2020
00
#2025
0)
b00000000000000000000000000000000 *
b00000000000000000000000000000000 .
10
b0001 1
#2030
00
#2035
1,
10
b0010 1
#2040
00
#2045
0,
10
b0011 1
#2050
00
#2055
1)
b00000000000000000000000000100011 *
b00000000000000000000000000100011 .
10
b0100 1
#2060
00
#2065
0)
b00000000000000000000000000000000 *
b00000000000000000000000000000000 .
10
b0001 1
#2070
00
#2075
1,
10
b0010 1
#2080
00
#2085
0,
10
b0011 1
#2090
00
#2095
1)
b00000000000000000000000000100011 *
b00000000000000000000000000100011 .
10
b0100 1
#2100
00
#2105
0)
b00000000000000000000000000000000 *
b00000000000000000000000000000000 .
10
b0001 1
#2110
00
#2115
1,
10
b0010 1
#2120
00
#2125
0,
10
b0011 1
#2130
00
#2135
1)
b00000000000000000000000000100011 *
b00000000000000000000000000100011 .
10
b0100 1
#2140
00
#2145
0)
b00000000000000000000000000000000 *
b00000000000000000000000000000000 .
10
b0001 1
#2150
00
#2155
1,
10
b0010 1
#2160
00
#2165
0,
10
b0011 1
#2170
00
#2175
1)
b00000000000000000000000000100011 *
b00000000000000000000000000100011 .
10
b0100 1
#2180
00
#2185
0)
b00000000000000000000000000000000 *
b00000000000000000000000000000000 .
10
b0001 1
#2190
00
#2195
1,
10
b0010 1
#2200
00
#2205
0,
10
b0011 1
#2210
00
#2215
1)
b00000000000000000000000000100011 *
b00000000000000000000000000100011 .
10
b0100 1
#2220
00
#2225
0)
b00000000000000000000000000000000 *
b00000000000000000000000000000000 .
10
b0001 1
#2230
00
#2235
1,
10
b0010 1
#2240
00
#2245
0,
10
b0011 1
#2250
00
#2255
1)
b00000000000000000000000000100011 *
b00000000000000000000000000100011 .
10
b0100 1
#2260
00
#2265
0)
b00000000000000000000000000000000 *
b00000000000000000000000000000000 .
10
b0001 1
#2270
00
#2275
1,
10
b0010 1
#2280
00
#2285
0,
10
b0011 1
#2290
00
#2295
1)
b00000000000000000000000000100011 *
b00000000000000000000000000100011 .
10
b0100 1
#2300
00
#2305
0)
b00000000000000000000000000000000 *
b00000000000000000000000000000000 .
10
b0001 1
#2310
00
#2315
1,
10
b0010 1
#2320
00
#2325
0,
10
b0011 1
#2330
00
#2335
1)
b00000000000000000000000000100011 *
b00000000000000000000000000100011 .
10
b0100 1
#2340
00
#2345
0)
b00000000000000000000000000000000 *
b00000000000000000000000000000000 .
10
b0001 1
#2350
00
#2355
1,
10
b0010 1
#2360
00
#2365
0,
10
b0011 1
#2370
00
#2375
1)
b00000000000000000000000000100011 *
b00000000000000000000000000100011 .
10
b0100 1
#2380
00
#2385
0)
b00000000000000000000000000000000 *
b00000000000000000000000000000000 .
10
b0001 1
#2390
00
#2395
1,
10
b0010 1
#2400
00
#2405
0,
10
b0011 1
#2410
00
#2415
1)
b00000000000000000000000000100011 *
b00000000000000000000000000100011 .
10
b0100 1
#2420
00
#2425
0)
b00000000000000000000000000000000 *
b00000000000000000000000000000000 .
10
b0001 1
#2430
00
#2435
1,
10
b0010 1
#2440
00
#2445
0,
10
b0011 1
#2450
00
#2455
1)
b00000000000000000000000000100011 *
b00000000000000000000000000100011 .
10
b0100 1
#2460
00
#2465
0)
b00000000000000000000000000000000 *
b00000000000000000000000000000000 .
10
b0001 1
#2470
00
#2475
1,
10
b0010 1
#2480
00
#2485
0,
10
b0011 1
#2490
00
#2495
1)
b00000000000000000000000000100011 *
b00000000000000000000000000100011 .
10
b0100 1
#2500
00
#2505
0)
b00000000000000000000000000000000 *
b00000000000000000000000000000000 .
10
b0001 1
#2510
00
#2515
1,
10
b0010 1
#2520
00
#2525
0,
10
b0011 1
#2530
00
#2535
1)
b00000000000000000000000000100011 *
b00000000000000000000000000100011 .
10
b0100 1
#2540
00
#2545
0)
b00000000000000000000000000000000 *
b00000000000000000000000000000000 .
10
b0001 1
#2550
00
#2555
1,
10
b0010 1
#2560
00
#2565
0,
10
b0011 1
#2570
00
#2575
1)
b00000000000000000000000000100011 *
b00000000000000000000000000100011 .
10
b0100 1
#2580
00
#2585
0)
b00000000000000000000000000000000 *
b00000000000000000000000000000000 .
10
b0001 1
#2590
00
#2595
1,
10
b0010 1
#2600
00
#2605
0,
10
b0011 1
#2610
00
#2615
1)
b00000000000000000000000000100011 *
b00000000000000000000000000100011 .
10
b0100 1
#2620
00
#2625
0)
b00000000000000000000000000000000 *
b00000000000000000000000000000000 .
10
b0001 1
#2630
00
#2635
1,
10
b0010 1
#2640
00
#2645
0,
10
b0011 1
#2650
00
#2655
1)
b00000000000000000000000000100011 *
b00000000000000000000000000100011 .
10
b0100 1
#2660
00
#2665
0)
b00000000000000000000000000000000 *
b00000000000000000000000000000000 .
10
b0001 1
#2670
00
#2675
1,
10
b0010 1
#2680
00
#2685
0,
10
b0011 1
#2690
00
#2695
1)
b00000000000000000000000000100011 *
b00000000000000000000000000100011 .
10
b0100 1
#2700
00
#2705
0)
b00000000000000000000000000000000 *
b00000000000000000000000000000000 .
10
b0001 1
#2710
00
#2715
1,
10
b0010 1
#2720
00
#2725
0,
10
b0011 1
#2730
00
#2735
1)
b00000000000000000000000000100011 *
b00000000000000000000000000100011 .
10
b0100 1
#2740
00
#2745
0)
b00000000000000000000000000000000 *
b00000000000000000000000000000000 .
10
b0001 1
#2750
00
#2755
1,
10
b0010 1
#2760
00
#2765
0,
10
b0011 1
#2770
00
#2775
1)
b00000000000000000000000000100011 *
b00000000000000000000000000100011 .
10
b0100 1
#2780
00
#2785
0)
b00000000000000000000000000000000 *
b00000000000000000000000000000000 .
10
b0001 1
#2790
00
#2795
1,
10
b0010 1
#2800
00
#2805
0,
10
b0011 1
#2810
00
#2815
1)
b00000000000000000000000000100011 *
b00000000000000000000000000100011 .
10
b0100 1
#2820
00
#2825
0)
b00000000000000000000000000000000 *
b00000000000000000000000000000000 .
10
b0001 1
#2830
00
#2835
1,
10
b0010 1
#2840
00
#2845
0,
10
b0011 1
#2850
00
#2855
1)
b00000000000000000000000000100011 *
b00000000000000000000000000100011 .
10
b0100 1
#2860
00
#2865
0)
b00000000000000000000000000000000 *
b00000000000000000000000000000000 .
10
b0001 1
#2870
00
#2875
1,
10
b0010 1
#2880
00
#2885
0,
10
b0011 1
#2890
00
#2895
1)
b00000000000000000000000000100011 *
b00000000000000000000000000100011 .
10
b0100 1
#2900
00
#2905
0)
b00000000000000000000000000000000 *
b00000000000000000000000000000000 .
10
b0001 1
#2910
00
#2915
1,
10
b0010 1
#2920
00
#2925
0,
10
b0011 1
#2930
00
#2935
1)
b00000000000000000000000000100011 *
b00000000000000000000000000100011 .
10
b0100 1
#2940
00
#2945
0)
b00000000000000000000000000000000 *
b00000000000000000000000000000000 .
10
b0001 1
#2950
00
#2955
1,
10
b0010 1
#2960
00
#2965
0,
10
b0011 1
#2970
00
#2975
1)
b00000000000000000000000000100011 *
b00000000000000000000000000100011 .
10
b0100 1
#2980
00
#2985
0)
b00000000000000000000000000000000 *
b00000000000000000000000000000000 .
10
b0001 1
#2990
00
#2995
1,
10
b0010 1
#3000
00
#3005
0,
10
b0011 1
#3010
00
#3015
1)
b00000000000000000000000000100011 *
b00000000000000000000000000100011 .
10
b0100 1
#3020
00
#3025
0)
b00000000000000000000000000000000 *
b00000000000000000000000000000000 .
10
b0001 1
#3030
00
#3035
1,
10
b0010 1
#3040
00
#3045
0,
10
b0011 1
#3050
00
#3055
1)
b00000000000000000000000000100011 *
b00000000000000000000000000100011 .
10
b0100 1
#3060
00
#3065
0)
b00000000000000000000000000000000 *
b00000000000000000000000000000000 .
10
b0001 1
#3070
00
#3075
1,
10
b0010 1
#3080
00
#3085
0,
10
b0011 1
#3090
00
#3095
1)
b00000000000000000000000000100011 *
b00000000000000000000000000100011 .
10
b0100 1
#3100
00
#3105
0)
b00000000000000000000000000000000 *
b00000000000000000000000000000000 .
10
b0001 1
#3110
00
#3115
1,
10
b0010 1
#3120
00
#3125
0,
10
b0011 1
#3130
00
#3135
1)
b00000000000000000000000000100011 *
b00000000000000000000000000100011 .
10
b0100 1
#3140
00
#3145
0)
b00000000000000000000000000000000 *
b00000000000000000000000000000000 .
10
b0001 1
#3150
00
#3155
1,
10
b0010 1
#3160
00
#3165
0,
10
b0011 1
#3170
00
#3175
1)
b00000000000000000000000000100011 *
b00000000000000000000000000100011 .
10
b0100 1
#3180
00
#3185
0)
b00000000000000000000000000000000 *
b00000000000000000000000000000000 .
10
b0001 1
#3190
00
#3195
1,
10
b0010 1
#3200
00
#3205
0,
10
b0011 1
#3210
00
#3215
1)
b00000000000000000000000000100011 *
b00000000000000000000000000100011 .
10
b0100 1
#3220
00
#3225
0)
b00000000000000000000000000000000 *
b00000000000000000000000000000000 .
10
b0001 1
#3230
00
#3235
1,
10
b0010 1
#3240
00
#3245
0,
10
b0011 1
#3250
00
#3255
1)
b00000000000000000000000000100011 *
b00000000000000000000000000100011 .
10
b0100 1
#3260
00
#3265
0)
b00000000000000000000000000000000 *
b00000000000000000000000000000000 .
10
b0001 1
#3270
00
#3275
1,
10
b0010 1
#3280
00
#3285
0,
10
b0011 1
#3290
00
#3295
1)
b00000000000000000000000000100011 *
b00000000000000000000000000100011 .
10
b0100 1
#3300
00
#3305
0)
b00000000000000000000000000000000 *
b00000000000000000000000000000000 .
10
b0001 1
#3310
00
#3315
1,
10
b0010 1
#3320
00
#3325
0,
10
b0011 1
#3330
00
#3335
1)
b00000000000000000000000000100011 *
b00000000000000000000000000100011 .
10
b0100 1
#3340
00
#3345
0)
b00000000000000000000000000000000 *
b00000000000000000000000000000000 .
10
b0001 1
#3350
00
#3355
1,
10
b0010 1
#3360
00
#3365
0,
10
b0011 1
#3370
00
#3375
1)
b00000000000000000000000000100011 *
b00000000000000000000000000100011 .
10
b0100 1
#3380
00
#3385
0)
b00000000000000000000000000000000 *
b00000000000000000000000000000000 .
10
b0001 1
#3390
00
#3395
1,
10
b0010 1
#3400
00
#3405
0,
10
b0011 1
#3410
00
#3415
1)
b00000000000000000000000000100011 *
b00000000000000000000000000100011 .
10
b0100 1
#3420
00
#3425
0)
b00000000000000000000000000000000 *
b00000000000000000000000000000000 .
10
b0001 1
#3430
00
#3435
1,
10
b0010 1
#3440
00
#3445
0,
10
b0011 1
#3450
00
#3455
1)
b00000000000000000000000000100011 *
b00000000000000000000000000100011 .
10
b0100 1
#3460
00
#3465
0)
b00000000000000000000000000000000 *
b00000000000000000000000000000000 .
10
b0001 1
#3470
00
#3475
1,
10
b0010 1
#3480
00
#3485
0,
10
b0011 1
#3490
00
#3495
1)
b00000000000000000000000000100011 *
b00000000000000000000000000100011 .
10
b0100 1
#3500
00
#3505
0)
b00000000000000000000000000000000 *
b00000000000000000000000000000000 .
10
b0001 1
#3510
00
#3515
1,
10
b0010 1
#3520
00
#3525
0,
10
b0011 1
#3530
00
#3535
1)
b00000000000000000000000000100011 *
b00000000000000000000000000100011 .
10
b0100 1
#3540
00
#3545
0)
b00000000000000000000000000000000 *
b00000000000000000000000000000000 .
10
b0001 1
#3550
00
#3555
1,
10
b0010 1
#3560
00
#3565
0,
10
b0011 1
#3570
00
#3575
1)
b00000000000000000000000000100011 *
b00000000000000000000000000100011 .
10
b0100 1
#3580
00
#3585
0)
b00000000000000000000000000000000 *
b00000000000000000000000000000000 .
10
b0001 1
#3590
00
#3595
1,
10
b0010 1
#3600
00
#3605
0,
10
b0011 1
#3610
00
#3615
1)
b00000000000000000000000000100011 *
b00000000000000000000000000100011 .
10
b0100 1
#3620
00
#3625
0)
b00000000000000000000000000000000 *
b00000000000000000000000000000000 .
10
b0001 1
#3630
00
#3635
1,
10
b0010 1
#3640
00
#3645
0,
10
b0011 1
#3650
00
#3655
1)
b00000000000000000000000000100011 *
b00000000000000000000000000100011 .
10
b0100 1
#3660
00
#3665
0)
b00000000000000000000000000000000 *
b00000000000000000000000000000000 .
10
b0001 1
#3670
00
#3675
1,
10
b0010 1
#3680
00
#3685
0,
10
b0011 1
#3690
00
#3695
1)
b00000000000000000000000000100011 *
b00000000000000000000000000100011 .
10
b0100 1
#3700
00
#3705
0)
b00000000000000000000000000000000 *
b00000000000000000000000000000000 .
10
b0001 1
#3710
00
#3715
1,
10
b0010 1
#3720
00
#3725
0,
10
b0011 1
#3730
00
#3735
1)
b00000000000000000000000000100011 *
b00000000000000000000000000100011 .
10
b0100 1
#3740
00
#3745
0)
b00000000000000000000000000000000 *
b00000000000000000000000000000000 .
10
b0001 1
#3750
00
#3755
1,
10
b0010 1
#3760
00
#3765
0,
10
b0011 1
#3770
00
#3775
1)
b00000000000000000000000000100011 *
b00000000000000000000000000100011 .
10
b0100 1
#3780
00
#3785
0)
b00000000000000000000000000000000 *
b00000000000000000000000000000000 .
10
b0001 1
#3790
00
#3795
1,
10
b0010 1
#3800
00
#3805
0,
10
b0011 1
#3810
00
#3815
1)
b00000000000000000000000000100011 *
b00000000000000000000000000100011 .
10
b0100 1
#3820
00
#3825
0)
b00000000000000000000000000000000 *
b00000000000000000000000000000000 .
10
b0001 1
#3830
00
#3835
1,
10
b0010 1
#3840
00
#3845
0,
10
b0011 1
#3850
00
#3855
1)
b00000000000000000000000000100011 *
b00000000000000000000000000100011 .
10
b0100 1
#3860
00
