archive/rtl/chip/core/exu_swc/exu_branch_swc/dump.vcd
$date
	Wed Nov 20 09:02:24 2024
$end
$version
	Icarus Verilog
$end
$timescale
	1ps
$end
$scope module exu_branch_wrapper $end
$var wire 4 ! cycle_cnt [3:0] $end
$var wire 1 " dec_beq $end
$var wire 1 # dec_bge $end
$var wire 1 $ dec_bgeu $end
$var wire 1 % dec_blt $end
$var wire 1 & dec_bltu $end
$var wire 1 ' dec_bne $end
$var wire 1 ( dec_branch_en $end
$var wire 12 ) dec_imm_type_b [11:0] $end
$var wire 5 * dec_rs1 [4:0] $end
$var wire 5 + dec_rs2 [4:0] $end
$var wire 1 , hclk $end
$var wire 1 - hrstn $end
$var wire 32 . pc [31:0] $end
$var wire 32 / reg_rdata_1 [31:0] $end
$var wire 32 0 reg_rdata_2 [31:0] $end
$var wire 1 1 reg_ren_2 $end
$var wire 1 2 reg_ren_1 $end
$var wire 5 3 reg_raddr_2 [4:0] $end
$var wire 5 4 reg_raddr_1 [4:0] $end
$var wire 1 5 pc_write $end
$var wire 32 6 pc_wdata [31:0] $end
$var wire 2 7 flush [1:0] $end
$scope module dut $end
$var wire 4 8 cycle_cnt [3:0] $end
$var wire 1 " dec_beq $end
$var wire 1 # dec_bge $end
$var wire 1 $ dec_bgeu $end
$var wire 1 % dec_blt $end
$var wire 1 & dec_bltu $end
$var wire 1 ' dec_bne $end
$var wire 1 ( dec_branch_en $end
$var wire 12 9 dec_imm_type_b [11:0] $end
$var wire 5 : dec_rs1 [4:0] $end
$var wire 5 ; dec_rs2 [4:0] $end
$var wire 1 , hclk $end
$var wire 1 - hrstn $end
$var wire 32 < pc [31:0] $end
$var wire 32 = reg_rdata_1 [31:0] $end
$var wire 32 > reg_rdata_2 [31:0] $end
$var wire 32 ? sext_imm_type_b [31:0] $end
$var wire 1 1 reg_ren_2 $end
$var wire 1 2 reg_ren_1 $end
$var wire 5 @ reg_raddr_2 [4:0] $end
$var wire 5 A reg_raddr_1 [4:0] $end
$var wire 1 5 pc_write $end
$var wire 32 B pc_wdata [31:0] $end
$var wire 32 C pc_real [31:0] $end
$var wire 32 D pc_next [31:0] $end
$var wire 2 E flush [1:0] $end
$var wire 1 F branch $end
$var parameter 32 G FLUSH_CYCLE_1 $end
$var parameter 32 H FLUSH_CYCLE_2 $end
$var parameter 32 I FLUSH_DISABLE $end
$var reg 2 J mid_flush [1:0] $end
$var reg 32 K mid_pc_wdata [31:0] $end
$var reg 1 L mid_pc_write $end
$var reg 5 M mid_reg_raddr_1 [4:0] $end
$var reg 5 N mid_reg_raddr_2 [4:0] $end
$var reg 1 O mid_reg_ren_1 $end
$var reg 1 P mid_reg_ren_2 $end
$upscope $end
$upscope $end
$enddefinitions $end
$comment Show the parameter values. $end
$dumpall
b0 I
b10 H
b1 G
$end
#0
$dumpvars
0P
0O
b0 N
b0 M
0L
b0 K
b0 J
1F
b0 E
b11111111111111111111101000110000 D
b10 C
b0 B
bz A
bz @
b11111111111111111111101000101110 ?
b1111111100111010000110101011111 >
b1011000100010101001000010010011 =
b1010 <
bz ;
bz :
b101000101110 9
b1 8
b0 7
b0 6
05
bz 4
bz 3
z2
z1
b1111111100111010000110101011111 0
b1011000100010101001000010010011 /
b1010 .
0-
0,
bz +
bz *
b101000101110 )
1(
0'
1&
0%
0$
0#
0"
b1 !
$end
#1000
b10 !
b10 8
1,
#2000
0,
#3000
b11 !
b11 8
1,
#4000
0,
#5000
b100 !
b100 8
b10 7
b10 E
b11111111111111111111101000110000 6
b11111111111111111111101000110000 B
15
b10 J
b11111111111111111111101000110000 K
1L
1,
1-
#6000
0,
#7000
b1 !
b1 8
1,
#8000
0,
#9000
b10 !
b10 8
b0 7
b0 E
b0 6
b0 B
05
11
12
b0 J
b0 K
0L
1P
bz N
1O
bz M
1,
#10000
0,
#11000
b11 !
b11 8
z1
z2
0P
b0 N
0O
b0 M
1,
#12000
0,
#13000
b100 !
b100 8
b10 7
b10 E
b11111111111111111111101000110000 6
b11111111111111111111101000110000 B
15
b10 J
b11111111111111111111101000110000 K
1L
1,
#14000
0,
#15000
b1 !
b1 8
1,
#16000
0,
#17000
b0 7
b0 E
b0 6
b0 B
05
11
12
b0 J
b0 K
0L
1P
bz N
1O
bz M
1,
#17001
z1
z2
0P
b0 N
0O
b0 M
0,
0-
0&
1%
b11111111111111111111100110101000 ?
b100110101000 )
b100110101000 9
b11111110011010100111001100001101 0
b11111110011010100111001100001101 >
b10101011110001100011101001111011 /
b10101011110001100011101001111011 =
b11111111111111111111100110100000 D
b11111111111111111111111111111000 C
b0 .
b0 <
#18001
b10 !
b10 8
1,
#19001
0,
#20001
b11 !
b11 8
1,
#21001
0,
#22001
b100 !
b100 8
b10 7
b10 E
b11111111111111111111100110100000 6
b11111111111111111111100110100000 B
15
b10 J
b11111111111111111111100110100000 K
1L
1,
1-
#23001
0,
#24001
b1 !
b1 8
1,
#25001
0,
#26001
b10 !
b10 8
b0 7
b0 E
b0 6
b0 B
05
11
12
b0 J
b0 K
0L
1P
bz N
1O
bz M
1,
#27001
0,
#28001
b11 !
b11 8
z1
z2
0P
b0 N
0O
b0 M
1,
#29001
0,
#30001
b100 !
b100 8
b10 7
b10 E
b11111111111111111111100110100000 6
b11111111111111111111100110100000 B
15
b10 J
b11111111111111111111100110100000 K
1L
1,
#31001
0,
#32001
b1 !
b1 8
1,
#33001
0,
#34001
0-
b11111111111111111111110100101100 D
b11111111111111111111110100110100 ?
b110100110100 )
b110100110100 9
b1110111101001010100111000101100 0
b1110111101001010100111000101100 >
b10100110101000000011000010111101 /
b10100110101000000011000010111101 =
b0 7
b0 E
b0 6
b0 B
05
z1
z2
b0 J
b0 K
0L
0P
b0 N
0O
b0 M
0,
#35001
b10 !
b10 8
1,
#36001
0,
#37001
b11 !
b11 8
1,
#38001
0,
#39001
b100 !
b100 8
b10 7
b10 E
b11111111111111111111110100101100 6
b11111111111111111111110100101100 B
15
b10 J
b11111111111111111111110100101100 K
1L
1,
1-
#40001
0,
#41001
b1 !
b1 8
1,
#42001
0,
#43001
b10 !
b10 8
b0 7
b0 E
b0 6
b0 B
05
11
12
b0 J
b0 K
0L
1P
bz N
1O
bz M
1,
#44001
0,
#45001
b11 !
b11 8
z1
z2
0P
b0 N
0O
b0 M
1,
#46001
0,
#47001
b100 !
b100 8
b10 7
b10 E
b11111111111111111111110100101100 6
b11111111111111111111110100101100 B
15
b10 J
b11111111111111111111110100101100 K
1L
1,
#48001
0,
#49001
b1 !
b1 8
1,
#50001
0,
#51001
0F
0-
0%
1"
b11111111111111111111100110111000 D
b11111111111111111111100111000000 ?
b100111000000 )
b100111000000 9
b11101000000101001010001110010000 0
b11101000000101001010001110010000 >
b111100111111111101111100001010 /
b111100111111111101111100001010 =
b0 7
b0 E
b0 6
b0 B
05
z1
z2
b0 J
b0 K
0L
0P
b0 N
0O
b0 M
0,
#52001
b10 !
b10 8
1,
#53001
0,
#54001
b11 !
b11 8
1,
#55001
0,
#56001
b100 !
b100 8
1,
1-
#57001
0,
#58001
b1 !
b1 8
1,
#59001
0,
#60001
b10 !
b10 8
11
12
1P
bz N
1O
bz M
1,
#61001
0,
#62001
b11 !
b11 8
z1
z2
0P
b0 N
0O
b0 M
1,
#63001
0,
#64001
b100 !
b100 8
1,
#65001
0,
#66001
b1 !
b1 8
1,
#67001
0,
#68001
1F
0-
1&
0"
b11101000 D
b11110000 ?
b11110000 )
b11110000 9
b10100001001010001111000110101011 0
b10100001001010001111000110101011 >
b10010001100011011101000000001000 /
b10010001100011011101000000001000 =
z1
z2
0P
b0 N
0O
b0 M
0,
#69001
b10 !
b10 8
1,
#70001
0,
#71001
b11 !
b11 8
1,
#72001
0,
#73001
b100 !
b100 8
b10 7
b10 E
b11101000 6
b11101000 B
15
b10 J
b11101000 K
1L
1,
1-
#74001
0,
#75001
b1 !
b1 8
1,
#76001
0,
#77001
b10 !
b10 8
b0 7
b0 E
b0 6
b0 B
05
11
12
b0 J
b0 K
0L
1P
bz N
1O
bz M
1,
#78001
0,
#79001
b11 !
b11 8
z1
z2
0P
b0 N
0O
b0 M
1,
#80001
0,
#81001
b100 !
b100 8
b10 7
b10 E
b11101000 6
b11101000 B
15
b10 J
b11101000 K
1L
1,
#82001
0,
#83001
b1 !
b1 8
1,
#84001
0,
#85001
0-
0&
1'
b10011011111 D
b10011100111 ?
b10011100111 )
b10011100111 9
b10010110100011000001011101011101 0
b10010110100011000001011101011101 >
b10010101110101010001000111010000 /
b10010101110101010001000111010000 =
b0 7
b0 E
b0 6
b0 B
05
z1
z2
b0 J
b0 K
0L
0P
b0 N
0O
b0 M
0,
#86001
b10 !
b10 8
1,
#87001
0,
#88001
b11 !
b11 8
1,
#89001
0,
#90001
b100 !
b100 8
b10 7
b10 E
b10011011111 6
b10011011111 B
15
b10 J
b10011011111 K
1L
1,
1-
#91001
0,
#92001
b1 !
b1 8
1,
#93001
0,
#94001
b10 !
b10 8
b0 7
b0 E
b0 6
b0 B
05
11
12
b0 J
b0 K
0L
1P
bz N
1O
bz M
1,
#95001
0,
#96001
b11 !
b11 8
z1
z2
0P
b0 N
0O
b0 M
1,
#97001
0,
#98001
b100 !
b100 8
b10 7
b10 E
b10011011111 6
b10011011111 B
15
b10 J
b10011011111 K
1L
1,
#99001
0,
#100001
b1 !
b1 8
1,
#101001
0,
#102001
1F
0-
1&
0'
b11111111111111111111111000010001 D
b11111111111111111111111000011001 ?
b111000011001 )
b111000011001 9
b1111001100100011101011101101111 0
b1111001100100011101011101101111 >
b1110011111010100111101000101110 /
b1110011111010100111101000101110 =
b0 7
b0 E
b0 6
b0 B
05
z1
z2
b0 J
b0 K
0L
0P
b0 N
0O
b0 M
0,
#103001
b10 !
b10 8
1,
#104001
0,
#105001
b11 !
b11 8
1,
#106001
0,
#107001
b100 !
b100 8
b10 7
b10 E
b11111111111111111111111000010001 6
b11111111111111111111111000010001 B
15
b10 J
b11111111111111111111111000010001 K
1L
1,
1-
#108001
0,
#109001
b1 !
b1 8
1,
#110001
0,
#111001
b10 !
b10 8
b0 7
b0 E
b0 6
b0 B
05
11
12
b0 J
b0 K
0L
1P
bz N
1O
bz M
1,
#112001
0,
#113001
b11 !
b11 8
z1
z2
0P
b0 N
0O
b0 M
1,
#114001
0,
#115001
b100 !
b100 8
b10 7
b10 E
b11111111111111111111111000010001 6
b11111111111111111111111000010001 B
15
b10 J
b11111111111111111111111000010001 K
1L
1,
#116001
0,
#117001
b1 !
b1 8
1,
#118001
0,
#119001
0F
0-
1#
0&
b11111111111111111111111010101101 D
b11111111111111111111111010110101 ?
b111010110101 )
b111010110101 9
b11010110100101111001100111110001 0
b11010110100101111001100111110001 >
b11001010100001000101111110001111 /
b11001010100001000101111110001111 =
b0 7
b0 E
b0 6
b0 B
05
z1
z2
b0 J
b0 K
0L
0P
b0 N
0O
b0 M
0,
#120001
b10 !
b10 8
1,
#121001
0,
#122001
b11 !
b11 8
1,
#123001
0,
#124001
b100 !
b100 8
1,
1-
#125001
0,
#126001
b1 !
b1 8
1,
#127001
0,
#128001
b10 !
b10 8
11
12
1P
bz N
1O
bz M
1,
#129001
0,
#130001
b11 !
b11 8
z1
z2
0P
b0 N
0O
b0 M
1,
#131001
0,
#132001
b100 !
b100 8
1,
#133001
0,
#134001
b1 !
b1 8
1,
#135001
0,
#136001
0-
b11111111111111111111100111010000 D
b11111111111111111111100111011000 ?
b100111011000 )
b100111011000 9
b110000010000100011011101111010 0
b110000010000100011011101111010 >
b101011111000110101110100110110 /
b101011111000110101110100110110 =
z1
z2
0P
b0 N
0O
b0 M
0,
#137001
b10 !
b10 8
1,
#138001
0,
#139001
b11 !
b11 8
1,
#140001
0,
#141001
b100 !
b100 8
1,
1-
#142001
0,
#143001
b1 !
b1 8
1,
#144001
0,
#145001
b10 !
b10 8
11
12
1P
bz N
1O
bz M
1,
#146001
0,
#147001
b11 !
b11 8
z1
z2
0P
b0 N
0O
b0 M
1,
#148001
0,
#149001
b100 !
b100 8
1,
#150001
0,
#151001
b1 !
b1 8
1,
#152001
0,
#153001
1F
0-
0#
1&
b11111111111111111111110101000000 D
b11111111111111111111110101001000 ?
b110101001000 )
b110101001000 9
b1000111100100000001101001100111 0
b1000111100100000001101001100111 >
b100110000101001011010101111001 /
b100110000101001011010101111001 =
z1
z2
0P
b0 N
0O
b0 M
0,
#154001
b10 !
b10 8
1,
#155001
0,
#156001
b11 !
b11 8
1,
#157001
0,
#158001
b100 !
b100 8
b10 7
b10 E
b11111111111111111111110101000000 6
b11111111111111111111110101000000 B
15
b10 J
b11111111111111111111110101000000 K
1L
1,
1-
#159001
0,
#160001
b1 !
b1 8
1,
#161001
0,
#162001
b10 !
b10 8
b0 7
b0 E
b0 6
b0 B
05
11
12
b0 J
b0 K
0L
1P
bz N
1O
bz M
1,
#163001
0,
#164001
b11 !
b11 8
z1
z2
0P
b0 N
0O
b0 M
1,
#165001
0,
#166001
b100 !
b100 8
b10 7
b10 E
b11111111111111111111110101000000 6
b11111111111111111111110101000000 B
15
b10 J
b11111111111111111111110101000000 K
1L
1,
#167001
0,
#168001
b1 !
b1 8
1,
#169001
0,
#170001
1F
0-
1$
0&
b11111111111111111111111001111001 D
b11111111111111111111111010000001 ?
b111010000001 )
b111010000001 9
b1111010101110000110100101110100 0
b1111010101110000110100101110100 >
b10000000110001100001011111000101 /
b10000000110001100001011111000101 =
b0 7
b0 E
b0 6
b0 B
05
z1
z2
b0 J
b0 K
0L
0P
b0 N
0O
b0 M
0,
#171001
b10 !
b10 8
1,
#172001
0,
#173001
b11 !
b11 8
1,
#174001
0,
#175001
b100 !
b100 8
b10 7
b10 E
b11111111111111111111111001111001 6
b11111111111111111111111001111001 B
15
b10 J
b11111111111111111111111001111001 K
1L
1,
1-
#176001
0,
#177001
b1 !
b1 8
1,
#178001
0,
#179001
b10 !
b10 8
b0 7
b0 E
b0 6
b0 B
05
11
12
b0 J
b0 K
0L
1P
bz N
1O
bz M
1,
#180001
0,
#181001
b11 !
b11 8
z1
z2
0P
b0 N
0O
b0 M
1,
#182001
0,
#183001
b100 !
b100 8
b10 7
b10 E
b11111111111111111111111001111001 6
b11111111111111111111111001111001 B
15
b10 J
b11111111111111111111111001111001 K
1L
1,
#184001
0,
#185001
b1 !
b1 8
1,
#186001
0,
#187001
0-
0$
1'
b1110100101 D
b1110101101 ?
b1110101101 )
b1110101101 9
b111101110010101110011001101111 0
b111101110010101110011001101111 >
b10000010100001011000110100111101 /
b10000010100001011000110100111101 =
b0 7
b0 E
b0 6
b0 B
05
z1
z2
b0 J
b0 K
0L
0P
b0 N
0O
b0 M
0,
#188001
b10 !
b10 8
1,
#189001
0,
#190001
b11 !
b11 8
1,
#191001
0,
#192001
b100 !
b100 8
b10 7
b10 E
b1110100101 6
b1110100101 B
15
b10 J
b1110100101 K
1L
1,
1-
#193001
0,
#194001
b1 !
b1 8
1,
#195001
0,
#196001
b10 !
b10 8
b0 7
b0 E
b0 6
b0 B
05
11
12
b0 J
b0 K
0L
1P
bz N
1O
bz M
1,
#197001
0,
#198001
b11 !
b11 8
z1
z2
0P
b0 N
0O
b0 M
1,
#199001
0,
#200001
b100 !
b100 8
b10 7
b10 E
b1110100101 6
b1110100101 B
15
b10 J
b1110100101 K
1L
1,
#201001
0,
#202001
b1 !
b1 8
1,
#203001
0,
#204001
0F
0-
1%
0'
b10111010001 D
b10111011001 ?
b10111011001 )
b10111011001 9
b11000100101111111011011000101110 0
b11000100101111111011011000101110 >
b111101000111110101000101100000 /
b111101000111110101000101100000 =
b0 7
b0 E
b0 6
b0 B
05
z1
z2
b0 J
b0 K
0L
0P
b0 N
0O
b0 M
0,
#205001
b10 !
b10 8
1,
#206001
0,
#207001
b11 !
b11 8
1,
#208001
0,
#209001
b100 !
b100 8
1,
1-
#210001
0,
#211001
b1 !
b1 8
1,
#212001
0,
#213001
b10 !
b10 8
11
12
1P
bz N
1O
bz M
1,
#214001
0,
#215001
b11 !
b11 8
z1
z2
0P
b0 N
0O
b0 M
1,
#216001
0,
#217001
b100 !
b100 8
1,
#218001
0,
#219001
b1 !
b1 8
1,
#220001
0,
#221001
1F
0-
b110011100 D
b110100100 ?
b110100100 )
b110100100 9
b1011011010011011101000 0
b1011011010011011101000 >
b11111100011010100100011100100101 /
b11111100011010100100011100100101 =
z1
z2
0P
b0 N
0O
b0 M
0,
#222001
b10 !
b10 8
1,
#223001
0,
#224001
b11 !
b11 8
1,
#225001
0,
#226001
b100 !
b100 8
b10 7
b10 E
b110011100 6
b110011100 B
15
b10 J
b110011100 K
1L
1,
1-
#227001
0,
#228001
b1 !
b1 8
1,
#229001
0,
#230001
b10 !
b10 8
b0 7
b0 E
b0 6
b0 B
05
11
12
b0 J
b0 K
0L
1P
bz N
1O
bz M
1,
#231001
0,
#232001
b11 !
b11 8
z1
z2
0P
b0 N
0O
b0 M
1,
#233001
0,
#234001
b100 !
b100 8
b10 7
b10 E
b110011100 6
b110011100 B
15
b10 J
b110011100 K
1L
1,
#235001
0,
#236001
b1 !
b1 8
1,
#237001
0,
#238001
0F
0-
0%
1"
b11110100100 D
b11110101100 ?
b11110101100 )
b11110101100 9
b10101000101100000000010001101010 0
b10101000101100000000010001101010 >
b1011010010110010100111000011 /
b1011010010110010100111000011 =
b0 7
b0 E
b0 6
b0 B
05
z1
z2
b0 J
b0 K
0L
0P
b0 N
0O
b0 M
0,
#239001
b10 !
b10 8
1,
#240001
0,
#241001
b11 !
b11 8
1,
#242001
0,
#243001
b100 !
b100 8
1,
1-
#244001
0,
#245001
b1 !
b1 8
1,
#246001
0,
#247001
b10 !
b10 8
11
12
1P
bz N
1O
bz M
1,
#248001
0,
#249001
b11 !
b11 8
z1
z2
0P
b0 N
0O
b0 M
1,
#250001
0,
#251001
b100 !
b100 8
1,
#252001
0,
#253001
b1 !
b1 8
1,
#254001
0,
#255001
1F
0-
1%
0"
b1011001100 D
b1011010100 ?
b1011010100 )
b1011010100 9
b11010001100101000000010100000011 0
b11010001100101000000010100000011 >
b10100100000011111101100001010011 /
b10100100000011111101100001010011 =
z1
z2
0P
b0 N
0O
b0 M
0,
#256001
b10 !
b10 8
1,
#257001
0,
#258001
b11 !
b11 8
1,
#259001
0,
#260001
b100 !
b100 8
b10 7
b10 E
b1011001100 6
b1011001100 B
15
b10 J
b1011001100 K
1L
1,
1-
#261001
0,
#262001
b1 !
b1 8
1,
#263001
0,
#264001
b10 !
b10 8
b0 7
b0 E
b0 6
b0 B
05
11
12
b0 J
b0 K
0L
1P
bz N
1O
bz M
1,
#265001
0,
#266001
b11 !
b11 8
z1
z2
0P
b0 N
0O
b0 M
1,
#267001
0,
#268001
b100 !
b100 8
b10 7
b10 E
b1011001100 6
b1011001100 B
15
b10 J
b1011001100 K
1L
1,
#269001
0,
#270001
b1 !
b1 8
1,
#271001
0,
#272001
0F
0-
1#
0%
b11110001 D
b11111001 ?
b11111001 )
b11111001 9
b1011000101100000000001010110100 0
b1011000101100000000001010110100 >
b1010001001001110101100010011 /
b1010001001001110101100010011 =
b0 7
b0 E
b0 6
b0 B
05
z1
z2
b0 J
b0 K
0L
0P
b0 N
0O
b0 M
0,
#273001
b10 !
b10 8
1,
#274001
0,
#275001
b11 !
b11 8
1,
#276001
0,
#277001
b100 !
b100 8
1,
1-
#278001
0,
#279001
b1 !
b1 8
1,
#280001
0,
#281001
b10 !
b10 8
11
12
1P
bz N
1O
bz M
1,
#282001
0,
#283001
b11 !
b11 8
z1
z2
0P
b0 N
0O
b0 M
1,
#284001
0,
#285001
b100 !
b100 8
1,
#286001
0,
#287001
b1 !
b1 8
1,
#288001
0,
#289001
1F
0-
0#
1'
b11111010101 D
b11111011101 ?
b11111011101 )
b11111011101 9
b100100010000000001010111111101 0
b100100010000000001010111111101 >
b1101001110011110000101110000001 /
b1101001110011110000101110000001 =
z1
z2
0P
b0 N
0O
b0 M
0,
#290001
b10 !
b10 8
1,
#291001
0,
#292001
b11 !
b11 8
1,
#293001
0,
#294001
b100 !
b100 8
b10 7
b10 E
b11111010101 6
b11111010101 B
15
b10 J
b11111010101 K
1L
1,
1-
#295001
0,
#296001
b1 !
b1 8
1,
#297001
0,
#298001
b10 !
b10 8
b0 7
b0 E
b0 6
b0 B
05
11
12
b0 J
b0 K
0L
1P
bz N
1O
bz M
1,
#299001
0,
#300001
b11 !
b11 8
z1
z2
0P
b0 N
0O
b0 M
1,
#301001
0,
#302001
b100 !
b100 8
b10 7
b10 E
b11111010101 6
b11111010101 B
15
b10 J
b11111010101 K
1L
1,
#303001
0,
#304001
b1 !
b1 8
1,
#305001
0,
#306001
0-
b11111111111111111111100011010101 D
b11111111111111111111100011011101 ?
b100011011101 )
b100011011101 9
b1101010010010111101101000111101 0
b1101010010010111101101000111101 >
b10110110101110000011110111101001 /
b10110110101110000011110111101001 =
b0 7
b0 E
b0 6
b0 B
05
z1
z2
b0 J
b0 K
0L
0P
b0 N
0O
b0 M
0,
#307001
b10 !
b10 8
1,
#308001
0,
#309001
b11 !
b11 8
1,
#310001
0,
#311001
b100 !
b100 8
b10 7
b10 E
b11111111111111111111100011010101 6
b11111111111111111111100011010101 B
15
b10 J
b11111111111111111111100011010101 K
1L
1,
1-
#312001
0,
#313001
b1 !
b1 8
1,
#314001
0,
#315001
b10 !
b10 8
b0 7
b0 E
b0 6
b0 B
05
11
12
b0 J
b0 K
0L
1P
bz N
1O
bz M
1,
#316001
0,
#317001
b11 !
b11 8
z1
z2
0P
b0 N
0O
b0 M
1,
#318001
0,
#319001
b100 !
b100 8
b10 7
b10 E
b11111111111111111111100011010101 6
b11111111111111111111100011010101 B
15
b10 J
b11111111111111111111100011010101 K
1L
1,
#320001
0,
#321001
b1 !
b1 8
1,
#322001
0,
#323001
0F
0-
1#
0'
b10001011111 D
b10001100111 ?
b10001100111 )
b10001100111 9
b1111110111011111111110100010 0
b1111110111011111111110100010 >
b11100100101110110011110010010000 /
b11100100101110110011110010010000 =
b0 7
b0 E
b0 6
b0 B
05
z1
z2
b0 J
b0 K
0L
0P
b0 N
0O
b0 M
0,
#324001
b10 !
b10 8
1,
#325001
0,
#326001
b11 !
b11 8
1,
#327001
0,
#328001
b100 !
b100 8
1,
1-
#329001
0,
#330001
b1 !
b1 8
1,
#331001
0,
#332001
b10 !
b10 8
11
12
1P
bz N
1O
bz M
1,
#333001
0,
#334001
b11 !
b11 8
z1
z2
0P
b0 N
0O
b0 M
1,
#335001
0,
#336001
b100 !
b100 8
1,
#337001
0,
#338001
b1 !
b1 8
1,
#339001
0,
#340001
1F
0-
0#
1&
b11111111111111111111111100101111 D
b11111111111111111111111100110111 ?
b111100110111 )
b111100110111 9
b10110100000100110011110000010111 0
b10110100000100110011110000010111 >
b1110011011001001000101011111 /
b1110011011001001000101011111 =
z1
z2
0P
b0 N
0O
b0 M
0,
#341001
b10 !
b10 8
1,
#342001
0,
#343001
b11 !
b11 8
1,
#344001
0,
#345001
b100 !
b100 8
b10 7
b10 E
b11111111111111111111111100101111 6
b11111111111111111111111100101111 B
15
b10 J
b11111111111111111111111100101111 K
1L
1,
1-
#346001
0,
#347001
b1 !
b1 8
1,
#348001
0,
#349001
b10 !
b10 8
b0 7
b0 E
b0 6
b0 B
05
11
12
b0 J
b0 K
0L
1P
bz N
1O
bz M
1,
#350001
0,
#351001
b11 !
b11 8
z1
z2
0P
b0 N
0O
b0 M
1,
#352001
0,
#353001
b100 !
b100 8
b10 7
b10 E
b11111111111111111111111100101111 6
b11111111111111111111111100101111 B
15
b10 J
b11111111111111111111111100101111 K
1L
1,
#354001
0,
#355001
b1 !
b1 8
1,
#356001
0,
#357001
0F
0-
0&
1%
b10111100010 D
b10111101010 ?
b10111101010 )
b10111101010 9
b10100111011101101101100010010100 0
b10100111011101101101100010010100 >
b1111000101000011011110001100011 /
b1111000101000011011110001100011 =
b0 7
b0 E
b0 6
b0 B
05
z1
z2
b0 J
b0 K
0L
0P
b0 N
0O
b0 M
0,
#358001
b10 !
b10 8
1,
#359001
0,
#360001
b11 !
b11 8
1,
#361001
0,
#362001
b100 !
b100 8
1,
1-
#363001
0,
#364001
b1 !
b1 8
1,
#365001
0,
#366001
b10 !
b10 8
11
12
1P
bz N
1O
bz M
1,
#367001
0,
#368001
b11 !
b11 8
z1
z2
0P
b0 N
0O
b0 M
1,
#369001
0,
#370001
b100 !
b100 8
1,
#371001
0,
#372001
b1 !
b1 8
1,
#373001
0,
#374001
0-
1$
0%
b10011010101 D
b10011011101 ?
b10011011101 )
b10011011101 9
b11001000000100011111101101010111 0
b11001000000100011111101101010111 >
b110010001101111010001000101110 /
b110010001101111010001000101110 =
z1
z2
0P
b0 N
0O
b0 M
0,
#375001
b10 !
b10 8
1,
#376001
0,
#377001
b11 !
b11 8
1,
#378001
0,
#379001
b100 !
b100 8
1,
1-
#380001
0,
#381001
b1 !
b1 8
1,
#382001
0,
#383001
b10 !
b10 8
11
12
1P
bz N
1O
bz M
1,
#384001
0,
#385001
b11 !
b11 8
z1
z2
0P
b0 N
0O
b0 M
1,
#386001
0,
#387001
b100 !
b100 8
1,
#388001
0,
#389001
b1 !
b1 8
1,
#390001
0,
#391001
0-
b11110010000 D
b11110011000 ?
b11110011000 )
b11110011000 9
b10001001010101101011010101000111 0
b10001001010101101011010101000111 >
b1010110111011101010101001001110 /
b1010110111011101010101001001110 =
z1
z2
0P
b0 N
0O
b0 M
0,
#392001
b10 !
b10 8
1,
#393001
0,
#394001
b11 !
b11 8
1,
#395001
0,
#396001
b100 !
b100 8
1,
1-
#397001
0,
#398001
b1 !
b1 8
1,
#399001
0,
#400001
b10 !
b10 8
11
12
1P
bz N
1O
bz M
1,
#401001
0,
#402001
b11 !
b11 8
z1
z2
0P
b0 N
0O
b0 M
1,
#403001
0,
#404001
b100 !
b100 8
1,
#405001
0,
#406001
b1 !
b1 8
1,
#407001
0,
#408001
1F
0-
0$
1'
b11111111111111111111111001111110 D
b11111111111111111111111010000110 ?
b111010000110 )
b111010000110 9
b1010111011100010000100111110010 0
b1010111011100010000100111110010 >
b10000000100110101001010111100110 /
b10000000100110101001010111100110 =
z1
z2
0P
b0 N
0O
b0 M
0,
#409001
b10 !
b10 8
1,
#410001
0,
#411001
b11 !
b11 8
1,
#412001
0,
#413001
b100 !
b100 8
b10 7
b10 E
b11111111111111111111111001111110 6
b11111111111111111111111001111110 B
15
b10 J
b11111111111111111111111001111110 K
1L
1,
1-
#414001
0,
#415001
b1 !
b1 8
1,
#416001
0,
#417001
b10 !
b10 8
b0 7
b0 E
b0 6
b0 B
05
11
12
b0 J
b0 K
0L
1P
bz N
1O
bz M
1,
#418001
0,
#419001
b11 !
b11 8
z1
z2
0P
b0 N
0O
b0 M
1,
#420001
0,
#421001
b100 !
b100 8
b10 7
b10 E
b11111111111111111111111001111110 6
b11111111111111111111111001111110 B
15
b10 J
b11111111111111111111111001111110 K
1L
1,
#422001
0,
#423001
b1 !
b1 8
1,
#424001
0,
#425001
0-
b1010010001 D
b1010011001 ?
b1010011001 )
b1010011001 9
b10110110101000110100010001101110 0
b10110110101000110100010001101110 >
b1101110101000000110001110101010 /
b1101110101000000110001110101010 =
b0 7
b0 E
b0 6
b0 B
05
z1
z2
b0 J
b0 K
0L
0P
b0 N
0O
b0 M
0,
#426001
b10 !
b10 8
1,
#427001
0,
#428001
b11 !
b11 8
1,
#429001
0,
#430001
b100 !
b100 8
b10 7
b10 E
b1010010001 6
b1010010001 B
15
b10 J
b1010010001 K
1L
1,
1-
#431001
0,
#432001
b1 !
b1 8
1,
#433001
0,
#434001
b10 !
b10 8
b0 7
b0 E
b0 6
b0 B
05
11
12
b0 J
b0 K
0L
1P
bz N
1O
bz M
1,
#435001
0,
#436001
b11 !
b11 8
z1
z2
0P
b0 N
0O
b0 M
1,
#437001
0,
#438001
b100 !
b100 8
b10 7
b10 E
b1010010001 6
b1010010001 B
15
b10 J
b1010010001 K
1L
1,
#439001
0,
#440001
b1 !
b1 8
1,
#441001
0,
#442001
0F
0-
1#
0'
b11101001100 D
b11101010100 ?
b11101010100 )
b11101010100 9
b1110011101101100001001000001111 0
b1110011101101100001001000001111 >
b100001101110100001001011000111 /
b100001101110100001001011000111 =
b0 7
b0 E
b0 6
b0 B
05
z1
z2
b0 J
b0 K
0L
0P
b0 N
0O
b0 M
0,
#443001
b10 !
b10 8
1,
#444001
0,
#445001
b11 !
b11 8
1,
#446001
0,
#447001
b100 !
b100 8
1,
1-
#448001
0,
#449001
b1 !
b1 8
1,
#450001
0,
#451001
b10 !
b10 8
11
12
1P
bz N
1O
bz M
1,
#452001
0,
#453001
b11 !
b11 8
z1
z2
0P
b0 N
0O
b0 M
1,
#454001
0,
#455001
b100 !
b100 8
1,
#456001
0,
#457001
b1 !
b1 8
1,
#458001
0,
#459001
1F
0-
0#
1'
b11111111111111111111101001001111 D
b11111111111111111111101001010111 ?
b101001010111 )
b101001010111 9
b10101010001101001001001100010100 0
b10101010001101001001001100010100 >
b11010001000000100110010011011111 /
b11010001000000100110010011011111 =
z1
z2
0P
b0 N
0O
b0 M
0,
#460001
b10 !
b10 8
1,
#461001
0,
#462001
b11 !
b11 8
1,
#463001
0,
#464001
b100 !
b100 8
b10 7
b10 E
b11111111111111111111101001001111 6
b11111111111111111111101001001111 B
15
b10 J
b11111111111111111111101001001111 K
1L
1,
1-
#465001
0,
#466001
b1 !
b1 8
1,
#467001
0,
#468001
b10 !
b10 8
b0 7
b0 E
b0 6
b0 B
05
11
12
b0 J
b0 K
0L
1P
bz N
1O
bz M
1,
#469001
0,
#470001
b11 !
b11 8
z1
z2
0P
b0 N
0O
b0 M
1,
#471001
0,
