rtl/chip/lib/peripherals_swc/ahb2apb_swc_tb.vcd
$version Generated by VerilatedVcd $end
$timescale 1ps $end

 $scope module TOP $end
  $scope module ahb2apb_swc_tb $end
   $var wire  3 [! BR [2:0] $end
   $var wire  1 \! CPHA [0:0] $end
   $var wire  1 \! CPOL [0:0] $end
   $var wire  1 Z! DFF [0:0] $end
   $var wire  1 Z! LSBFIRST [0:0] $end
   $var wire  1 2 done $end
   $var wire 32 K! haddr [31:0] $end
   $var wire  1 R! hclk $end
   $var wire  1 V! hmastlock $end
   $var wire  7 W! hprot [6:0] $end
   $var wire 32 + hrdata [31:0] $end
   $var wire  1 - hready $end
   $var wire  1 Y! hresp $end
   $var wire  3 X! hsize [2:0] $end
   $var wire  2 ) htrans [1:0] $end
   $var wire 32 * hwdata [31:0] $end
   $var wire  1 , hwrite $end
   $var wire  1 J mosi $end
   $var wire 32 A paddr [31:0] $end
   $var wire  1 S! pclk $end
   $var wire  1 C penable $end
   $var wire 32 G prdata [31:0] $end
   $var wire  1 F pready $end
   $var wire  3 B pselx [2:0] $end
   $var wire  1 H pslverr $end
   $var wire 32 E pwdata [31:0] $end
   $var wire  1 D pwrite $end
   $var wire 32 ( rbuffaddr [31:0] $end
   $var wire 32 1 rbuffdata [31:0] $end
   $var wire  1 / rbuffread $end
   $var wire  1 0 rbuffwrite $end
   $var wire  1 3 resp $end
   $var wire  1 ' rreq $end
   $var wire  1 # rstn $end
   $var wire  1 I sck $end
   $var wire 32 & wbuffaddr [31:0] $end
   $var wire 32 % wbuffdata [31:0] $end
   $var wire  1 . wbuffread $end
   $var wire  1 $ wreq $end
   $scope module ahb2apb_swc_inst $end
    $var wire 32 ]! PD_NUM [31:0] $end
    $var wire  1 9 done_ahbs $end
    $var wire  1 W done_apbm $end
    $var wire  1 6 done_r $end
    $var wire  1 7 done_rr $end
    $var wire  1 8 done_rrr $end
    $var wire 32 K! haddr [31:0] $end
    $var wire  1 R! hclk $end
    $var wire  7 W! hprot [6:0] $end
    $var wire 32 + hrdata [31:0] $end
    $var wire  1 - hready $end
    $var wire  1 Y! hresp $end
    $var wire  1 # hrstn $end
    $var wire  3 X! hsize [2:0] $end
    $var wire  2 ) htrans [1:0] $end
    $var wire 32 * hwdata [31:0] $end
    $var wire  1 , hwrite $end
    $var wire 32 A paddr [31:0] $end
    $var wire  1 S! pclk $end
    $var wire  1 C penable $end
    $var wire 32 G prdata [31:0] $end
    $var wire  1 F pready $end
    $var wire  1 # prstn $end
    $var wire  3 B pselx [2:0] $end
    $var wire  1 H pslverr $end
    $var wire 32 E pwdata [31:0] $end
    $var wire  1 D pwrite $end
    $var wire 32 N! rbuffaddr [31:0] $end
    $var wire 32 V rbuffdata [31:0] $end
    $var wire  1 P rbuffread $end
    $var wire  1 Q rbuffwrite $end
    $var wire  1 X resp $end
    $var wire  1 5 rreq_ahbs $end
    $var wire  1 P! rreq_ahbs_edge $end
    $var wire  1 U rreq_apbm $end
    $var wire  1 R rreq_r $end
    $var wire  1 S rreq_rr $end
    $var wire  1 T rreq_rrr $end
    $var wire  1 # rstn $end
    $var wire 32 M! wbuffaddr [31:0] $end
    $var wire 32 L! wbuffdata [31:0] $end
    $var wire  1 K wbuffread $end
    $var wire  1 4 wreq_ahbs $end
    $var wire  1 O! wreq_ahbs_edge $end
    $var wire  1 O wreq_apbm $end
    $var wire  1 L wreq_r $end
    $var wire  1 M wreq_rr $end
    $var wire  1 N wreq_rrr $end
    $scope module ahb2apb_ahbs_swc_inst $end
     $var wire 32 _! HTRANS_BUSY [31:0] $end
     $var wire 32 ^! HTRANS_IDLE [31:0] $end
     $var wire 32 `! HTRANS_NONSEQ [31:0] $end
     $var wire 32 ]! HTRANS_SEQ [31:0] $end
     $var wire 32 ^! IDLE [31:0] $end
     $var wire 32 d! RDONE [31:0] $end
     $var wire 32 b! RSTART [31:0] $end
     $var wire 32 c! RWAIT [31:0] $end
     $var wire 32 a! WDONE [31:0] $end
     $var wire 32 `! WPAUSE [31:0] $end
     $var wire 32 _! WSATRT [31:0] $end
     $var wire 32 ]! WWAIT [31:0] $end
     $var wire  1 9 done $end
     $var wire 32 K! haddr [31:0] $end
     $var wire  1 R! hclk $end
     $var wire  7 W! hprot [6:0] $end
     $var wire 32 + hrdata [31:0] $end
     $var wire  1 - hready $end
     $var wire  1 Y! hresp $end
     $var wire  1 # hrstn $end
     $var wire  3 X! hsize [2:0] $end
     $var wire  2 ) htrans [1:0] $end
     $var wire 32 * hwdata [31:0] $end
     $var wire  1 , hwrite $end
     $var wire  3 Q! nextstate [2:0] $end
     $var wire 32 N! rbuffaddr [31:0] $end
     $var wire 32 V rbuffdata [31:0] $end
     $var wire  1 5 rreq $end
     $var wire  3 : state [2:0] $end
     $var wire 32 M! wbuffaddr [31:0] $end
     $var wire 32 L! wbuffdata [31:0] $end
     $var wire  1 4 wreq $end
    $upscope $end
    $scope module ahb2apb_apbm_swc_inst $end
     $var wire 32 `! ACCESS [31:0] $end
     $var wire 32 ^! IDLE [31:0] $end
     $var wire 32 ]! PD_NUM [31:0] $end
     $var wire 32 _! STEUP [31:0] $end
     $var wire  1 W done $end
     $var wire  2 Z nextstate [1:0] $end
     $var wire 32 A paddr [31:0] $end
     $var wire  1 S! pclk $end
     $var wire  1 C penable $end
     $var wire 32 G prdata [31:0] $end
     $var wire  1 F pready $end
     $var wire  1 # prstn $end
     $var wire  3 B pselx [2:0] $end
     $var wire  3 T! pselx_comb [2:0] $end
     $var wire  1 H pslverr $end
     $var wire 32 E pwdata [31:0] $end
     $var wire  1 D pwrite $end
     $var wire 32 N! rbuffaddr [31:0] $end
     $var wire 32 V rbuffdata [31:0] $end
     $var wire  1 P rbuffread $end
     $var wire  1 Q rbuffwrite $end
     $var wire  1 X resp $end
     $var wire  1 U rreq $end
     $var wire  2 Y state [1:0] $end
     $var wire 32 M! wbuffaddr [31:0] $end
     $var wire 32 L! wbuffdata [31:0] $end
     $var wire  1 K wbuffread $end
     $var wire  1 O wreq $end
    $upscope $end
   $upscope $end
   $scope module ahbm_swc_inst $end
    $var wire 32 _! HTRANS_BUSY [31:0] $end
    $var wire 32 ^! HTRANS_IDLE [31:0] $end
    $var wire 32 `! HTRANS_NONSEQ [31:0] $end
    $var wire 32 ]! HTRANS_SEQ [31:0] $end
    $var wire 32 ^! IDLE [31:0] $end
    $var wire 32 _! STEUP [31:0] $end
    $var wire 32 `! WAIT [31:0] $end
    $var wire  1 2 done $end
    $var wire 32 K! haddr [31:0] $end
    $var wire  1 R! hclk $end
    $var wire  1 V! hmastlock $end
    $var wire  7 W! hprot [6:0] $end
    $var wire 32 + hrdata [31:0] $end
    $var wire  1 - hready $end
    $var wire  1 Y! hresp $end
    $var wire  1 # hrstn $end
    $var wire  3 X! hsize [2:0] $end
    $var wire  2 ) htrans [1:0] $end
    $var wire 32 * hwdata [31:0] $end
    $var wire 32 < hwdatabuff [31:0] $end
    $var wire  1 , hwrite $end
    $var wire  2 U! nextstate [1:0] $end
    $var wire 32 ( rbuffaddr [31:0] $end
    $var wire 32 1 rbuffdata [31:0] $end
    $var wire  1 / rbuffread $end
    $var wire  1 0 rbuffwrite $end
    $var wire  1 3 resp $end
    $var wire  1 ? rpendingflag $end
    $var wire  1 @ rpendingflagdly $end
    $var wire  1 ' rreq $end
    $var wire  2 ; state [1:0] $end
    $var wire 32 & wbuffaddr [31:0] $end
    $var wire 32 % wbuffdata [31:0] $end
    $var wire  1 . wbuffread $end
    $var wire  1 = wpendingflag $end
    $var wire  1 > wpendingflagdly $end
    $var wire  1 $ wreq $end
   $upscope $end
   $scope module spictrl_swc_inst $end
    $var wire 32 ]! APB_TRANS_DELAY [31:0] $end
    $var wire 32 ^! APB_TRANS_IDLE [31:0] $end
    $var wire 32 `! APB_TRANS_READ [31:0] $end
    $var wire 32 _! APB_TRANS_READY [31:0] $end
    $var wire  1 } BSY $end
    $var wire 32 k! COUNTER_WIDTH [31:0] $end
    $var wire 32 j! FIFO_WIDTH [31:0] $end
    $var wire  1 ~ OVR $end
    $var wire 32 ]! PD_NUM [31:0] $end
    $var wire  1 "! RXNE $end
    $var wire 32 \ SPI_CR [31:0] $end
    $var wire 32 e! SPI_CR_ADDR [31:0] $end
    $var wire  3 g SPI_CR_BR [2:0] $end
    $var wire  1 i SPI_CR_CPHA $end
    $var wire  1 h SPI_CR_CPOL $end
    $var wire  1 j SPI_CR_DFF $end
    $var wire  1 k SPI_CR_LSBFIRST $end
    $var wire  1 l SPI_CR_SPE $end
    $var wire 32 i! SPI_RDR [31:0] $end
    $var wire 32 h! SPI_RDR_ADDR [31:0] $end
    $var wire 32 ] SPI_SR [31:0] $end
    $var wire 32 f! SPI_SR_ADDR [31:0] $end
    $var wire 32 ]! SPI_TRANS_BUFFER [31:0] $end
    $var wire 32 a! SPI_TRANS_COUNT [31:0] $end
    $var wire 32 `! SPI_TRANS_DELAY [31:0] $end
    $var wire 32 ^! SPI_TRANS_IDLE [31:0] $end
    $var wire 32 _! SPI_TRANS_READ [31:0] $end
    $var wire 32 b! SPI_TRANS_WRITE [31:0] $end
    $var wire 32 g! SPI_WDR_ADDR [31:0] $end
    $var wire  1 !! TXE $end
    $var wire  1 ` addr_error $end
    $var wire  3 _ apb_nextstate [2:0] $end
    $var wire  3 ^ apb_state [2:0] $end
    $var wire 12 m cnt [11:0] $end
    $var wire 12 s exindex [11:0] $end
    $var wire  4 t index [3:0] $end
    $var wire 12 o maxcnt [11:0] $end
    $var wire  1 J miso $end
    $var wire  1 J mosi $end
    $var wire 32 A paddr [31:0] $end
    $var wire  1 S! pclk $end
    $var wire  1 C penable $end
    $var wire 32 G prdata [31:0] $end
    $var wire  1 F pready $end
    $var wire  1 # prstn $end
    $var wire  1 [ psel $end
    $var wire  1 H pslverr $end
    $var wire 32 E pwdata [31:0] $end
    $var wire  1 D pwrite $end
    $var wire  1 z rdr_empty $end
    $var wire  1 w rdr_full $end
    $var wire 16 y rdr_rdata [15:0] $end
    $var wire  1 x rdr_ren $end
    $var wire 16 v rdr_wdata [15:0] $end
    $var wire  1 u rdr_wen $end
    $var wire  1 I sck $end
    $var wire  1 r sck_source $end
    $var wire  1 { sck_source_r $end
    $var wire  1 | shift_trig $end
    $var wire  3 q spi_nextstate [2:0] $end
    $var wire  3 p spi_state [2:0] $end
    $var wire 16 v spirdata [15:0] $end
    $var wire 16 n spiwdata [15:0] $end
    $var wire  1 f wdr_empty $end
    $var wire  1 c wdr_full $end
    $var wire 16 e wdr_rdata [15:0] $end
    $var wire  1 d wdr_ren $end
    $var wire 16 b wdr_wdata [15:0] $end
    $var wire  1 a wdr_wen $end
    $scope module rdr_syncfifo_swc_inst $end
     $var wire 32 a! addr_width [31:0] $end
     $var wire  1 S! clk $end
     $var wire 32 j! data_width [31:0] $end
     $var wire  1 z empty $end
     $var wire 16 '! fifo_ram[0] [15:0] $end
     $var wire 16 1! fifo_ram[10] [15:0] $end
     $var wire 16 2! fifo_ram[11] [15:0] $end
     $var wire 16 3! fifo_ram[12] [15:0] $end
     $var wire 16 4! fifo_ram[13] [15:0] $end
     $var wire 16 5! fifo_ram[14] [15:0] $end
     $var wire 16 6! fifo_ram[15] [15:0] $end
     $var wire 16 (! fifo_ram[1] [15:0] $end
     $var wire 16 )! fifo_ram[2] [15:0] $end
     $var wire 16 *! fifo_ram[3] [15:0] $end
     $var wire 16 +! fifo_ram[4] [15:0] $end
     $var wire 16 ,! fifo_ram[5] [15:0] $end
     $var wire 16 -! fifo_ram[6] [15:0] $end
     $var wire 16 .! fifo_ram[7] [15:0] $end
     $var wire 16 /! fifo_ram[8] [15:0] $end
     $var wire 16 0! fifo_ram[9] [15:0] $end
     $var wire  1 w full $end
     $var wire  4 $! raddr [3:0] $end
     $var wire  5 &! raddr_ptr [4:0] $end
     $var wire 32 j! ram_size [31:0] $end
     $var wire 16 y rdata [15:0] $end
     $var wire  1 x ren $end
     $var wire  1 # rstn $end
     $var wire  4 #! waddr [3:0] $end
     $var wire  5 %! waddr_ptr [4:0] $end
     $var wire 16 v wdata [15:0] $end
     $var wire  1 u wen $end
    $upscope $end
    $scope module wdr_syncfifo_swc_inst $end
     $var wire 32 a! addr_width [31:0] $end
     $var wire  1 S! clk $end
     $var wire 32 j! data_width [31:0] $end
     $var wire  1 f empty $end
     $var wire 16 ;! fifo_ram[0] [15:0] $end
     $var wire 16 E! fifo_ram[10] [15:0] $end
     $var wire 16 F! fifo_ram[11] [15:0] $end
     $var wire 16 G! fifo_ram[12] [15:0] $end
     $var wire 16 H! fifo_ram[13] [15:0] $end
     $var wire 16 I! fifo_ram[14] [15:0] $end
     $var wire 16 J! fifo_ram[15] [15:0] $end
     $var wire 16 <! fifo_ram[1] [15:0] $end
     $var wire 16 =! fifo_ram[2] [15:0] $end
     $var wire 16 >! fifo_ram[3] [15:0] $end
     $var wire 16 ?! fifo_ram[4] [15:0] $end
     $var wire 16 @! fifo_ram[5] [15:0] $end
     $var wire 16 A! fifo_ram[6] [15:0] $end
     $var wire 16 B! fifo_ram[7] [15:0] $end
     $var wire 16 C! fifo_ram[8] [15:0] $end
     $var wire 16 D! fifo_ram[9] [15:0] $end
     $var wire  1 c full $end
     $var wire  4 8! raddr [3:0] $end
     $var wire  5 :! raddr_ptr [4:0] $end
     $var wire 32 j! ram_size [31:0] $end
     $var wire 16 e rdata [15:0] $end
     $var wire  1 d ren $end
     $var wire  1 # rstn $end
     $var wire  4 7! waddr [3:0] $end
     $var wire  5 9! waddr_ptr [4:0] $end
     $var wire 16 b wdata [15:0] $end
     $var wire  1 a wen $end
    $upscope $end
   $upscope $end
  $upscope $end
 $upscope $end
$enddefinitions $end


#0
0#
0$
b00000000000000000000000000000000 %
b00000000000000000000000000000000 &
0'
b00000000000000000000000000000000 (
b00 )
b00000000000000000000000000000000 *
b00000000000000000000000000000000 +
0,
0-
0.
0/
00
b00000000000000000000000000000000 1
02
03
04
05
06
07
08
09
b000 :
b00 ;
b00000000000000000000000000000000 <
0=
0>
0?
0@
b00000000000000000000000000000000 A
b000 B
0C
0D
b00000000000000000000000000000000 E
0F
b00000000000000000000000000000000 G
0H
0I
0J
0K
0L
0M
0N
0O
0P
0Q
0R
0S
0T
0U
b00000000000000000000000000000000 V
0W
0X
b00 Y
b00 Z
0[
b00000000000000000000000000000000 \
b00000000000000000000000000000000 ]
b000 ^
b000 _
0`
0a
b0000000000000000 b
0c
0d
b0000000000000000 e
1f
b000 g
0h
0i
0j
0k
0l
b000000000000 m
b0000000000000000 n
b000000001111 o
b000 p
b000 q
0r
b000000000000 s
b0111 t
0u
b0000000000000000 v
0w
0x
b0000000000000000 y
1z
0{
0|
0}
0~
0!!
0"!
b0000 #!
b0000 $!
b00000 %!
b00000 &!
b0000000000000000 '!
b0000000000000000 (!
b0000000000000000 )!
b0000000000000000 *!
b0000000000000000 +!
b0000000000000000 ,!
b0000000000000000 -!
b0000000000000000 .!
b0000000000000000 /!
b0000000000000000 0!
b0000000000000000 1!
b0000000000000000 2!
b0000000000000000 3!
b0000000000000000 4!
b0000000000000000 5!
b0000000000000000 6!
b0000 7!
b0000 8!
b00000 9!
b00000 :!
b0000000000000000 ;!
b0000000000000000 <!
b0000000000000000 =!
b0000000000000000 >!
b0000000000000000 ?!
b0000000000000000 @!
b0000000000000000 A!
b0000000000000000 B!
b0000000000000000 C!
b0000000000000000 D!
b0000000000000000 E!
b0000000000000000 F!
b0000000000000000 G!
b0000000000000000 H!
b0000000000000000 I!
b0000000000000000 J!
b00000000000000000000000000000000 K!
b00000000000000000000000000000000 L!
b00000000000000000000000000000000 M!
b00000000000000000000000000000000 N!
0O!
0P!
b000 Q!
1R!
1S!
b000 T!
b00 U!
0V!
b0000000 W!
b000 X!
0Y!
1Z!
b000 [!
0\!
b00000000000000000000000000000011 ]!
b00000000000000000000000000000000 ^!
b00000000000000000000000000000001 _!
b00000000000000000000000000000010 `!
b00000000000000000000000000000100 a!
b00000000000000000000000000000101 b!
b00000000000000000000000000000110 c!
b00000000000000000000000000000111 d!
b00000000000100000000000000000000 e!
b00000000000100000000000000000100 f!
b00000000000100000000000000001000 g!
b00000000000100000000000000001100 h!
b00000000000000000000000000000000 i!
b00000000000000000000000000010000 j!
b00000000000000000000000000001100 k!
#1
#12
0R!
#22
0S!
#24
1R!
#36
0R!
#44
b00000000000000000000000000000001 ]
1"!
1S!
#48
1R!
#60
0R!
#66
0S!
#72
1R!
#84
0R!
#88
1S!
#96
1R!
#108
0R!
#110
0S!
#120
1R!
#132
0R!
1S!
#144
1R!
#154
0S!
#156
0R!
#168
1R!
#176
1S!
#180
0R!
#192
1R!
#198
0S!
#204
0R!
#216
1R!
#220
1S!
#228
0R!
#240
1R!
#241
1#
#242
0S!
#252
0R!
#264
1-
1R!
1S!
#276
0R!
#286
0S!
#288
1R!
#300
0R!
#308
1S!
#312
1R!
#324
0R!
#330
0S!
#336
1R!
#348
0R!
#352
1S!
#360
1R!
#372
0R!
#374
0S!
#384
1R!
#396
0R!
1S!
#408
1R!
#418
0S!
#420
0R!
#432
1R!
#440
1S!
#444
0R!
#456
1R!
#462
0S!
#468
0R!
#480
1R!
#481
1$
b00000000000000000000100011000100 %
b00000000000100000000000000000000 &
b01 U!
#484
1S!
#492
0R!
#504
b10 )
1,
1.
b01 ;
b00000000000000000000100011000100 <
1=
b00000000000100000000000000000000 K!
b001 Q!
1R!
#505
0$
b00000000000000000000000000000000 %
b00000000000000000000000000000000 &
b00 U!
#506
0S!
#516
0R!
#528
b00 )
b00000000000000000000100011000100 *
0,
0-
0.
b001 :
b00 ;
b00000000000000000000000000000000 <
0=
1>
b00000000000000000000000000000000 K!
b00000000000100000000000000000000 M!
b010 Q!
1R!
1S!
#540
0R!
#550
0S!
#552
14
b010 :
b00000000000000000000100011000100 L!
b011 Q!
1R!
#564
0R!
#572
1S!
#576
04
b011 :
1O!
1R!
#588
0R!
#594
0S!
#600
1R!
#612
0R!
#616
1L
1S!
#624
1R!
#636
0R!
#638
0S!
#648
1R!
#660
1M
1O
b01 Z
0R!
1S!
b001 T!
#672
1R!
#682
0S!
#684
0R!
#696
1R!
#704
b00000000000100000000000000000000 A
b001 B
1D
b00000000000000000000100011000100 E
1K
1N
0O
b01 Y
b10 Z
1[
b001 _
1S!
b000 T!
#708
0R!
#720
1R!
#726
0S!
#732
0R!
#744
1R!
#748
1C
1F
0K
b10 Y
b00 Z
b001 ^
b000 _
1S!
#756
0R!
#768
1R!
#770
0S!
#780
0R!
#792
b00000000000000000000000000000000 A
b000 B
0C
0D
b00000000000000000000000000000000 E
0F
1W
b00 Y
0[
b00000000000000000000100011000100 \
b000 ^
1j
1k
1l
b000000011111 o
b0000 t
1R!
1S!
#804
0R!
#814
0S!
#816
16
1R!
#828
0R!
#836
0W
1S!
#840
06
17
19
b100 Q!
1R!
#852
0R!
#858
0S!
#864
1-
07
18
09
b100 :
b00000000000000000000000000000000 L!
b00000000000000000000000000000000 M!
b000 Q!
1R!
#876
0R!
#880
1S!
#888
b00000000000000000000000000000000 *
12
08
b000 :
0>
1R!
#900
0R!
#902
0S!
#912
02
1R!
