archive/rtl/chip/core/exu_swc/exu_flush_swc/dump.vcd
$date
	Wed Nov 20 08:21:02 2024
$end
$version
	Icarus Verilog
$end
$timescale
	1ps
$end
$scope module ex_flush_wrapper $end
$var wire 4 ! cycle_cnt [3:0] $end
$var wire 2 " flush [1:0] $end
$var wire 1 # hclk $end
$var wire 1 $ hrstn $end
$var wire 1 % flush_stall $end
$scope module dut $end
$var wire 4 & cycle_cnt [3:0] $end
$var wire 2 ' flush [1:0] $end
$var wire 1 # hclk $end
$var wire 1 $ hrstn $end
$var parameter 32 ( FLUSH_CYCLE_1 $end
$var parameter 32 ) FLUSH_CYCLE_2 $end
$var parameter 32 * FLUSH_DISABLE $end
$var parameter 32 + IDLE $end
$var parameter 32 , STATE_1 $end
$var parameter 32 - STATE_2 $end
$var reg 1 % flush_stall $end
$var reg 2 . nextstate [1:0] $end
$var reg 2 / state [1:0] $end
$upscope $end
$upscope $end
$enddefinitions $end
$comment Show the parameter values. $end
$dumpall
b10 -
b1 ,
b0 +
b0 *
b10 )
b1 (
$end
#0
$dumpvars
bx /
bx .
b1 '
b1 &
x%
0$
0#
b1 "
b1 !
$end
#1000
b10 !
b10 &
b0 .
b0 /
0%
1#
#2000
0#
#3000
b11 !
b11 &
1#
#4000
0#
#5000
b1 .
b100 !
b100 &
1#
1$
#6000
0#
#7000
b1 !
b1 &
b1 .
1%
b1 /
1#
#8000
0#
#9000
b10 !
b10 &
1#
#10000
0#
#11000
b11 !
b11 &
1#
#12000
0#
#13000
b0 .
b100 !
b100 &
1#
#14000
0#
#15000
b1 !
b1 &
b0 .
0%
b0 /
1#
#16000
0#
#17000
1#
#17001
0#
0$
b10 "
b10 '
#18001
b10 !
b10 &
1#
#19001
0#
#20001
b11 !
b11 &
1#
#21001
0#
#22001
b10 .
b100 !
b100 &
1#
1$
#23001
0#
#24001
b1 !
b1 &
b10 .
b10 /
1%
1#
#25001
0#
#26001
b10 !
b10 &
1#
#27001
0#
#28001
b11 !
b11 &
1#
#29001
0#
#30001
b1 .
b100 !
b100 &
1#
#31001
0#
#32001
b1 !
b1 &
b1 .
b1 /
1#
#33001
0#
#34001
0$
b1 "
b1 '
0#
#35001
b10 !
b10 &
b0 .
b0 /
0%
1#
#36001
0#
#37001
b11 !
b11 &
1#
#38001
0#
#39001
b1 .
b100 !
b100 &
1#
1$
#40001
0#
#41001
b1 !
b1 &
b1 .
1%
b1 /
1#
#42001
0#
#43001
b10 !
b10 &
1#
#44001
0#
#45001
b11 !
b11 &
1#
#46001
0#
#47001
b0 .
b100 !
b100 &
1#
#48001
0#
#49001
b1 !
b1 &
b0 .
0%
b0 /
1#
#50001
0#
#51001
0$
b10 "
b10 '
0#
#52001
b10 !
b10 &
1#
#53001
0#
#54001
b11 !
b11 &
1#
#55001
0#
#56001
b10 .
b100 !
b100 &
1#
1$
#57001
0#
#58001
b1 !
b1 &
b10 .
b10 /
1%
1#
#59001
0#
#60001
b10 !
b10 &
1#
#61001
0#
#62001
b11 !
b11 &
1#
#63001
0#
#64001
b1 .
b100 !
b100 &
1#
#65001
0#
#66001
b1 !
b1 &
b1 .
b1 /
1#
#67001
0#
#68001
0$
b0 "
b0 '
0#
#69001
b10 !
b10 &
b0 .
b0 /
0%
1#
#70001
0#
#71001
b11 !
b11 &
1#
#72001
0#
#73001
b100 !
b100 &
1#
1$
#74001
0#
#75001
b1 !
b1 &
1#
#76001
0#
#77001
b10 !
b10 &
1#
#78001
0#
#79001
b11 !
b11 &
1#
#80001
0#
#81001
b100 !
b100 &
1#
#82001
0#
#83001
b1 !
b1 &
1#
#84001
0#
#85001
0$
0#
#86001
b10 !
b10 &
1#
#87001
0#
#88001
b11 !
b11 &
1#
#89001
0#
#90001
b100 !
b100 &
1#
1$
#91001
0#
#92001
b1 !
b1 &
1#
#93001
0#
#94001
b10 !
b10 &
1#
#95001
0#
#96001
b11 !
b11 &
1#
#97001
0#
#98001
b100 !
b100 &
1#
#99001
0#
#100001
b1 !
b1 &
1#
#101001
0#
#102001
0$
b1 "
b1 '
0#
#103001
b10 !
b10 &
1#
#104001
0#
#105001
b11 !
b11 &
1#
#106001
0#
#107001
b1 .
b100 !
b100 &
1#
1$
#108001
0#
#109001
b1 !
b1 &
b1 .
1%
b1 /
1#
#110001
0#
#111001
b10 !
b10 &
1#
#112001
0#
#113001
b11 !
b11 &
1#
#114001
0#
#115001
b0 .
b100 !
b100 &
1#
#116001
0#
#117001
b1 !
b1 &
b0 .
0%
b0 /
1#
#118001
0#
#119001
0$
b10 "
b10 '
0#
#120001
b10 !
b10 &
1#
#121001
0#
#122001
b11 !
b11 &
1#
#123001
0#
#124001
b10 .
b100 !
b100 &
1#
1$
#125001
0#
#126001
b1 !
b1 &
b10 .
b10 /
1%
1#
#127001
0#
#128001
b10 !
b10 &
1#
#129001
0#
#130001
b11 !
b11 &
1#
#131001
0#
#132001
b1 .
b100 !
b100 &
1#
#133001
0#
#134001
b1 !
b1 &
b1 .
b1 /
1#
#135001
0#
#136001
0$
b1 "
b1 '
0#
#137001
b10 !
b10 &
b0 .
b0 /
0%
1#
#138001
0#
#139001
b11 !
b11 &
1#
#140001
0#
#141001
b1 .
b100 !
b100 &
1#
1$
#142001
0#
#143001
b1 !
b1 &
b1 .
1%
b1 /
1#
#144001
0#
#145001
b10 !
b10 &
1#
#146001
0#
#147001
b11 !
b11 &
1#
#148001
0#
#149001
b0 .
b100 !
b100 &
1#
#150001
0#
#151001
b1 !
b1 &
b0 .
0%
b0 /
1#
#152001
0#
#153001
0$
0#
#154001
b10 !
b10 &
1#
#155001
0#
#156001
b11 !
b11 &
1#
#157001
0#
#158001
b1 .
b100 !
b100 &
1#
1$
#159001
0#
#160001
b1 !
b1 &
b1 .
b1 /
1%
1#
#161001
0#
#162001
b10 !
b10 &
1#
#163001
0#
#164001
b11 !
b11 &
1#
#165001
0#
#166001
b0 .
b100 !
b100 &
1#
#167001
0#
#168001
b1 !
b1 &
b0 .
b0 /
0%
1#
#169001
0#
#170001
0$
b10 "
b10 '
0#
#171001
b10 !
b10 &
1#
#172001
0#
#173001
b11 !
b11 &
1#
#174001
0#
#175001
b10 .
b100 !
b100 &
1#
1$
#176001
0#
#177001
b1 !
b1 &
b10 .
1%
b10 /
1#
#178001
0#
#179001
b10 !
b10 &
1#
#180001
0#
#181001
b11 !
b11 &
1#
#182001
0#
#183001
b1 .
b100 !
b100 &
1#
#184001
0#
#185001
b1 !
b1 &
b1 .
b1 /
1#
#186001
0#
#187001
0$
0#
#188001
b10 !
b10 &
b0 .
0%
b0 /
1#
#189001
0#
#190001
b11 !
b11 &
1#
#191001
0#
#192001
b10 .
b100 !
b100 &
1#
1$
#193001
0#
#194001
b1 !
b1 &
b10 .
b10 /
1%
1#
#195001
0#
#196001
b10 !
b10 &
1#
#197001
0#
#198001
b11 !
b11 &
1#
#199001
0#
#200001
b1 .
b100 !
b100 &
1#
#201001
0#
#202001
b1 !
b1 &
b1 .
b1 /
1#
#203001
0#
#204001
0$
b0 "
b0 '
0#
#205001
b10 !
b10 &
b0 .
b0 /
0%
1#
#206001
0#
#207001
b11 !
b11 &
1#
#208001
0#
#209001
b100 !
b100 &
1#
1$
#210001
0#
#211001
b1 !
b1 &
1#
#212001
0#
#213001
b10 !
b10 &
1#
#214001
0#
#215001
b11 !
b11 &
1#
#216001
0#
#217001
b100 !
b100 &
1#
#218001
0#
#219001
b1 !
b1 &
1#
#220001
0#
#221001
0$
b1 "
b1 '
0#
#222001
b10 !
b10 &
1#
#223001
0#
#224001
b11 !
b11 &
1#
#225001
0#
#226001
b1 .
b100 !
b100 &
1#
1$
#227001
0#
#228001
b1 !
b1 &
b1 .
b1 /
1%
1#
#229001
0#
#230001
b10 !
b10 &
1#
#231001
0#
#232001
b11 !
b11 &
1#
#233001
0#
#234001
b0 .
b100 !
b100 &
1#
#235001
0#
#236001
b1 !
b1 &
b0 .
b0 /
0%
1#
#237001
0#
#238001
0$
0#
#239001
b10 !
b10 &
1#
#240001
0#
#241001
b11 !
b11 &
1#
#242001
0#
#243001
b1 .
b100 !
b100 &
1#
1$
#244001
0#
#245001
b1 !
b1 &
b1 .
1%
b1 /
1#
#246001
0#
#247001
b10 !
b10 &
1#
#248001
0#
#249001
b11 !
b11 &
1#
#250001
0#
#251001
b0 .
b100 !
b100 &
1#
#252001
0#
#253001
b1 !
b1 &
b0 .
0%
b0 /
1#
#254001
0#
#255001
0$
0#
#256001
b10 !
b10 &
1#
#257001
0#
#258001
b11 !
b11 &
1#
#259001
0#
#260001
b1 .
b100 !
b100 &
1#
1$
#261001
0#
#262001
b1 !
b1 &
b1 .
b1 /
1%
1#
#263001
0#
#264001
b10 !
b10 &
1#
#265001
0#
#266001
b11 !
b11 &
1#
#267001
0#
#268001
b0 .
b100 !
b100 &
1#
#269001
0#
#270001
b1 !
b1 &
b0 .
b0 /
0%
1#
#271001
0#
#272001
0$
0#
#273001
b10 !
b10 &
1#
#274001
0#
#275001
b11 !
b11 &
1#
#276001
0#
#277001
b1 .
b100 !
b100 &
1#
1$
#278001
0#
#279001
b1 !
b1 &
b1 .
1%
b1 /
1#
#280001
0#
#281001
b10 !
b10 &
1#
#282001
0#
#283001
b11 !
b11 &
1#
#284001
0#
#285001
b0 .
b100 !
b100 &
1#
#286001
0#
#287001
b1 !
b1 &
b0 .
0%
b0 /
1#
#288001
0#
#289001
0$
b0 "
b0 '
0#
#290001
b10 !
b10 &
1#
#291001
0#
#292001
b11 !
b11 &
1#
#293001
0#
#294001
b100 !
b100 &
1#
1$
#295001
0#
#296001
b1 !
b1 &
1#
#297001
0#
#298001
b10 !
b10 &
1#
#299001
0#
#300001
b11 !
b11 &
1#
#301001
0#
#302001
b100 !
b100 &
1#
#303001
0#
#304001
b1 !
b1 &
1#
#305001
0#
#306001
0$
0#
#307001
b10 !
b10 &
1#
#308001
0#
#309001
b11 !
b11 &
1#
#310001
0#
#311001
b100 !
b100 &
1#
1$
#312001
0#
#313001
b1 !
b1 &
1#
#314001
0#
#315001
b10 !
b10 &
1#
#316001
0#
#317001
b11 !
b11 &
1#
#318001
0#
#319001
b100 !
b100 &
1#
#320001
0#
#321001
b1 !
b1 &
1#
#322001
0#
#323001
0$
0#
#324001
b10 !
b10 &
1#
#325001
0#
#326001
b11 !
b11 &
1#
#327001
0#
#328001
b100 !
b100 &
1#
1$
#329001
0#
#330001
b1 !
b1 &
1#
#331001
0#
#332001
b10 !
b10 &
1#
#333001
0#
#334001
b11 !
b11 &
1#
#335001
0#
#336001
b100 !
b100 &
1#
#337001
0#
#338001
b1 !
b1 &
1#
#339001
0#
#340001
0$
0#
#341001
b10 !
b10 &
1#
#342001
0#
#343001
b11 !
b11 &
1#
#344001
0#
#345001
b100 !
b100 &
1#
1$
#346001
0#
#347001
b1 !
b1 &
1#
#348001
0#
#349001
b10 !
b10 &
1#
#350001
0#
#351001
b11 !
b11 &
1#
#352001
0#
#353001
b100 !
b100 &
1#
#354001
0#
#355001
b1 !
b1 &
1#
