archive/rtl/chip/lib/peripherals_swc/ahb2apb_swc_tb.vcd
$version Generated by VerilatedVcd $end
$timescale 1ps $end
 $scope module TOP $end
  $scope module ahb2apb_swc_tb $end
   $var wire 1 # rstn $end
   $var wire 1 S" hclk $end
   $var wire 1 T" pclk $end
   $var wire 32 A paddr [31:0] $end
   $var wire 3 B pselx [2:0] $end
   $var wire 1 C penable $end
   $var wire 1 D pwrite $end
   $var wire 32 E pwdata [31:0] $end
   $var wire 1 F pready $end
   $var wire 32 G prdata [31:0] $end
   $var wire 1 H pslverr $end
   $var wire 32 L" haddr [31:0] $end
   $var wire 1 W" hmastlock $end
   $var wire 7 X" hprot [6:0] $end
   $var wire 3 Y" hsize [2:0] $end
   $var wire 2 ) htrans [1:0] $end
   $var wire 32 * hwdata [31:0] $end
   $var wire 32 + hrdata [31:0] $end
   $var wire 1 , hwrite $end
   $var wire 1 - hready $end
   $var wire 1 Z" hresp $end
   $var wire 1 . wbuffread $end
   $var wire 1 / rbuffread $end
   $var wire 1 $ wreq $end
   $var wire 32 % wbuffdata [31:0] $end
   $var wire 32 & wbuffaddr [31:0] $end
   $var wire 1 0 rbuffwrite $end
   $var wire 1 ' rreq $end
   $var wire 32 1 rbuffdata [31:0] $end
   $var wire 32 ( rbuffaddr [31:0] $end
   $var wire 1 2 done $end
   $var wire 1 3 resp $end
   $var wire 1 I sck $end
   $var wire 1 J mosi $end
   $var wire 1 K tx $end
   $var wire 1 [" DFF [0:0] $end
   $var wire 1 [" LSBFIRST [0:0] $end
   $var wire 3 \" BR [2:0] $end
   $var wire 1 ]" CPOL [0:0] $end
   $var wire 1 ]" CPHA [0:0] $end
   $var wire 1 [" UE [0:0] $end
   $var wire 1 [" M [0:0] $end
   $var wire 1 [" PCE [0:0] $end
   $var wire 1 ]" PS [0:0] $end
   $var wire 2 ^" STOP [1:0] $end
   $scope module ahb2apb_swc_inst $end
    $var wire 1 # rstn $end
    $var wire 1 S" hclk $end
    $var wire 1 # hrstn $end
    $var wire 32 L" haddr [31:0] $end
    $var wire 7 X" hprot [6:0] $end
    $var wire 3 Y" hsize [2:0] $end
    $var wire 2 ) htrans [1:0] $end
    $var wire 32 * hwdata [31:0] $end
    $var wire 32 + hrdata [31:0] $end
    $var wire 1 , hwrite $end
    $var wire 1 - hready $end
    $var wire 1 Z" hresp $end
    $var wire 32 _" PD_NUM [31:0] $end
    $var wire 1 T" pclk $end
    $var wire 1 # prstn $end
    $var wire 32 A paddr [31:0] $end
    $var wire 3 B pselx [2:0] $end
    $var wire 1 C penable $end
    $var wire 1 D pwrite $end
    $var wire 32 E pwdata [31:0] $end
    $var wire 1 F pready $end
    $var wire 32 G prdata [31:0] $end
    $var wire 1 H pslverr $end
    $var wire 1 L wbuffread $end
    $var wire 1 4 wreq_ahbs $end
    $var wire 1 M wreq_r $end
    $var wire 1 N wreq_rr $end
    $var wire 1 O wreq_rrr $end
    $var wire 1 P wreq_apbm $end
    $var wire 32 M" wbuffdata [31:0] $end
    $var wire 32 N" wbuffaddr [31:0] $end
    $var wire 1 Q rbuffread $end
    $var wire 1 R rbuffwrite $end
    $var wire 1 5 rreq_ahbs $end
    $var wire 1 S rreq_r $end
    $var wire 1 T rreq_rr $end
    $var wire 1 U rreq_rrr $end
    $var wire 1 V rreq_apbm $end
    $var wire 32 W rbuffdata [31:0] $end
    $var wire 32 O" rbuffaddr [31:0] $end
    $var wire 1 X done_apbm $end
    $var wire 1 6 done_r $end
    $var wire 1 7 done_rr $end
    $var wire 1 8 done_rrr $end
    $var wire 1 9 done_ahbs $end
    $var wire 1 Y resp $end
    $var wire 1 P" wreq_ahbs_edge $end
    $var wire 1 Q" rreq_ahbs_edge $end
    $scope module ahb2apb_ahbs_swc_inst $end
     $var wire 1 S" hclk $end
     $var wire 1 # hrstn $end
     $var wire 32 L" haddr [31:0] $end
     $var wire 7 X" hprot [6:0] $end
     $var wire 3 Y" hsize [2:0] $end
     $var wire 2 ) htrans [1:0] $end
     $var wire 32 * hwdata [31:0] $end
     $var wire 32 + hrdata [31:0] $end
     $var wire 1 , hwrite $end
     $var wire 1 - hready $end
     $var wire 1 Z" hresp $end
     $var wire 1 4 wreq $end
     $var wire 32 M" wbuffdata [31:0] $end
     $var wire 32 N" wbuffaddr [31:0] $end
     $var wire 1 5 rreq $end
     $var wire 32 W rbuffdata [31:0] $end
     $var wire 32 O" rbuffaddr [31:0] $end
     $var wire 1 9 done $end
     $var wire 32 `" HTRANS_IDLE [31:0] $end
     $var wire 32 a" HTRANS_BUSY [31:0] $end
     $var wire 32 b" HTRANS_NONSEQ [31:0] $end
     $var wire 32 _" HTRANS_SEQ [31:0] $end
     $var wire 32 `" IDLE [31:0] $end
     $var wire 32 a" WSATRT [31:0] $end
     $var wire 32 b" WPAUSE [31:0] $end
     $var wire 32 _" WWAIT [31:0] $end
     $var wire 32 c" WDONE [31:0] $end
     $var wire 32 d" RSTART [31:0] $end
     $var wire 32 e" RWAIT [31:0] $end
     $var wire 32 f" RDONE [31:0] $end
     $var wire 3 : state [2:0] $end
     $var wire 3 R" nextstate [2:0] $end
    $upscope $end
    $scope module ahb2apb_apbm_swc_inst $end
     $var wire 32 _" PD_NUM [31:0] $end
     $var wire 1 T" pclk $end
     $var wire 1 # prstn $end
     $var wire 32 A paddr [31:0] $end
     $var wire 3 B pselx [2:0] $end
     $var wire 1 C penable $end
     $var wire 1 D pwrite $end
     $var wire 32 E pwdata [31:0] $end
     $var wire 1 F pready $end
     $var wire 32 G prdata [31:0] $end
     $var wire 1 H pslverr $end
     $var wire 1 L wbuffread $end
     $var wire 1 P wreq $end
     $var wire 32 M" wbuffdata [31:0] $end
     $var wire 32 N" wbuffaddr [31:0] $end
     $var wire 1 Q rbuffread $end
     $var wire 1 R rbuffwrite $end
     $var wire 1 V rreq $end
     $var wire 32 W rbuffdata [31:0] $end
     $var wire 32 O" rbuffaddr [31:0] $end
     $var wire 1 X done $end
     $var wire 1 Y resp $end
     $var wire 32 `" IDLE [31:0] $end
     $var wire 32 a" STEUP [31:0] $end
     $var wire 32 b" ACCESS [31:0] $end
     $var wire 2 Z state [1:0] $end
     $var wire 2 [ nextstate [1:0] $end
     $var wire 3 U" pselx_comb [2:0] $end
    $upscope $end
   $upscope $end
   $scope module ahbm_swc_inst $end
    $var wire 1 S" hclk $end
    $var wire 1 # hrstn $end
    $var wire 32 L" haddr [31:0] $end
    $var wire 1 W" hmastlock $end
    $var wire 7 X" hprot [6:0] $end
    $var wire 3 Y" hsize [2:0] $end
    $var wire 2 ) htrans [1:0] $end
    $var wire 32 * hwdata [31:0] $end
    $var wire 32 + hrdata [31:0] $end
    $var wire 1 , hwrite $end
    $var wire 1 - hready $end
    $var wire 1 Z" hresp $end
    $var wire 1 . wbuffread $end
    $var wire 1 / rbuffread $end
    $var wire 1 $ wreq $end
    $var wire 32 % wbuffdata [31:0] $end
    $var wire 32 & wbuffaddr [31:0] $end
    $var wire 1 0 rbuffwrite $end
    $var wire 1 ' rreq $end
    $var wire 32 1 rbuffdata [31:0] $end
    $var wire 32 ( rbuffaddr [31:0] $end
    $var wire 1 2 done $end
    $var wire 1 3 resp $end
    $var wire 32 `" IDLE [31:0] $end
    $var wire 32 a" STEUP [31:0] $end
    $var wire 32 b" WAIT [31:0] $end
    $var wire 32 `" HTRANS_IDLE [31:0] $end
    $var wire 32 a" HTRANS_BUSY [31:0] $end
    $var wire 32 b" HTRANS_NONSEQ [31:0] $end
    $var wire 32 _" HTRANS_SEQ [31:0] $end
    $var wire 2 ; state [1:0] $end
    $var wire 2 V" nextstate [1:0] $end
    $var wire 32 < hwdatabuff [31:0] $end
    $var wire 1 = wpendingflag $end
    $var wire 1 > wpendingflagdly $end
    $var wire 1 ? rpendingflag $end
    $var wire 1 @ rpendingflagdly $end
   $upscope $end
   $scope module spictrl_swc_inst $end
    $var wire 32 g" SPI_CR_ADDR [31:0] $end
    $var wire 32 h" SPI_SR_ADDR [31:0] $end
    $var wire 32 i" SPI_WDR_ADDR [31:0] $end
    $var wire 32 j" SPI_RDR_ADDR [31:0] $end
    $var wire 1 T" pclk $end
    $var wire 1 # prstn $end
    $var wire 32 A paddr [31:0] $end
    $var wire 1 \ psel $end
    $var wire 1 C penable $end
    $var wire 1 D pwrite $end
    $var wire 32 E pwdata [31:0] $end
    $var wire 1 F pready $end
    $var wire 32 G prdata [31:0] $end
    $var wire 1 H pslverr $end
    $var wire 1 I sck $end
    $var wire 1 J mosi $end
    $var wire 1 J miso $end
    $var wire 1 ] pready_buff $end
    $var wire 32 ^ prdata_buff [31:0] $end
    $var wire 1 _ pslverr_buff $end
    $var wire 32 ` SPI_CR [31:0] $end
    $var wire 32 a SPI_SR [31:0] $end
    $var wire 32 k" SPI_RDR [31:0] $end
    $var wire 32 `" APB_TRANS_IDLE [31:0] $end
    $var wire 32 a" APB_TRANS_READY [31:0] $end
    $var wire 32 b" APB_TRANS_READ [31:0] $end
    $var wire 32 _" APB_TRANS_DELAY [31:0] $end
    $var wire 3 b apb_state [2:0] $end
    $var wire 3 c apb_nextstate [2:0] $end
    $var wire 1 d addr_error $end
    $var wire 32 l" FIFO_WIDTH [31:0] $end
    $var wire 1 e wdr_wen $end
    $var wire 16 f wdr_wdata [15:0] $end
    $var wire 1 g wdr_full $end
    $var wire 1 h wdr_ren $end
    $var wire 16 i wdr_rdata [15:0] $end
    $var wire 1 j wdr_empty $end
    $var wire 32 m" COUNTER_WIDTH [31:0] $end
    $var wire 3 k SPI_CR_BR [2:0] $end
    $var wire 1 l SPI_CR_CPOL $end
    $var wire 1 m SPI_CR_CPHA $end
    $var wire 1 n SPI_CR_DFF $end
    $var wire 1 o SPI_CR_LSBFIRST $end
    $var wire 1 p SPI_CR_SPE $end
    $var wire 16 q spiwdata [15:0] $end
    $var wire 12 r cnt [11:0] $end
    $var wire 12 s max_cnt [11:0] $end
    $var wire 32 `" SPI_TRANS_IDLE [31:0] $end
    $var wire 32 a" SPI_TRANS_READ [31:0] $end
    $var wire 32 b" SPI_TRANS_DELAY [31:0] $end
    $var wire 32 _" SPI_TRANS_BUFFER [31:0] $end
    $var wire 32 c" SPI_TRANS_COUNT [31:0] $end
    $var wire 32 d" SPI_TRANS_WRITE [31:0] $end
    $var wire 3 t spi_state [2:0] $end
    $var wire 3 u spi_nextstate [2:0] $end
    $var wire 1 v sck_source $end
    $var wire 12 w exindex [11:0] $end
    $var wire 4 x index [3:0] $end
    $var wire 1 y rdr_wen $end
    $var wire 16 z rdr_wdata [15:0] $end
    $var wire 1 { rdr_full $end
    $var wire 1 | rdr_ren $end
    $var wire 16 } rdr_rdata [15:0] $end
    $var wire 1 ~ rdr_empty $end
    $var wire 1 !! sck_source_dly $end
    $var wire 1 "! shift_trig $end
    $var wire 16 z spirdata [15:0] $end
    $var wire 1 #! BSY $end
    $var wire 1 $! OVR $end
    $var wire 1 %! TXE $end
    $var wire 1 &! RXNE $end
    $scope module rdr_syncfifo_swc_inst $end
     $var wire 32 l" data_width [31:0] $end
     $var wire 32 l" ram_size [31:0] $end
     $var wire 32 c" addr_width [31:0] $end
     $var wire 1 # rstn $end
     $var wire 1 T" clk $end
     $var wire 1 y wen $end
     $var wire 16 z wdata [15:0] $end
     $var wire 1 { full $end
     $var wire 1 | ren $end
     $var wire 16 } rdata [15:0] $end
     $var wire 1 ~ empty $end
     $var wire 4 '! waddr [3:0] $end
     $var wire 4 (! raddr [3:0] $end
     $var wire 5 )! waddr_ptr [4:0] $end
     $var wire 5 *! raddr_ptr [4:0] $end
     $var wire 16 +! fifo_ram[0] [15:0] $end
     $var wire 16 ,! fifo_ram[1] [15:0] $end
     $var wire 16 -! fifo_ram[2] [15:0] $end
     $var wire 16 .! fifo_ram[3] [15:0] $end
     $var wire 16 /! fifo_ram[4] [15:0] $end
     $var wire 16 0! fifo_ram[5] [15:0] $end
     $var wire 16 1! fifo_ram[6] [15:0] $end
     $var wire 16 2! fifo_ram[7] [15:0] $end
     $var wire 16 3! fifo_ram[8] [15:0] $end
     $var wire 16 4! fifo_ram[9] [15:0] $end
     $var wire 16 5! fifo_ram[10] [15:0] $end
     $var wire 16 6! fifo_ram[11] [15:0] $end
     $var wire 16 7! fifo_ram[12] [15:0] $end
     $var wire 16 8! fifo_ram[13] [15:0] $end
     $var wire 16 9! fifo_ram[14] [15:0] $end
     $var wire 16 :! fifo_ram[15] [15:0] $end
    $upscope $end
    $scope module wdr_syncfifo_swc_inst $end
     $var wire 32 l" data_width [31:0] $end
     $var wire 32 l" ram_size [31:0] $end
     $var wire 32 c" addr_width [31:0] $end
     $var wire 1 # rstn $end
     $var wire 1 T" clk $end
     $var wire 1 e wen $end
     $var wire 16 f wdata [15:0] $end
     $var wire 1 g full $end
     $var wire 1 h ren $end
     $var wire 16 i rdata [15:0] $end
     $var wire 1 j empty $end
     $var wire 4 ;! waddr [3:0] $end
     $var wire 4 <! raddr [3:0] $end
     $var wire 5 =! waddr_ptr [4:0] $end
     $var wire 5 >! raddr_ptr [4:0] $end
     $var wire 16 ?! fifo_ram[0] [15:0] $end
     $var wire 16 @! fifo_ram[1] [15:0] $end
     $var wire 16 A! fifo_ram[2] [15:0] $end
     $var wire 16 B! fifo_ram[3] [15:0] $end
     $var wire 16 C! fifo_ram[4] [15:0] $end
     $var wire 16 D! fifo_ram[5] [15:0] $end
     $var wire 16 E! fifo_ram[6] [15:0] $end
     $var wire 16 F! fifo_ram[7] [15:0] $end
     $var wire 16 G! fifo_ram[8] [15:0] $end
     $var wire 16 H! fifo_ram[9] [15:0] $end
     $var wire 16 I! fifo_ram[10] [15:0] $end
     $var wire 16 J! fifo_ram[11] [15:0] $end
     $var wire 16 K! fifo_ram[12] [15:0] $end
     $var wire 16 L! fifo_ram[13] [15:0] $end
     $var wire 16 M! fifo_ram[14] [15:0] $end
     $var wire 16 N! fifo_ram[15] [15:0] $end
    $upscope $end
   $upscope $end
   $scope module uart_swc_inst $end
    $var wire 32 n" UART_SR_ADDR [31:0] $end
    $var wire 32 o" UART_WDR_ADDR [31:0] $end
    $var wire 32 p" UART_RDR_ADDR [31:0] $end
    $var wire 32 q" UART_BRR_ADDR [31:0] $end
    $var wire 32 r" UART_CR1_ADDR [31:0] $end
    $var wire 32 s" UART_CR2_ADDR [31:0] $end
    $var wire 32 t" UART_CR3_ADDR [31:0] $end
    $var wire 1 T" pclk $end
    $var wire 1 # prstn $end
    $var wire 32 A paddr [31:0] $end
    $var wire 1 O! psel $end
    $var wire 1 C penable $end
    $var wire 1 D pwrite $end
    $var wire 32 E pwdata [31:0] $end
    $var wire 1 F pready $end
    $var wire 32 G prdata [31:0] $end
    $var wire 1 H pslverr $end
    $var wire 1 K tx $end
    $var wire 1 K rx $end
    $var wire 1 P! pready_buff $end
    $var wire 32 Q! prdata_buff [31:0] $end
    $var wire 1 R! pslverr_buff $end
    $var wire 32 u" UART_SR [31:0] $end
    $var wire 32 v" UART_WDR [31:0] $end
    $var wire 32 w" UART_RDR [31:0] $end
    $var wire 32 S! UART_BRR [31:0] $end
    $var wire 32 T! UART_CR1 [31:0] $end
    $var wire 32 U! UART_CR2 [31:0] $end
    $var wire 32 V! UART_CR3 [31:0] $end
    $var wire 32 `" APB_TRANS_IDLE [31:0] $end
    $var wire 32 a" APB_TRANS_READY [31:0] $end
    $var wire 32 b" APB_TRANS_READ [31:0] $end
    $var wire 32 _" APB_TRANS_DELAY [31:0] $end
    $var wire 3 W! apb_state [2:0] $end
    $var wire 3 X! apb_nextstate [2:0] $end
    $var wire 1 Y! addr_error $end
    $var wire 32 l" FIFO_WIDTH [31:0] $end
    $var wire 1 Z! wdr_wen $end
    $var wire 16 [! wdr_wdata [15:0] $end
    $var wire 1 \! wdr_full $end
    $var wire 1 ]! wdr_ren $end
    $var wire 16 ^! wdr_rdata [15:0] $end
    $var wire 1 _! wdr_empty $end
    $var wire 32 l" COUNTER_WIDTH [31:0] $end
    $var wire 1 `! UART_CR1_UE $end
    $var wire 1 a! UART_CR1_M $end
    $var wire 1 b! UART_CR1_PCE $end
    $var wire 1 c! UART_CR1_PS $end
    $var wire 2 d! UART_CR2_STOP [1:0] $end
    $var wire 4 e! total_bits [3:0] $end
    $var wire 16 f! tx_uartwdata_full_buff [15:0] $end
    $var wire 4 g! tx_byte_cnt [3:0] $end
    $var wire 16 h! tx_bit_cnt [15:0] $end
    $var wire 32 `" UART_TX_IDLE [31:0] $end
    $var wire 32 a" UART_TX_READ [31:0] $end
    $var wire 32 b" UART_TX_DELAY [31:0] $end
    $var wire 32 _" UART_TX_BUFFER [31:0] $end
    $var wire 32 c" UART_TX_COUNT [31:0] $end
    $var wire 3 i! uart_tx_state [2:0] $end
    $var wire 3 j! uart_tx_nextstate [2:0] $end
    $var wire 1 k! tx_odd_tx_parity_bit $end
    $var wire 1 l! tx_even_tx_parity_bit $end
    $var wire 1 m! tx_parity_bit $end
    $var wire 16 n! tx_uartwdata_with_start [15:0] $end
    $var wire 16 o! tx_uartwdata_full [15:0] $end
    $var wire 4 p! rx_byte_cnt [3:0] $end
    $var wire 16 q! rx_bit_cnt [15:0] $end
    $var wire 1 r! rx_dly $end
    $var wire 1 s! rx_negedge $end
    $var wire 32 `" UART_RX_IDLE [31:0] $end
    $var wire 32 a" UART_RX_COUNT [31:0] $end
    $var wire 32 b" UART_RX_WRITE [31:0] $end
    $var wire 3 t! uart_rx_state [2:0] $end
    $var wire 3 u! uart_rx_nextstate [2:0] $end
    $var wire 16 v! capture_bit_cnt_value [15:0] $end
    $var wire 16 w! uartrdata_full [15:0] $end
    $var wire 16 x! uartrdata [15:0] $end
    $var wire 4 y! data_start [3:0] $end
    $var wire 4 z! data_end [3:0] $end
    $var wire 1 {! parity_check $end
    $var wire 1 |! stop_check $end
    $var wire 1 }! rdr_wen $end
    $var wire 16 x! rdr_wdata [15:0] $end
    $var wire 1 ~! rdr_full $end
    $var wire 1 !" rdr_ren $end
    $var wire 16 "" rdr_rdata [15:0] $end
    $var wire 1 #" rdr_empty $end
    $scope module rdr_syncfifo_swc_inst $end
     $var wire 32 l" data_width [31:0] $end
     $var wire 32 l" ram_size [31:0] $end
     $var wire 32 c" addr_width [31:0] $end
     $var wire 1 # rstn $end
     $var wire 1 T" clk $end
     $var wire 1 }! wen $end
     $var wire 16 x! wdata [15:0] $end
     $var wire 1 ~! full $end
     $var wire 1 !" ren $end
     $var wire 16 "" rdata [15:0] $end
     $var wire 1 #" empty $end
     $var wire 4 $" waddr [3:0] $end
     $var wire 4 %" raddr [3:0] $end
     $var wire 5 &" waddr_ptr [4:0] $end
     $var wire 5 '" raddr_ptr [4:0] $end
     $var wire 16 (" fifo_ram[0] [15:0] $end
     $var wire 16 )" fifo_ram[1] [15:0] $end
     $var wire 16 *" fifo_ram[2] [15:0] $end
     $var wire 16 +" fifo_ram[3] [15:0] $end
     $var wire 16 ," fifo_ram[4] [15:0] $end
     $var wire 16 -" fifo_ram[5] [15:0] $end
     $var wire 16 ." fifo_ram[6] [15:0] $end
     $var wire 16 /" fifo_ram[7] [15:0] $end
     $var wire 16 0" fifo_ram[8] [15:0] $end
     $var wire 16 1" fifo_ram[9] [15:0] $end
     $var wire 16 2" fifo_ram[10] [15:0] $end
     $var wire 16 3" fifo_ram[11] [15:0] $end
     $var wire 16 4" fifo_ram[12] [15:0] $end
     $var wire 16 5" fifo_ram[13] [15:0] $end
     $var wire 16 6" fifo_ram[14] [15:0] $end
     $var wire 16 7" fifo_ram[15] [15:0] $end
    $upscope $end
    $scope module wdr_syncfifo_swc_inst $end
     $var wire 32 l" data_width [31:0] $end
     $var wire 32 l" ram_size [31:0] $end
     $var wire 32 c" addr_width [31:0] $end
     $var wire 1 # rstn $end
     $var wire 1 T" clk $end
     $var wire 1 Z! wen $end
     $var wire 16 [! wdata [15:0] $end
     $var wire 1 \! full $end
     $var wire 1 ]! ren $end
     $var wire 16 ^! rdata [15:0] $end
     $var wire 1 _! empty $end
     $var wire 4 8" waddr [3:0] $end
     $var wire 4 9" raddr [3:0] $end
     $var wire 5 :" waddr_ptr [4:0] $end
     $var wire 5 ;" raddr_ptr [4:0] $end
     $var wire 16 <" fifo_ram[0] [15:0] $end
     $var wire 16 =" fifo_ram[1] [15:0] $end
     $var wire 16 >" fifo_ram[2] [15:0] $end
     $var wire 16 ?" fifo_ram[3] [15:0] $end
     $var wire 16 @" fifo_ram[4] [15:0] $end
     $var wire 16 A" fifo_ram[5] [15:0] $end
     $var wire 16 B" fifo_ram[6] [15:0] $end
     $var wire 16 C" fifo_ram[7] [15:0] $end
     $var wire 16 D" fifo_ram[8] [15:0] $end
     $var wire 16 E" fifo_ram[9] [15:0] $end
     $var wire 16 F" fifo_ram[10] [15:0] $end
     $var wire 16 G" fifo_ram[11] [15:0] $end
     $var wire 16 H" fifo_ram[12] [15:0] $end
     $var wire 16 I" fifo_ram[13] [15:0] $end
     $var wire 16 J" fifo_ram[14] [15:0] $end
     $var wire 16 K" fifo_ram[15] [15:0] $end
    $upscope $end
   $upscope $end
  $upscope $end
 $upscope $end
$enddefinitions $end


#0
0#
0$
b00000000000000000000000000000000 %
b00000000000000000000000000000000 &
0'
b00000000000000000000000000000000 (
b00 )
b00000000000000000000000000000000 *
b00000000000000000000000000000000 +
0,
0-
0.
0/
00
b00000000000000000000000000000000 1
02
03
04
05
06
07
08
09
b000 :
b00 ;
b00000000000000000000000000000000 <
0=
0>
0?
0@
b00000000000000000000000000000000 A
b000 B
0C
0D
b00000000000000000000000000000000 E
0F
b00000000000000000000000000000000 G
0H
0I
0J
0K
0L
0M
0N
0O
0P
0Q
0R
0S
0T
0U
0V
b00000000000000000000000000000000 W
0X
0Y
b00 Z
b00 [
0\
0]
b00000000000000000000000000000000 ^
0_
b00000000000000000000000000000000 `
b00000000000000000000000000000000 a
b000 b
b000 c
0d
0e
b0000000000000000 f
0g
0h
b0000000000000000 i
1j
b000 k
0l
0m
0n
0o
0p
b0000000000000000 q
b000000000000 r
b000000001111 s
b000 t
b000 u
0v
b000000000000 w
b0111 x
0y
b0000000000000000 z
0{
0|
b0000000000000000 }
1~
0!!
0"!
0#!
0$!
0%!
0&!
b0000 '!
b0000 (!
b00000 )!
b00000 *!
b0000000000000000 +!
b0000000000000000 ,!
b0000000000000000 -!
b0000000000000000 .!
b0000000000000000 /!
b0000000000000000 0!
b0000000000000000 1!
b0000000000000000 2!
b0000000000000000 3!
b0000000000000000 4!
b0000000000000000 5!
b0000000000000000 6!
b0000000000000000 7!
b0000000000000000 8!
b0000000000000000 9!
b0000000000000000 :!
b0000 ;!
b0000 <!
b00000 =!
b00000 >!
b0000000000000000 ?!
b0000000000000000 @!
b0000000000000000 A!
b0000000000000000 B!
b0000000000000000 C!
b0000000000000000 D!
b0000000000000000 E!
b0000000000000000 F!
b0000000000000000 G!
b0000000000000000 H!
b0000000000000000 I!
b0000000000000000 J!
b0000000000000000 K!
b0000000000000000 L!
b0000000000000000 M!
b0000000000000000 N!
0O!
0P!
b00000000000000000000000000000000 Q!
0R!
b00000000000000000000000000000000 S!
b00000000000000000000000000000000 T!
b00000000000000000000000000000000 U!
b00000000000000000000000000000000 V!
b000 W!
b000 X!
0Y!
0Z!
b0000000000000000 [!
0\!
0]!
b0000000000000000 ^!
1_!
0`!
0a!
0b!
0c!
b00 d!
b1010 e!
b0000000000000000 f!
b0000 g!
b0000000000000000 h!
b000 i!
b000 j!
0k!
1l!
1m!
b0000000000000000 n!
b1111111000000000 o!
b0000 p!
b0000000000000000 q!
0r!
0s!
b000 t!
b000 u!
b0000000000000000 v!
b0000000000000000 w!
b0000000000000000 x!
b0001 y!
b1000 z!
1{!
0|!
0}!
0~!
0!"
b0000000000000000 ""
1#"
b0000 $"
b0000 %"
b00000 &"
b00000 '"
b0000000000000000 ("
b0000000000000000 )"
b0000000000000000 *"
b0000000000000000 +"
b0000000000000000 ,"
b0000000000000000 -"
b0000000000000000 ."
b0000000000000000 /"
b0000000000000000 0"
b0000000000000000 1"
b0000000000000000 2"
b0000000000000000 3"
b0000000000000000 4"
b0000000000000000 5"
b0000000000000000 6"
b0000000000000000 7"
b0000 8"
b0000 9"
b00000 :"
b00000 ;"
b0000000000000000 <"
b0000000000000000 ="
b0000000000000000 >"
b0000000000000000 ?"
b0000000000000000 @"
b0000000000000000 A"
b0000000000000000 B"
b0000000000000000 C"
b0000000000000000 D"
b0000000000000000 E"
b0000000000000000 F"
b0000000000000000 G"
b0000000000000000 H"
b0000000000000000 I"
b0000000000000000 J"
b0000000000000000 K"
b00000000000000000000000000000000 L"
b00000000000000000000000000000000 M"
b00000000000000000000000000000000 N"
b00000000000000000000000000000000 O"
0P"
0Q"
b000 R"
1S"
1T"
b000 U"
b00 V"
0W"
b0000000 X"
b000 Y"
0Z"
1["
b000 \"
0]"
b10 ^"
b00000000000000000000000000000011 _"
b00000000000000000000000000000000 `"
b00000000000000000000000000000001 a"
b00000000000000000000000000000010 b"
b00000000000000000000000000000100 c"
b00000000000000000000000000000101 d"
b00000000000000000000000000000110 e"
b00000000000000000000000000000111 f"
b00000000000100000000000000000000 g"
b00000000000100000000000000000100 h"
b00000000000100000000000000001000 i"
b00000000000100000000000000001100 j"
b00000000000000000000000000000000 k"
b00000000000000000000000000010000 l"
b00000000000000000000000000001100 m"
b00000000000100000000000100000000 n"
b00000000000100000000000100000100 o"
b00000000000100000000000100001000 p"
b00000000000100000000000100001100 q"
b00000000000100000000000100010000 r"
b00000000000100000000000100010100 s"
b00000000000100000000000100011000 t"
b00000000000000000000000000000000 u"
b00000000000000000000000000000000 v"
b00000000000000000000000000000000 w"
#1
#12
0S"
#22
0T"
#24
1S"
#36
0S"
#44
b00000000000000000000000000000001 a
1&!
1T"
#48
1S"
#60
0S"
#66
0T"
#72
1S"
#84
0S"
#88
1T"
#96
1S"
#108
0S"
#110
0T"
#120
1S"
#132
0S"
1T"
#144
1S"
#154
0T"
#156
0S"
#168
1S"
#176
1T"
#180
0S"
#192
1S"
#198
0T"
#204
0S"
#216
1S"
#220
1T"
#228
0S"
#240
1S"
#241
1#
#242
0T"
#252
0S"
#264
1-
1K
1S"
1T"
#276
0S"
#286
0T"
#288
1S"
#300
0S"
#308
1r!
b1000000000000000 w!
1|!
1T"
#312
1S"
#324
0S"
#330
0T"
#336
1S"
#348
0S"
#352
b1100000000000000 w!
b0000000010000000 x!
1T"
#360
1S"
#372
0S"
#374
0T"
#384
1S"
#396
b1110000000000000 w!
b0000000011000000 x!
0S"
1T"
#408
1S"
#418
0T"
#420
0S"
#432
1S"
#440
b1111000000000000 w!
b0000000011100000 x!
1T"
#444
0S"
#456
1S"
#462
0T"
#468
0S"
#480
1S"
#481
1$
b00000000000000000000100011000100 %
b00000000000100000000000000000000 &
b01 V"
#484
b1111100000000000 w!
b0000000011110000 x!
1T"
#492
0S"
#504
b10 )
1,
1.
b01 ;
b00000000000000000000100011000100 <
1=
b00000000000100000000000000000000 L"
b001 R"
1S"
#505
0$
b00000000000000000000000000000000 %
b00000000000000000000000000000000 &
b00 V"
#506
0T"
#516
0S"
#528
b00 )
b00000000000000000000100011000100 *
0,
0-
0.
b001 :
b00 ;
b00000000000000000000000000000000 <
0=
1>
b1111110000000000 w!
b0000000011111000 x!
b00000000000000000000000000000000 L"
b00000000000100000000000000000000 N"
b010 R"
1S"
1T"
#540
0S"
#550
0T"
#552
14
b010 :
b00000000000000000000100011000100 M"
b011 R"
1S"
#564
0S"
#572
b1111111000000000 w!
b0000000011111100 x!
1T"
#576
04
b011 :
1P"
1S"
#588
0S"
#594
0T"
#600
1S"
#612
0S"
#616
1M
b1111111100000000 w!
b0000000011111110 x!
1T"
#624
1S"
#636
0S"
#638
0T"
#648
1S"
#660
1N
1P
b01 [
b1111111110000000 w!
b0000000011111111 x!
0S"
1T"
b001 U"
#672
1S"
#682
0T"
#684
0S"
#696
1S"
#704
b00000000000100000000000000000000 A
b001 B
1D
b00000000000000000000100011000100 E
1L
1O
0P
b01 Z
b10 [
1\
b001 c
b1111111111000000 w!
1T"
b000 U"
#708
0S"
#720
1S"
#726
0T"
#732
0S"
#744
1S"
#748
1C
1F
0L
b10 Z
b00 [
1]
b001 b
b000 c
b1111111111100000 w!
1T"
#756
0S"
#768
1S"
#770
0T"
#780
0S"
#792
b00000000000000000000000000000000 A
b000 B
0C
0D
b00000000000000000000000000000000 E
0F
1X
b00 Z
0\
0]
b00000000000000000000100011000100 `
b000 b
1n
1o
1p
b000000011111 s
b0000 x
b1111111111110000 w!
1S"
1T"
#804
0S"
#814
0T"
#816
16
1S"
#828
0S"
#836
0X
b1111111111111000 w!
1T"
#840
06
17
19
b100 R"
1S"
#852
0S"
#858
0T"
#864
1-
07
18
09
b100 :
b00000000000000000000000000000000 M"
b00000000000000000000000000000000 N"
b000 R"
1S"
#876
0S"
#880
b1111111111111100 w!
1T"
#888
b00000000000000000000000000000000 *
12
08
b000 :
0>
1S"
#900
0S"
#902
0T"
#912
02
1S"
#924
b1111111111111110 w!
0S"
1T"
#936
1S"
#946
0T"
#948
0S"
#960
1S"
#968
b1111111111111111 w!
1T"
