verification/coco_tb/vcds/decode_execute_regfile.vcd
$date
	Sun Mar 30 09:55:45 2025
$end
$version
	Icarus Verilog
$end
$timescale
	1ps
$end
$scope module decode_execute_regfile $end
$var wire 64 ! Single_Instruction_o [63:0] $end
$var wire 1 " clk $end
$var wire 1 # en $end
$var wire 32 $ imm_o [31:0] $end
$var wire 32 % instruction [31:0] $end
$var wire 32 & operand1_po [31:0] $end
$var wire 32 ' operand2_po [31:0] $end
$var wire 32 ( pc_i [31:0] $end
$var wire 5 ) rd_o [4:0] $end
$var wire 1 * reset $end
$var wire 5 + rs1_o [4:0] $end
$var wire 5 , rs2_o [4:0] $end
$var wire 4 - operand_amt_o [3:0] $end
$var wire 7 . opcode_o [6:0] $end
$var wire 1 / jump_inst_wire $end
$var wire 1 0 inter_write_reg_file $end
$var wire 5 1 inter_rs2 [4:0] $end
$var wire 5 2 inter_rs1 [4:0] $end
$var wire 5 3 inter_rd [4:0] $end
$var wire 32 4 inter_operand2 [31:0] $end
$var wire 32 5 inter_operand1 [31:0] $end
$var wire 32 6 inter_imm [31:0] $end
$var wire 64 7 inter_Single_Instruction [63:0] $end
$var wire 7 8 fun7_o [6:0] $end
$var wire 3 9 fun3_o [2:0] $end
$var wire 1 : branch_inst_wire $end
$var wire 32 ; alu_result_2 [31:0] $end
$var wire 32 < alu_result_1 [31:0] $end
$var wire 7 = INST_typ_o [6:0] $end
$scope module decode_inst $end
$var wire 7 > INST_typ_o [6:0] $end
$var wire 64 ? Single_Instruction_o [63:0] $end
$var wire 3 @ fun3_o [2:0] $end
$var wire 7 A fun7_o [6:0] $end
$var wire 1 " i_clk $end
$var wire 1 # i_en $end
$var wire 32 B imm_o [31:0] $end
$var wire 32 C instruction [31:0] $end
$var wire 4 D operand_amt_o [3:0] $end
$var wire 5 E rd_o [4:0] $end
$var wire 5 F rs1_o [4:0] $end
$var wire 5 G rs2_o [4:0] $end
$var wire 7 H opcode_o [6:0] $end
$var wire 7 I opcode [6:0] $end
$var parameter 32 J N_param $end
$var reg 7 K INST_typ [6:0] $end
$var reg 64 L Single_Instruction [63:0] $end
$var reg 3 M fun3 [2:0] $end
$var reg 7 N fun7 [6:0] $end
$var reg 32 O imm [31:0] $end
$var reg 4 P operand_amt [3:0] $end
$var reg 5 Q rd [4:0] $end
$var reg 5 R rs1 [4:0] $end
$var reg 5 S rs2 [4:0] $end
$upscope $end
$scope module execute_inst $end
$var wire 64 T Single_Instruction_i [63:0] $end
$var wire 1 : branch_inst_wire $end
$var wire 1 " i_clk $end
$var wire 1 # i_en $end
$var wire 32 U imm_i [31:0] $end
$var wire 32 V imm_i_signed [31:0] $end
$var wire 32 W instruction [31:0] $end
$var wire 1 / jump_inst_wire $end
$var wire 32 X operand1_pi_signed [31:0] $end
$var wire 32 Y operand2_pi_signed [31:0] $end
$var wire 32 Z pc_i [31:0] $end
$var wire 5 [ rd_i [4:0] $end
$var wire 5 \ rs1_i [4:0] $end
$var wire 5 ] rs2_i [4:0] $end
$var wire 1 0 we_o $end
$var wire 32 ^ operand2_pi [31:0] $end
$var wire 32 _ operand1_pi [31:0] $end
$var wire 32 ` alu_result_2 [31:0] $end
$var wire 32 a alu_result_1 [31:0] $end
$var parameter 32 b N_param $end
$var reg 1 c branch_inst $end
$var reg 1 d jump_inst $end
$var reg 33 e result [32:0] $end
$var reg 33 f result_secondary [32:0] $end
$var reg 1 0 write_reg_file $end
$upscope $end
$scope module regfile_inst $end
$var wire 1 " clk $end
$var wire 1 g cntrl1 $end
$var wire 1 h cntrl2 $end
$var wire 5 i destReg_pi [4:0] $end
$var wire 5 j reg1_pi [4:0] $end
$var wire 5 k reg2_pi [4:0] $end
$var wire 1 * reset $end
$var wire 1 0 we_i $end
$var wire 32 l writeData_pi [31:0] $end
$var wire 32 m operand2_po [31:0] $end
$var wire 32 n operand1_po [31:0] $end
$var integer 32 o i [31:0] $end
$var integer 32 p j [31:0] $end
$upscope $end
$upscope $end
$enddefinitions $end
$comment Show the parameter values. $end
$dumpall
b100000 b
b100000 J
$end
#0
$dumpvars
b100000 p
b100000 o
b0 n
b0 m
b0 l
b0 k
b0 j
b0 i
1h
1g
b0 f
b0 e
0d
0c
b0 a
b0 `
b0 _
b0 ^
b0 ]
b0 \
b0 [
b0 Z
b0 Y
b0 X
bz W
b0 V
b0 U
b0 T
b0 S
b0 R
b0 Q
b0 P
b0 O
b0 N
b0 M
b0 L
b0 K
bz I
bz H
b0 G
b0 F
b0 E
b0 D
bz C
b0 B
b0 A
b0 @
b0 ?
b0 >
b0 =
b0 <
b0 ;
0:
b0 9
b0 8
b0 7
b0 6
b0 5
b0 4
b0 3
b0 2
b0 1
10
0/
bz .
b0 -
bz ,
bz +
1*
bz )
b0 (
bz '
bz &
bz %
bz $
0#
1"
bz !
$end
#5000
0"
#10000
1"
0*
1#
#15000
0"
#20000
1"
#25000
0"
#30000
1"
#35000
0"
#40000
1"
#45000
0"
#50000
1"
#55000
0"
#60000
1"
#65000
0"
#70000
b11111111111111111111111111111111 <
b11111111111111111111111111111111 a
b11111111111111111111111111111111 l
b111111111111111111111111111111111 e
b10000000 7
b10000000 ?
b10000000 T
b10000000 L
b11111100111111011110100111111001 X
b11111100111111011110100111111001 5
b11111100111111011110100111111001 _
b11111100111111011110100111111001 n
b10011110100011011100110100111101 Y
b10011110100011011100110100111101 4
b10011110100011011100110100111101 ^
b10011110100011011100110100111101 m
0g
0h
b100000 8
b100000 A
b100000 N
b1011 1
b1011 G
b1011 S
b1011 ]
b1011 k
b1110 2
b1110 F
b1110 R
b1110 \
b1110 j
b101 9
b101 @
b101 M
b11010 3
b11010 E
b11010 Q
b11010 [
b11010 i
b1 =
b1 >
b1 K
b110011 I
b110011 .
b110011 H
1"
b1000000101101110101110100110011 %
b1000000101101110101110100110011 C
b1000000101101110101110100110011 W
#75000
0"
#80000
1"
#85000
0"
#90000
1"
#95000
0"
#100000
1"
#105000
0"
#110000
1"
#115000
0"
#120000
1"
#125000
0"
#130001
b10010001100001000100100100100011 X
b10010001100001000100100100100011 5
b10010001100001000100100100100011 _
b10010001100001000100100100100011 n
b1010111010101100011111010101110 Y
b1010111010101100011111010101110 4
b1010111010101100011111010101110 ^
b1010111010101100011111010101110 m
b100000 o
1"
1*
0#
#135001
0"
#140001
1"
0*
1#
#145001
0"
#150001
1"
#155001
0"
#160001
1"
#165001
0"
#170001
1"
#175001
0"
#180001
1"
#185001
0"
#190001
1"
#195001
0"
#200001
b1101010101001100010101011010101 <
b1101010101001100010101011010101 a
b1101010101001100010101011010101 l
b1101010101001100010101011010101 e
b1000000000000000 7
b1000000000000000 ?
b1000000000000000 T
b1000000000000000 L
b1000000001110110010001010000000 Y
b1000000001110110010001010000000 4
b1000000001110110010001010000000 ^
b1000000001110110010001010000000 m
b1101010101001100010101011010101 X
b1101010101001100010101011010101 5
b1101010101001100010101011010101 _
b1101010101001100010101011010101 n
b0 8
b0 A
b0 N
b0 1
b0 G
b0 S
b0 ]
b0 k
b1001 2
b1001 F
b1001 R
b1001 \
b1001 j
b1100 3
b1100 E
b1100 Q
b1100 [
b1100 i
b10 =
b10 >
b10 K
b10011 I
b10011 .
b10011 H
1"
b1001101011000010011 %
b1001101011000010011 C
b1001101011000010011 W
#205001
0"
#210001
1"
#215001
0"
#220001
1"
#225001
0"
#230001
1"
#235001
0"
#240001
1"
#245001
0"
#250001
1"
#255001
0"
#260002
b10100110001101011111101101001100 <
b10100110001101011111101101001100 a
b10100110001101011111101101001100 l
b10100110001101011111101101001100 e
b10100110001101011111101101001100 X
b10100110001101011111101101001100 5
b10100110001101011111101101001100 _
b10100110001101011111101101001100 n
b11000010111100100100000110000101 Y
b11000010111100100100000110000101 4
b11000010111100100100000110000101 ^
b11000010111100100100000110000101 m
b100000 o
1"
1*
0#
b10111011101010001011001111001 (
b10111011101010001011001111001 Z
#265002
0"
#270002
1"
0*
1#
#275002
0"
#280002
1"
#285002
0"
#290002
1"
#295002
0"
#300002
1"
#305002
0"
#310002
1"
#315002
0"
#320002
1"
#325002
0"
#330002
b10000111100000000100 ;
b10000111100000000100 `
1/
1d
b10000111100000000100 f
b100 <
b100 a
b100 l
b100 e
b1000000000000000000000000000000000 7
b1000000000000000000000000000000000 ?
b1000000000000000000000000000000000 T
b1000000000000000000000000000000000 L
b11000010111100100100000110000101 X
b11000010111100100100000110000101 5
b11000010111100100100000110000101 _
b11000010111100100100000110000101 n
b10000111100000000100 V
b10000111100000000100 6
b10000111100000000100 B
b10000111100000000100 O
b10000111100000000100 U
b0 2
b0 F
b0 R
b0 \
b0 j
b0 9
b0 @
b0 M
b11100 3
b11100 E
b11100 Q
b11100 [
b11100 i
b100000 =
b100000 >
b100000 K
b1101111 I
b1101111 .
b1101111 H
1"
b0 (
b0 Z
b10110000111111001101111 %
b10110000111111001101111 C
b10110000111111001101111 W
#335002
0"
#340002
1"
#345002
0"
#350002
1"
#355002
0"
#360002
1"
#365002
0"
#370002
1"
#375002
0"
#380002
1"
#385002
0"
#390003
b10001111110100101000111100011111 X
b10001111110100101000111100011111 5
b10001111110100101000111100011111 _
b10001111110100101000111100011111 n
b10001111110100101000111100011111 Y
b10001111110100101000111100011111 4
b10001111110100101000111100011111 ^
b10001111110100101000111100011111 m
b10110100011001011111100010100011 ;
b10110100011001011111100010100011 `
b10110100010111011000000010100011 <
b10110100010111011000000010100011 a
b10110100010111011000000010100011 l
b10110100011001011111100010100011 f
b10110100010111011000000010100011 e
b100000 o
1"
1*
0#
b10110100010111011000000010011111 (
b10110100010111011000000010011111 Z
#395003
0"
#400003
1"
0*
1#
#405003
0"
#410003
1"
#415003
0"
#420003
1"
#425003
0"
#430003
1"
#435003
0"
#440003
1"
#445003
0"
#450003
1"
#455003
0"
#460003
0/
0d
b1000000000000000000000000000000000000 7
b1000000000000000000000000000000000000 ?
b1000000000000000000000000000000000000 T
b1000000000000000000000000000000000000 L
b0 ;
b0 `
b11010100000100110100000000000000 <
b11010100000100110100000000000000 a
b11010100000100110100000000000000 l
b0 f
b11010100000100110100000000000000 e
b11010100000100110100000000000000 V
b11010100000100110100000000000000 6
b11010100000100110100000000000000 B
b11010100000100110100000000000000 O
b11010100000100110100000000000000 U
b10000 3
b10000 E
b10000 Q
b10000 [
b10000 i
b10000 =
b10000 >
b10000 K
b10111 I
b10111 .
b10111 H
1"
b0 (
b0 Z
b11010100000100110100100000010111 %
b11010100000100110100100000010111 C
b11010100000100110100100000010111 W
