S25_core/rtl/riscv32i_module/branch_prediction_tb.vcd
$version Generated by VerilatedVcd $end
$timescale 1ps $end
 $scope module TOP $end
  $scope module branch_prediction_tb $end
   $var wire 1 & predict_trigger $end
   $var wire 1 ' clk $end
   $var wire 2 ( prediction_type [1:0] $end
   $var wire 1 ) actual_branch $end
   $var wire 32 * imm [31:0] $end
   $var wire 32 + pc [31:0] $end
   $var wire 32 * temp_imm [31:0] $end
   $var wire 32 , temp_pc [31:0] $end
   $var wire 1 - reset $end
   $var wire 1 # prediction $end
   $scope module branch_inst $end
    $var wire 1 & predict_trigger $end
    $var wire 1 ' clk $end
    $var wire 2 ( prediction_type [1:0] $end
    $var wire 1 ) actual_branch $end
    $var wire 32 * imm [31:0] $end
    $var wire 32 + pc [31:0] $end
    $var wire 1 - reset $end
    $var wire 1 # prediction $end
    $var wire 2 . STATIC [1:0] $end
    $var wire 2 / ONE_BIT [1:0] $end
    $var wire 2 0 TWO_BIT [1:0] $end
    $var wire 1 1 TAKEN [0:0] $end
    $var wire 1 2 NOT_TAKEN [0:0] $end
    $var wire 1 $ old_branch $end
    $var wire 32 % pc_temp [31:0] $end
    $var wire 1 3 prev_prediction $end
   $upscope $end
  $upscope $end
 $upscope $end
$enddefinitions $end


#0
0#
0$
b00000000000000000000000000000000 %
0&
1'
b00 (
1)
b00000000000000000000000000000001 *
b00000000000000000000001111111000 +
b00000000000000000000001111111000 ,
0-
b00 .
b01 /
b10 0
01
12
03
#5
0'
#10
1$
b00000000000000000000001111111000 %
1&
1'
#15
0'
0)
#20
1#
0&
1'
b00000000000000000000001111111001 +
#25
0'
#30
0$
b00000000000000000000001111111001 %
1&
1'
b01 (
b00000000000000000000001111111010 +
#35
0'
#40
b00000000000000000000001111111010 %
0&
1'
b00000000000000000000001111111011 +
#45
0'
#50
1$
b00000000000000000000001111111011 %
1&
1'
1)
b00000000000000000000001111111100 +
#55
0'
#60
b00000000000000000000001111111100 %
0&
1'
0)
b00000000000000000000001111111101 +
#65
0'
1)
#70
b00000000000000000000001111111101 %
1&
1'
b00000000000000000000001111111110 +
#75
0'
#80
b00000000000000000000001111111110 %
0&
1'
b00000000000000000000001111111111 +
#85
0'
b10 (
#90
b00000000000000000000001111111111 %
1&
1'
b00000000000000000000011111111000 +
#95
0'
#100
b00000000000000000000011111111000 %
0&
1'
b00000000000000000000011111111001 +
#105
0'
#110
b00000000000000000000011111111001 %
1&
1'
b00000000000000000000011111111010 +
#115
0'
#120
b00000000000000000000011111111010 %
0&
1'
b00000000000000000000011111111011 +
#125
0'
#130
b00000000000000000000011111111011 %
1&
1'
b00000000000000000000011111111100 +
#135
0'
#140
b00000000000000000000011111111100 %
0&
1'
b00000000000000000000011111111101 +
#145
0'
#150
b00000000000000000000011111111101 %
1&
1'
b00000000000000000000011111111110 +
#155
0'
0)
#160
b00000000000000000000011111111110 %
0&
1'
b00000000000000000000011111111111 +
#165
0'
1)
#170
b00000000000000000000011111111111 %
1&
1'
b00000000000000000000101111111000 +
#175
0'
#180
b00000000000000000000101111111000 %
0&
1'
b00000000000000000000101111111001 +
#185
0'
0)
#190
0$
b00000000000000000000101111111001 %
1&
1'
b00000000000000000000101111111010 +
#195
0'
#200
b00000000000000000000101111111010 %
0&
1'
b00000000000000000000101111111011 +
#205
0'
#210
b00000000000000000000101111111011 %
1&
1'
b00000000000000000000101111111100 +
#215
0'
#220
b00000000000000000000101111111100 %
0&
1'
b00000000000000000000101111111101 +
#225
0'
#230
b00000000000000000000101111111101 %
1&
1'
b00000000000000000000101111111110 +
