S25_core/rtl/scratch_dir/tb_instruction_memory.vcd
$date
	Tue Mar 18 22:45:46 2025
$end
$version
	Icarus Verilog
$end
$timescale
	1ps
$end
$scope module tb_instruction_memory $end
$var wire 4 ! ins_data_be_o [3:0] $end
$var wire 32 " ins_data_wdata_o [31:0] $end
$var wire 1 # ins_data_we_o $end
$var wire 32 $ instruction_o_w [31:0] $end
$var wire 1 % ins_data_rvalid_i $end
$var wire 1 & ins_data_req_o $end
$var wire 32 ' ins_data_rdata_i [31:0] $end
$var wire 1 ( ins_data_gnt_i $end
$var wire 32 ) ins_data_addr_o [31:0] $end
$var wire 1 * STALL_if_not_ready_w $end
$var parameter 32 + MEM_DEPTH $end
$var reg 1 , clk $end
$var reg 1 - mem_stall $end
$var reg 32 . pc_i [31:0] $end
$var reg 1 / pc_i_valid $end
$var reg 1 0 reset $end
$scope module bram_stuff $end
$var wire 1 , clk $end
$var wire 4 1 ins_data_be_o [3:0] $end
$var wire 1 ( ins_data_gnt_i $end
$var wire 1 % ins_data_rvalid_i $end
$var wire 32 2 ins_data_wdata_o [31:0] $end
$var wire 1 # ins_data_we_o $end
$var wire 1 0 reset $end
$var wire 1 3 rstb_busy $end
$var wire 1 & ins_data_req_o $end
$var wire 32 4 ins_data_rdata_i [31:0] $end
$var wire 32 5 ins_data_addr_o [31:0] $end
$var parameter 32 6 MEM_DEPTH $end
$var reg 1 7 rvalid_reg $end
$scope module u_bram $end
$var wire 1 , clkb $end
$var wire 32 8 dinb [31:0] $end
$var wire 32 9 doutb [31:0] $end
$var wire 1 0 rstb $end
$var wire 1 3 rstb_busy $end
$var wire 4 : web [3:0] $end
$var wire 30 ; word_address [29:0] $end
$var wire 1 & enb $end
$var wire 2 < byte_address [1:0] $end
$var wire 32 = addrb [31:0] $end
$var parameter 32 > MEM_DEPTH $end
$var reg 32 ? doutb_reg [31:0] $end
$var integer 32 @ i [31:0] $end
$upscope $end
$upscope $end
$scope module dut $end
$var wire 1 * STALL_if_not_ready_w $end
$var wire 1 , clk $end
$var wire 32 A data_addr_o_w [31:0] $end
$var wire 4 B data_be_o_w [3:0] $end
$var wire 1 ( data_gnt_i $end
$var wire 32 C data_rdata_i [31:0] $end
$var wire 1 & data_req_o_w $end
$var wire 1 % data_rvalid_i $end
$var wire 32 D data_wdata_o_w [31:0] $end
$var wire 1 # data_we_o_w $end
$var wire 32 E instruction_o_w [31:0] $end
$var wire 32 F pc_i [31:0] $end
$var wire 1 / pc_i_valid $end
$var wire 1 0 reset $end
$var wire 1 - stall_i $end
$var parameter 2 G S_IDLE $end
$var parameter 2 H S_WAIT_GNT $end
$var parameter 2 I S_WAIT_RVALID $end
$var reg 1 J STALL_if_not_ready $end
$var reg 32 K current_PC_wating_rvalid [31:0] $end
$var reg 2 L current_state [1:0] $end
$var reg 32 M data_addr_o [31:0] $end
$var reg 1 & data_req_o $end
$var reg 32 N instruction_o [31:0] $end
$var reg 2 O next_state [1:0] $end
$var reg 32 P pc_decode [31:0] $end
$upscope $end
$upscope $end
$enddefinitions $end
$comment Show the parameter values. $end
$dumpall
b10 I
b1 H
b0 G
b10001001000 >
b10001001000 6
b1000000000000 +
$end
#0
$dumpvars
bx P
b0 O
bx N
bx M
bx L
bx K
xJ
b0 F
bx E
b0 D
bx C
b1111 B
bx A
b10001001000 @
bx ?
bx =
bx <
bx ;
b0 :
bx 9
b0 8
x7
bx 5
bx 4
03
b0 2
b1111 1
10
0/
b0 .
0-
0,
x*
bx )
x(
bx '
x&
x%
bx $
0#
b0 "
b1111 !
$end
#5
b0 <
b0 ;
0*
0J
b0 )
b0 5
b0 =
b0 A
b0 M
1(
1&
b10011 $
b10011 E
b10011 N
b0 L
00
1,
#10
0,
#15
1%
17
b11111101000000010000000100010011 '
b11111101000000010000000100010011 4
b11111101000000010000000100010011 9
b11111101000000010000000100010011 C
b11111101000000010000000100010011 ?
1,
#20
0,
#25
1,
#30
0,
#35
1,
#40
0,
#45
1,
#50
0,
#55
b1 ;
b10 O
b100 )
b100 5
b100 =
b100 A
b100 M
1/
b100 .
b100 F
1,
#60
0,
#65
b100 P
b10000100010010011000100011 $
b10000100010010011000100011 E
b10000100010010011000100011 N
b0 ;
b0 O
b0 )
b0 5
b0 =
b0 A
b0 M
b100 K
b10 L
b10000100010010011000100011 '
b10000100010010011000100011 4
b10000100010010011000100011 9
b10000100010010011000100011 C
b10000100010010011000100011 ?
0/
1,
#70
0,
#75
b10011 $
b10011 E
b10011 N
b11111101000000010000000100010011 '
b11111101000000010000000100010011 4
b11111101000000010000000100010011 9
b11111101000000010000000100010011 C
b11111101000000010000000100010011 ?
b0 L
1,
#80
0,
#85
1,
#90
0,
#95
1,
#100
0,
#105
1,
#110
0,
#115
1,
#120
0,
#125
b1 ;
b10 O
b100 )
b100 5
b100 =
b100 A
b100 M
1/
1,
#130
0,
#135
b10000100010010011000100011 $
b10000100010010011000100011 E
b10000100010010011000100011 N
b10 ;
b1000 )
b1000 5
b1000 =
b1000 A
b1000 M
b10000100010010011000100011 '
b10000100010010011000100011 4
b10000100010010011000100011 9
b10000100010010011000100011 C
b10000100010010011000100011 ?
b10 L
b1000 .
b1000 F
1,
#140
0,
#145
b10100000010010010000100011 $
b10100000010010010000100011 E
b10100000010010010000100011 N
b11 ;
b1100 )
b1100 5
b1100 =
b1100 A
b1100 M
b10100000010010010000100011 '
b10100000010010010000100011 4
b10100000010010010000100011 9
b10100000010010010000100011 C
b10100000010010010000100011 ?
b1100 .
b1100 F
1-
1,
#150
0,
#155
b11000000010000010000010011 $
b11000000010000010000010011 E
b11000000010000010000010011 N
b11000000010000010000010011 '
b11000000010000010000010011 4
b11000000010000010000010011 9
b11000000010000010000010011 C
b11000000010000010000010011 ?
1,
#160
0,
#165
b100 ;
b10000 )
b10000 5
b10000 =
b10000 A
b10000 M
b10000 .
b10000 F
0-
1,
#170
0,
#175
b11111100101001000010111000100011 $
b11111100101001000010111000100011 E
b11111100101001000010111000100011 N
b101 ;
b10100 )
b10100 5
b10100 =
b10100 A
b10100 M
b11111100101001000010111000100011 '
b11111100101001000010111000100011 4
b11111100101001000010111000100011 9
b11111100101001000010111000100011 C
b11111100101001000010111000100011 ?
b10100 .
b10100 F
1,
#180
0,
#185
b11111100101101000010110000100011 $
b11111100101101000010110000100011 E
b11111100101101000010110000100011 N
b110 ;
b11000 )
b11000 5
b11000 =
b11000 A
b11000 M
b11111100101101000010110000100011 '
b11111100101101000010110000100011 4
b11111100101101000010110000100011 9
b11111100101101000010110000100011 C
b11111100101101000010110000100011 ?
b11000 .
b11000 F
1,
#190
0,
#195
b11111101110001000010011110000011 $
b11111101110001000010011110000011 E
b11111101110001000010011110000011 N
b0 O
b11111101110001000010011110000011 '
b11111101110001000010011110000011 4
b11111101110001000010011110000011 9
b11111101110001000010011110000011 C
b11111101110001000010011110000011 ?
0/
1,
#200
0,
#205
b0 ;
b0 )
b0 5
b0 =
b0 A
b0 M
b10011 $
b10011 E
b10011 N
b0 L
1,
#210
0,
#215
b11111101000000010000000100010011 '
b11111101000000010000000100010011 4
b11111101000000010000000100010011 9
b11111101000000010000000100010011 C
b11111101000000010000000100010011 ?
1,
