S25_core/rtl/scratch_dir/timed_pulse_tb.vcd
$date
	Thu Apr  3 01:12:10 2025
$end
$version
	Icarus Verilog
$end
$timescale
	1s
$end
$scope module timed_pulse_tb $end
$var wire 1 ! value_o $end
$var wire 1 " req_done $end
$var wire 1 # grant $end
$var wire 1 $ bram_en $end
$var parameter 32 % L $end
$var parameter 32 & N $end
$var reg 1 ' clk $end
$var reg 1 ( ins_data_req_o $end
$var reg 1 ) reset $end
$scope module dut $end
$var wire 1 $ bram_en $end
$var wire 1 ' clk $end
$var wire 1 # grant $end
$var wire 1 * grant_w $end
$var wire 1 ( ins_data_req_o $end
$var wire 1 " req_done $end
$var wire 1 ) reset $end
$var wire 1 + req_done_w $end
$var parameter 32 , L $end
$var parameter 32 - N $end
$var reg 1 . bram_read $end
$var reg 1 / capture_done $end
$var reg 32 0 counter [31:0] $end
$var reg 32 1 counter_L [31:0] $end
$var reg 1 2 delay_done $end
$var reg 1 3 pulse_out $end
$var reg 1 ! value_o $end
$upscope $end
$upscope $end
$enddefinitions $end
$comment Show the parameter values. $end
$dumpall
b10 -
b1 ,
b10 &
b1 %
$end
#0
$dumpvars
x3
x2
bx 1
bx 0
x/
0.
x+
0*
1)
0(
0'
0$
0#
x"
x!
$end
#5
03
0!
02
0/
1"
1+
b0 1
b0 0
1'
#10
0'
#15
0)
1'
#20
0'
#25
1'
#30
0'
#35
1(
1'
#40
0'
#45
1#
1*
b1 0
1'
#50
0'
#55
b0 0
1/
1$
1.
0#
0*
0(
1'
#60
0'
#65
0$
0.
13
0/
1(
1'
#70
0'
#75
1#
1*
b1 0
03
1'
#80
0'
#85
1$
1.
0#
0*
0(
1'
#90
0'
#95
0$
0.
1#
1*
1(
1'
#100
0'
#105
0#
0*
1$
1.
b0 0
1/
1'
#110
0'
#115
13
0/
0$
0.
0(
1'
#120
0'
#125
1#
1*
b1 0
03
1(
1'
#130
0'
#135
0#
0*
b0 0
1/
1$
1.
1'
#140
0'
#145
0$
0.
13
0/
0(
1'
#150
0'
#155
03
1(
1'
#160
0'
#165
1#
1*
b1 0
1'
#170
0'
#175
b0 0
1/
1$
1.
0#
0*
0(
1'
#180
0'
#185
0$
0.
13
0/
1(
1'
#190
0'
#195
1#
1*
b1 0
03
1'
#200
0'
#205
1$
1.
0#
0*
0(
1'
#210
0'
#215
0$
0.
1'
#220
0'
#225
1'
#230
0'
#235
1'
#240
0'
#245
1'
#250
0'
#255
1'
#260
0'
#265
1'
#270
0'
#275
1'
#280
0'
#285
1'
#290
0'
#295
1'
#300
0'
#305
1'
#310
0'
#315
1'
#320
0'
#325
b0 0
1/
0#
0*
1(
1'
#330
0'
#335
13
0/
1'
#340
0'
#345
03
0(
1'
#350
0'
#355
1'
#360
0'
#365
1'
#370
0'
#375
1'
#380
0'
#385
1'
#390
0'
#395
1'
#400
0'
#405
1'
#410
0'
#415
1'
#420
0'
#425
1'
#430
0'
#435
1'
#440
0'
#445
1'
#450
0'
#455
1'
#460
0'
#465
1#
1*
b1 0
1(
1'
#470
0'
#475
0#
0*
b0 0
1/
1$
1.
1'
#480
0'
#485
0$
0.
13
0/
0(
1'
#490
0'
#495
03
1'
