rtl/component/regs_swc/regs_swc_tb.vcd
$version Generated by VerilatedVcd $end
$timescale 1ps $end

 $scope module TOP $end
  $scope module regs_swc_tb $end
   $var wire 32 5 REGS_SIZE [31:0] $end
   $var wire  1 4 clk $end
   $var wire  7 ( raddr [6:0] $end
   $var wire 32 ) rdata [31:0] $end
   $var wire  1 ' read $end
   $var wire  1 # rstn $end
   $var wire  7 % waddr [6:0] $end
   $var wire 32 & wdata [31:0] $end
   $var wire  1 $ write $end
   $scope module regs_swc_inst $end
    $var wire 32 5 REGS_SIZE [31:0] $end
    $var wire  1 4 clk $end
    $var wire  7 ( raddr [6:0] $end
    $var wire 32 ) rdata [31:0] $end
    $var wire  1 ' read $end
    $var wire 320 * regs [319:0] $end
    $var wire  1 # rstn $end
    $var wire  7 % waddr [6:0] $end
    $var wire 32 & wdata [31:0] $end
    $var wire  1 $ write $end
   $upscope $end
  $upscope $end
 $upscope $end
$enddefinitions $end


#0
0#
0$
b0000000 %
b00000000000000000000000000000000 &
0'
b0000000 (
b00000000000000000000000000000000 )
b00000000000000000000000000000000000000000000000000000000000000000000000000000000000000000000000000000000000000000000000000000000000000000000000000000000000000000000000000000000000000000000000000000000000000000000000000000000000000000000000000000000000000000000000000000000000000000000000000000000000000000000000000000000 *
14
b00000000000000000000000000001010 5
#5
04
#10
14
#11
1#
#15
04
#20
14
#21
1$
b00000000000000000000000000001010 &
#25
04
#30
b00000000000000000000000000000000000000000000000000000000000000000000000000000000000000000000000000000000000000000000000000000000000000000000000000000000000000000000000000000000000000000000000000000000000000000000000000000000000000000000000000000000000000000000000000000000000000000000000000000000000000000000000000001010 *
14
#31
b0000100 %
b00000000000000000000000000010100 &
#35
04
#40
b00000000000000000000000000000000000000000000000000000000000000000000000000000000000000000000000000000000000000000000000000000000000000000000000000000000000000000000000000000000000000000000000000000000000000000000000000000000000000000000000000000000000000000000000000000000000000000001010000000000000000000000000000001010 *
14
#41
b0001000 %
b00000000000000000000000000011110 &
#45
04
#50
b00000000000000000000000000000000000000000000000000000000000000000000000000000000000000000000000000000000000000000000000000000000000000000000000000000000000000000000000000000000000000000000000000000000000000000000000000000000000000000000000000000000000111100000000000000000000000000001010000000000000000000000000000001010 *
14
#51
b0001100 %
b00000000000000000000000000101000 &
#55
04
#60
b00000000000000000000000000000000000000000000000000000000000000000000000000000000000000000000000000000000000000000000000000000000000000000000000000000000000000000000000000000000000000000000000000000000000000000000000000101000000000000000000000000000000111100000000000000000000000000001010000000000000000000000000000001010 *
14
#61
b0010000 %
b00000000000000000000000000110010 &
#65
04
#70
b00000000000000000000000000000000000000000000000000000000000000000000000000000000000000000000000000000000000000000000000000000000000000000000000000000000000000000000000000000000000000000011001000000000000000000000000000101000000000000000000000000000000111100000000000000000000000000001010000000000000000000000000000001010 *
14
#71
b0010100 %
b00000000000000000000000000111100 &
#75
04
#80
b00000000000000000000000000000000000000000000000000000000000000000000000000000000000000000000000000000000000000000000000000000000000000000000000000000000001111000000000000000000000000000011001000000000000000000000000000101000000000000000000000000000000111100000000000000000000000000001010000000000000000000000000000001010 *
14
#81
b0011000 %
b00000000000000000000000001000110 &
#85
04
#90
b00000000000000000000000000000000000000000000000000000000000000000000000000000000000000000000000000000000000000000000000001000110000000000000000000000000001111000000000000000000000000000011001000000000000000000000000000101000000000000000000000000000000111100000000000000000000000000001010000000000000000000000000000001010 *
14
#91
b0011100 %
b00000000000000000000000001010000 &
#95
04
#100
b00000000000000000000000000000000000000000000000000000000000000000000000000000000000000000101000000000000000000000000000001000110000000000000000000000000001111000000000000000000000000000011001000000000000000000000000000101000000000000000000000000000000111100000000000000000000000000001010000000000000000000000000000001010 *
14
#101
b0100000 %
b00000000000000000000000001011010 &
#105
04
#110
b00000000000000000000000000000000000000000000000000000000010110100000000000000000000000000101000000000000000000000000000001000110000000000000000000000000001111000000000000000000000000000011001000000000000000000000000000101000000000000000000000000000000111100000000000000000000000000001010000000000000000000000000000001010 *
14
#111
b0100100 %
b00000000000000000000000001100100 &
#115
04
#120
b00000000000000000000000001100100000000000000000000000000010110100000000000000000000000000101000000000000000000000000000001000110000000000000000000000000001111000000000000000000000000000011001000000000000000000000000000101000000000000000000000000000000111100000000000000000000000000001010000000000000000000000000000001010 *
14
#121
0$
b0101000 %
b00000000000000000000000000000000 &
#125
04
#130
14
#131
1'
#135
04
#140
b00000000000000000000000000001010 )
14
#141
b0000100 (
#145
04
#150
b00000000000000000000000000010100 )
14
#151
b0001000 (
#155
04
#160
b00000000000000000000000000011110 )
14
#161
b0001100 (
#165
04
#170
b00000000000000000000000000101000 )
14
#171
b0010000 (
#175
04
#180
b00000000000000000000000000110010 )
14
#181
b0010100 (
#185
04
#190
b00000000000000000000000000111100 )
14
#191
b0011000 (
#195
04
#200
b00000000000000000000000001000110 )
14
#201
b0011100 (
#205
04
#210
b00000000000000000000000001010000 )
14
#211
b0100000 (
#215
04
#220
b00000000000000000000000001011010 )
14
#221
b0100100 (
#225
04
#230
b00000000000000000000000001100100 )
14
#231
0'
b0101000 (
